/* XPM */
static char *by[] = {
/* columns rows colors chars-per-pixel */
"32 32 73 1",
"  c black",
". c #00A54F",
"X c #00A550",
"o c #01A551",
"O c #00A650",
"+ c #00A651",
"@ c #984D33",
"# c #994D34",
"$ c #ED1A22",
"% c #ED1B23",
"& c #ED1C24",
"* c #F11922",
"= c #F11A23",
"- c #F15258",
"; c #F35B62",
": c #F25C62",
"> c #F4787C",
", c #F4797D",
"< c #F47A7E",
"1 c #F47A7F",
"2 c #F57C81",
"3 c #F57E82",
"4 c #F57E83",
"5 c #F57F83",
"6 c #F77D82",
"7 c #87C099",
"8 c #87C19A",
"9 c #87C29C",
"0 c #87C39C",
"q c #87C9A2",
"w c #88D2AB",
"e c #CD9186",
"r c #F58084",
"t c #F58085",
"y c #F58286",
"u c #F58387",
"i c #F58488",
"p c #F5868B",
"a c #F5878B",
"s c #F5888C",
"d c #F6898D",
"f c #F68A8E",
"g c #F68B8F",
"h c #F9878C",
"j c #F68B90",
"k c #F68C90",
"l c #F69093",
"z c #F69094",
"x c #F69296",
"c c #F7989C",
"v c #F79B9E",
"b c #FB969B",
"n c #FB9A9F",
"m c #F79CA0",
"M c #F8A7AA",
"N c #F8A9AD",
"B c #F8AAAD",
"V c #F8ACAF",
"C c #F9ACAF",
"Z c #FCABAF",
"A c #F8ADB0",
"S c #F9AEB1",
"D c #F9B1B4",
"F c #F9B8BB",
"G c #F9B9BB",
"H c #FAB9BB",
"J c #F9B9BC",
"K c #FBC8CA",
"L c #FCDBDC",
"P c #FCDEDF",
"I c #FFDCDE",
"U c #FDE9EA",
"Y c None",
/* pixels */
"YYYYYYYYYYYYYYYYYYYYYYYYYYYYYYYY",
"YYYYYYYYYYYYYYYYYYYYYYYYYYYYYYYY",
"YYYYYYYYYYYYYYYYYYYYYYYYYYYYYYYY",
"YYYYYYYYYYYYYYYYYYYYYYYYYYYYYYYY",
"YYYYYYYYYYYYYYYYYYYYYYYYYYYYYYYY",
"YYYYYYYYYYYYYYYYYYYYYYYYYYYYYYYY",
"YYYYYYYYYYYYYYYYYYYYYYYYYYYYYYYY",
"ULPx$&&&&&&&&&&&&&&&&&&&&&&&&&&&",
"KMAg$&&&&&&&&&&&&&&&&&&&&&&&&&&&",
"Jgm5%&&&&&&&&&&&&&&&&&&&&&&&&&&&",
"Ggcu%&&&&&&&&&&&&&&&&&&&&&&&&&&&",
"Ggcu%&&&&&&&&&&&&&&&&&&&&&&&&&&&",
"A>pu$%&&&&&&&&&&&&&&&&&&&&&&&&&&",
"l-:,$%&&&&&&&&&&&&&&&&&&&&&&&&&&",
"C,g3%&&&&&&&&&&&&&&&&&&&&&&&&&&&",
"N3p3%&&&&&&&&&&&&&&&&&&&&&&&&&&&",
"N3ar%&&&&&&&&&&&&&&&&&&&&&&&&&&&",
"C,g6============================",
"l-;e@#@@########################",
"D3h0oooooooooooooooooooooooooooo",
"Ggn7O+++++++++++oo++++++++++++++",
"Ggb9O+++++++++++++++++++++++++++",
"Ggn9++++++++++++++++++++++++++++",
"KMZq++++++++++++++++++++++++++++",
"ULPw.ooo++++++++++++++++++++++++",
"YYYYYYYYYYYYYYYYYYYYYYYYYYYYYYYY",
"YYYYYYYYYYYYYYYYYYYYYYYYYYYYYYYY",
"YYYYYYYYYYYYYYYYYYYYYYYYYYYYYYYY",
"YYYYYYYYYYYYYYYYYYYYYYYYYYYYYYYY",
"YYYYYYYYYYYYYYYYYYYYYYYYYYYYYYYY",
"YYYYYYYYYYYYYYYYYYYYYYYYYYYYYYYY",
"YYYYYYYYYYYYYYYYYYYYYYYYYYYYYYYY"
};
