/* XPM */
static char *dj[] = {
/* columns rows colors chars-per-pixel */
"32 32 116 2",
"   c black",
".  c #142116",
"X  c #025407",
"o  c #09159C",
"O  c #2969CB",
"+  c #0DAB26",
"@  c #0FAC28",
"#  c #0FAC29",
"$  c #10AC29",
"%  c #10AD28",
"&  c #10AD29",
"*  c #11AD2A",
"=  c #12AD2A",
"-  c #12AD2B",
";  c #13AD2C",
":  c #16AE2E",
">  c #17AF30",
",  c #19B032",
"<  c #1EB136",
"1  c #22B239",
"2  c #1CAE41",
"3  c #1DAE42",
"4  c #2DB643",
"5  c #32B847",
"6  c #32B848",
"7  c #35B753",
"8  c #40BD54",
"9  c #46BF5A",
"0  c #52C364",
"q  c #59C66B",
"w  c #5FC870",
"e  c #6DCD7D",
"r  c #5EB1D0",
"t  c #5FB1D0",
"y  c #72B9DB",
"u  c #67B0E6",
"i  c #68B1E7",
"p  c #69B2E7",
"a  c #6AB2E7",
"s  c #6BB2E7",
"d  c #6CB3E7",
"f  c #6AB2E8",
"g  c #6BB2E8",
"h  c #6AB4E8",
"j  c #6DB4E8",
"k  c #6FB5E8",
"l  c #71B6E8",
"z  c #77B9E9",
"x  c #7ABAEA",
"c  c #75CF84",
"v  c #FF1C1C",
"b  c #FF2B2B",
"n  c #FF4646",
"m  c #FF4D4D",
"M  c #83BFEB",
"N  c #8BD797",
"B  c #93DA9E",
"V  c #A1DFAA",
"C  c #A8E1B1",
"Z  c #A9E1B2",
"A  c #B0E4B8",
"S  c #86C1EC",
"D  c #8DC4ED",
"F  c #91C6ED",
"G  c #95C8EE",
"H  c #9DCCEF",
"J  c #A2CFF0",
"K  c #B0D6F2",
"L  c #B5D9F3",
"P  c #BFDEF5",
"I  c #BFDEF6",
"U  c #BCE8C3",
"Y  c #FF9696",
"T  c #FFB2B2",
"R  c #FFBABA",
"E  c #FFBBBB",
"W  c #C3EAC9",
"Q  c #C7ECCD",
"!  c #D4F0D9",
"~  c #DAF2DE",
"^  c #C2E0F5",
"/  c #C7E2F6",
"(  c #CFE6F7",
")  c #D4E9F8",
"_  c #D7EAF8",
"`  c #DFEEFA",
"'  c #FFC0C0",
"]  c #FFC3C3",
"[  c #FFD5D5",
"{  c #FFD9D9",
"}  c #E7F7E9",
"|  c #EBF8ED",
" . c #E3F1FA",
".. c #ECF5FC",
"X. c #EFF7FC",
"o. c #FFECEC",
"O. c #F1FAF2",
"+. c #F3FBF5",
"@. c #F6FCF7",
"#. c #F4F9FE",
"$. c #F5FAFE",
"%. c #F7FBFE",
"&. c #FFF0F0",
"*. c #FFF4F4",
"=. c #F9FDFA",
"-. c #FAFDFA",
";. c #FBFEFB",
":. c #FAFCFE",
">. c #FBFDFE",
",. c snow",
"<. c #FFFDFD",
"1. c #FEFEFF",
"2. c #FEFFFE",
"3. c #FFFEFE",
"4. c gray100",
"5. c None",
/* pixels */
"5.5.5.5.5.5.5.5.5.5.5.5.5.5.5.5.5.5.5.5.5.5.5.5.5.5.5.5.5.5.5.5.",
"5.5.5.5.5.5.5.5.5.5.5.5.5.5.5.5.5.5.5.5.5.5.5.5.5.5.5.5.5.5.5.5.",
"5.5.5.5.5.5.5.5.5.5.5.5.5.5.5.5.5.5.5.5.5.5.5.5.5.5.5.5.5.5.5.5.",
"5.5.5.5.5.5.5.5.5.5.5.5.5.5.5.5.5.5.5.5.5.5.5.5.5.5.5.5.5.5.5.5.",
"o O h a a a a a a a a a a a a a a a a a a a a a a a a a a a a a ",
"P x u a a a a a a a a a a a a a a a a a a a a a a a a a a a a a ",
":._ G j u a a a a a a a a a a a a a a a a a a a a a a a a a a a ",
"4.4.%./ S a a a a a a a a a a a a a a a a a a a a a a a a a a a ",
"4.4.4.4.X.L x a a a a a a a a a a a a a a a a a a a a a a a a a ",
"4.4.4.4.4.4. .J l u a a a a a a a a a a a a a a a a a a a a a a ",
"4.4.4.4.4.4.4.:._ D a a a a a a a a a a a a a a a a a a a a a a ",
"4.4.4.4.4.4.4.4.4.%.^ M a a a a a a a a a a a a a a a a a a a a ",
"4.4.4.4.4.4.4.4.4.4.4...K z a a a a a a a a a a a a a a a a a a ",
"4.4.4.4.4.4.,.4.4.4.4.4.4.` H j a a a a a a a a a a a a a a a a ",
"4.4.4.4.4.{ T 4.4.4.4.4.4.4.:.( D a g g g g g g g g g g g g g g ",
"4.4.4.4.E m b Y *.4.4.4.4.4.4.4.#.P y t t t t t t t t t t t t t ",
"4.4.4.4.o.n v R 4.4.4.4.4.4.4.4.O.V 7 2 3 3 3 3 3 3 3 3 3 3 3 3 ",
"4.4.4.4.&.R ] [ 4.4.4.4.4.4.=.U 0 : # & & & & & & ; & & & & & ; ",
"4.4.4.4.4.4.4.4.4.4.4.4.4.! e < # ; & ; ; ; & ; ; ; & & ; ; ; ; ",
"4.4.4.4.4.4.4.4.4.4.4.} N 4 $ & & ; & ; & ; ; ; ; ; ; ; & & ; ; ",
"4.4.4.4.4.4.4.4.4.+.C 8 & & : ; ; & ; ; & ; ; & & ; ; ; ; ; ; & ",
"4.4.4.4.4.4.4.=.W q > # & ; & ; ; ; & ; & ; ; & ; ; & & ; & ; ; ",
"4.4.4.4.4.4.~ c 1 # & ; & ; ; ; & & ; ; ; ; ; ; ; & ; ; & ; & ; ",
"4.4.4.4.| B 5 # & ; ; & ; ; & & ; ; ; & ; & & ; ; ; & ; ; ; & ; ",
"4.4.O.Z 9 : $ & ; & ; ; ; & ; ; & ; ; ; ; ; ; & & ; ; & ; ; ; & ",
"-.Q e , # & & & ; & ; & ; ; & ; ; ; & & & & ; ; & ; ; & ; & ; ; ",
"C 5 + & ; & : & ; ; & ; & & ; ; ; & ; ; ; ; & ; ; ; ; ; & ; & ; ",
". X @ $ & : & ; & ; ; & ; ; ; & ; ; & ; ; & ; ; ; & & ; ; ; & ; ",
"5.5.5.5.5.5.5.5.5.5.5.5.5.5.5.5.5.5.5.5.5.5.5.5.5.5.5.5.5.5.5.5.",
"5.5.5.5.5.5.5.5.5.5.5.5.5.5.5.5.5.5.5.5.5.5.5.5.5.5.5.5.5.5.5.5.",
"5.5.5.5.5.5.5.5.5.5.5.5.5.5.5.5.5.5.5.5.5.5.5.5.5.5.5.5.5.5.5.5.",
"5.5.5.5.5.5.5.5.5.5.5.5.5.5.5.5.5.5.5.5.5.5.5.5.5.5.5.5.5.5.5.5."
};
