/* XPM */
static char *dk[] = {
/* columns rows colors chars-per-pixel */
"32 32 28 1",
"  c black",
". c #D00A31",
"X c #D00B32",
"o c #D00C33",
"O c #D00D33",
"+ c #D00E34",
"@ c #D31A3F",
"# c #D31B40",
"$ c #D42043",
"% c #D42144",
"& c #D42245",
"* c #D72E50",
"= c #ED9FAE",
"- c #ED9FAF",
"; c #EDA0AF",
": c #EEA5B4",
"> c #EFABB8",
", c #F0B2BE",
"< c #F6CED6",
"1 c #F7D2D9",
"2 c #F7D7DD",
"3 c #F8D9DF",
"4 c #F9DEE3",
"5 c #FBECEF",
"6 c #FCF1F3",
"7 c #FEF7F8",
"8 c gray100",
"9 c None",
/* pixels */
"99999999999999999999999999999999",
"99999999999999999999999999999999",
"99999999999999999999999999999999",
"oooooooooo-882&Xoooooooooooooooo",
"oooooooooo-882$Xoooooooooooooooo",
"oooooooooo-882$Xoooooooooooooooo",
"oooooooooo-882&Xoooooooooooooooo",
"oooooooooo-882&Xoooooooooooooooo",
"oooooooooo-882$Xoooooooooooooooo",
"oooooooooo-882$Xoooooooooooooooo",
"oooooooooo-882&Xoooooooooooooooo",
"oooooooooo-882&Xoooooooooooooooo",
"oooooooooo-882&Xoooooooooooooooo",
"++++++++++;882&o++++++++++++++++",
">>>>>>>>>>4886,>>>>>>>>>>>>>>>>>",
"88888888888888888888888888888888",
"88888888888888888888888888888888",
"<<<<<<<<<<58871<<<<<<<<<<<<<<<<<",
"##########:883*@################",
"XXXXXXXXXX-882$XXXXXXXXXXXXXXXXX",
"oooooooooo-882$Xoooooooooooooooo",
"oooooooooo-882$Xoooooooooooooooo",
"oooooooooo-882&Xoooooooooooooooo",
"oooooooooo-882&Xoooooooooooooooo",
"oooooooooo-882$Xoooooooooooooooo",
"oooooooooo-882$Xoooooooooooooooo",
"oooooooooo-882&Xoooooooooooooooo",
"oooooooooo-882&Xoooooooooooooooo",
"oooooooooo-882&Xoooooooooooooooo",
"99999999999999999999999999999999",
"99999999999999999999999999999999",
"99999999999999999999999999999999"
};
