/* XPM */
static char *dz[] = {
/* columns rows colors chars-per-pixel */
"32 32 65 1",
"  c black",
". c #1A7630",
"X c #2B6C2D",
"o c #2A6F2E",
"O c #25712F",
"+ c #27702F",
"@ c #247230",
"# c #4C5B26",
"$ c #565624",
"% c #606435",
"& c #537441",
"* c #008536",
"= c #008737",
"- c #058337",
"; c #078337",
": c #008638",
"> c #008738",
", c #008739",
"< c #008838",
"1 c #008839",
"2 c #1E904C",
"3 c #1D9751",
"4 c #1F9550",
"5 c #1F9651",
"6 c #1F9652",
"7 c #933315",
"8 c #983014",
"9 c #B81E0C",
"0 c #BB1C0C",
"q c #AB240E",
"w c #D90B05",
"e c #D90C05",
"r c #DC0903",
"t c #DF0E09",
"y c #EB0100",
"u c #EB0101",
"i c #EE1010",
"p c #F20000",
"a c #F30000",
"s c #F11C1D",
"d c #ED3D3B",
"f c #F45D5D",
"g c #F56E6E",
"h c #DBA49B",
"j c #DCB2A9",
"k c #F68383",
"l c #F78888",
"z c #E6A49E",
"x c #FBC7C7",
"c c #FDC4C4",
"v c #FDD2D2",
"b c #FCDBDB",
"n c #E2E5DD",
"m c #E0F0E7",
"M c #E0F1E7",
"N c #FDE0E0",
"B c #FDE1E1",
"V c #FDE2E2",
"C c #FDE7E7",
"Z c #FEEEEE",
"A c #FEF2F2",
"S c #FFF7F7",
"D c snow",
"F c gray100",
"G c None",
/* pixels */
"GGGGGGGGGGGGGGGGGGGGGGGGGGGGGGGG",
"GGGGGGGGGGGGGGGGGGGGGGGGGGGGGGGG",
"GGGGGGGGGGGGGGGGGGGGGGGGGGGGGGGG",
"GGGGGGGGGGGGGGGGGGGGGGGGGGGGGGGG",
"::::::::::::::*4mFFFFFFFFFFFFFFF",
"::::::::::::::*4mFFFFFFFFFFFFFFF",
"::::::::::::::*4mFFFFFFFFFFFFFFF",
"::::::::::::::*4mFFFFFFFFFFFFFFF",
"::::::::::::::=4mFFFFFFFFFFFFFFF",
"::::::::::::::=6mFFFFFFFFFFFFFFF",
":::::::::::::-o%zvSFFFFFFFFFFFFF",
"::::::::::::O8rtdflbFFFFFFFFFFFF",
":::::::::::@0pq&nSNxZFFFFFFFFFFF",
"::::::::::-7p0.6mFCADFFFFFFFFFFF",
"::::::::::oeu$12jcgNFFFFFFFFFFFF",
":::::::::1#ueO=6hsikNFFFFFFFFFFF",
":::::::::1#uwO=6hsikNFFFFFFFFFFF",
":::::::::1oeu$:2jcgNFFFFFFFFFFFF",
"::::::::::-7p0.6MFCADFFFFFFFFFFF",
"::::::::::1@0pq&nDNxZFFFFFFFFFFF",
":::::::::::1+8rtdflbFFFFFFFFFFFF",
":::::::::::::-X%zvSFFFFFFFFFFFFF",
"::::::::::::=:=6MFFFFFFFFFFFFFFF",
"::::::::::::===6MFFFFFFFFFFFFFFF",
"::::::::::::::=2mFFFFFFFFFFFFFFF",
"::::::::::::::=6mFFFFFFFFFFFFFFF",
"::::::::::::::=6mFFFFFFFFFFFFFFF",
"::::::::::::::=2mFFFFFFFFFFFFFFF",
"GGGGGGGGGGGGGGGGGGGGGGGGGGGGGGGG",
"GGGGGGGGGGGGGGGGGGGGGGGGGGGGGGGG",
"GGGGGGGGGGGGGGGGGGGGGGGGGGGGGGGG",
"GGGGGGGGGGGGGGGGGGGGGGGGGGGGGGGG"
};
