/* XPM */
static char *eg[] = {
/* columns rows colors chars-per-pixel */
"32 32 44 1",
"  c black",
". c #CD0E24",
"X c #CD0E25",
"o c #CD0F25",
"O c #CE1126",
"+ c #8E8A78",
"@ c #8E8A79",
"# c #FCD735",
"$ c #FCD736",
"% c #FDD83A",
"& c #FCD93D",
"* c #FDE370",
"= c #FDE476",
"- c #FDE57B",
"; c #FDE67F",
": c #8E8B80",
"> c #8E8E8E",
", c #E88D86",
"< c #E88F8F",
"1 c #E8919A",
"2 c #E8919B",
"3 c #FDE889",
"4 c #FDE88C",
"5 c #FDE98E",
"6 c #FEEC9D",
"7 c #FEEC9F",
"8 c #FFF1A7",
"9 c #FFF1A9",
"0 c #FEF0B3",
"q c #FEF1B8",
"w c #FEF1BA",
"e c #FEF2BB",
"r c #FFF6BE",
"t c #FFF6BF",
"y c #FEF3C2",
"u c #FEF6D3",
"i c #FFF7D7",
"p c #FFFBE1",
"a c #FFFCE7",
"s c #FFFCE9",
"d c #FFFFFD",
"f c #FFFFFE",
"g c gray100",
"h c None",
/* pixels */
"hhhhhhhhhhhhhhhhhhhhhhhhhhhhhhhh",
"hhhhhhhhhhhhhhhhhhhhhhhhhhhhhhhh",
"hhhhhhhhhhhhhhhhhhhhhhhhhhhhhhhh",
"hhhhhhhhhhhhhhhhhhhhhhhhhhhhhhhh",
"OOOOOOOOOOOOOOOOOOOOOOOOOOOOOOOO",
"OOOOOOOOOOOOOOOOOOOOOOOOOOOOOOOO",
"OOOOOOOOOOOOOOOOOOOOOOOOOOOOOOOO",
"OOOOOOOOOOOOOOOOOOOOOOOOOOOOOOOO",
"OOOOOOOOOOOOOOOOOOOOOOOOOOOOOOOO",
"OOOOOOOOOOOOOOOOOOOOOOOOOOOOOOOO",
"OOOOOOOOOOOOOOOOOOOOOOOOOOOOOOOO",
"................................",
"111111111111111,<111111111111111",
"gggggggggggggggpaggggggggggggggg",
"gggggggggggggi6ee6uggggggggggggg",
"gggggggggggggy#*=#eggggggggggggg",
"ggggggggggggge%34&0ggggggggggggg",
"ggggggggggggge;44;0ggggggggggggg",
"gggggggggggggar98raggggggggggggg",
">>>>>>>>>>>>>>:++:>>>>>>>>>>>>>>",
"                                ",
"                                ",
"                                ",
"                                ",
"                                ",
"                                ",
"                                ",
"                                ",
"hhhhhhhhhhhhhhhhhhhhhhhhhhhhhhhh",
"hhhhhhhhhhhhhhhhhhhhhhhhhhhhhhhh",
"hhhhhhhhhhhhhhhhhhhhhhhhhhhhhhhh",
"hhhhhhhhhhhhhhhhhhhhhhhhhhhhhhhh"
};
