/* XPM */
static char *es[] = {
/* columns rows colors chars-per-pixel */
"32 32 86 1",
"  c black",
". c #7C461E",
"X c #674541",
"o c #933D0D",
"O c #984714",
"+ c #955516",
"@ c #A85D0A",
"# c #AF5B0F",
"$ c #A45213",
"% c #AF5510",
"& c #AA5D12",
"* c #B85216",
"= c #A6610B",
"- c #B36011",
"; c #BC7D12",
": c #A06E25",
"> c #BA6B28",
", c #8A4F4B",
"< c #9B5E47",
"1 c #A65247",
"2 c #AA7C42",
"3 c #C5081F",
"4 c #C60B1E",
"5 c #DA4D13",
"6 c #DB4D12",
"7 c #DB4D13",
"8 c #C26509",
"9 c #C2770F",
"0 c #CD750F",
"q c #C27B39",
"w c #C07F4E",
"e c #AE9C36",
"r c #A19840",
"t c #C6800C",
"y c #CD950D",
"u c #D7880A",
"i c #D49E01",
"p c #D99B09",
"a c #D59126",
"s c #D99924",
"d c #D3A70E",
"f c #DCA602",
"g c #D4A210",
"h c #D6A018",
"j c #C8AA25",
"k c #C6A731",
"l c #CDA930",
"z c #DDA927",
"x c #E4A204",
"c c #EDAA0C",
"v c #EEAD0B",
"b c #E5B209",
"n c #EAB200",
"m c #ECB707",
"M c #E9BA0F",
"N c #EEBB0D",
"B c #E2B416",
"V c #F2B60B",
"C c #F4BD04",
"Z c #F0BC0B",
"A c #F4BE08",
"S c #F5BD0C",
"D c #F9BE00",
"F c #F0BE13",
"G c #C68443",
"H c #C1854C",
"J c #C48847",
"K c #CCAA53",
"L c #D4AB44",
"P c #CFAC76",
"I c #F7C006",
"U c #F8C003",
"Y c #F9C102",
"T c #FAC103",
"R c #F9C005",
"E c #FCC200",
"W c #FDC201",
"Q c #FEC300",
"! c #FFC300",
"~ c #FEC400",
"^ c #FFC400",
"/ c #FFC500",
"( c #B48A9F",
") c #BA9197",
"_ c #C89F8C",
"` c None",
/* pixels */
"````````````````````````````````",
"````````````````````````````````",
"````````````````````````````````",
"````````````````````````````````",
"44444444444444444444444444444444",
"44444444444444444444444444444444",
"44444444444444444444444444444444",
"44444444444444444444444444444444",
"44444444444444444444444444444444",
"43333433333334333333333434333333",
"55555555555555555555555555555555",
"!!!!!!!!!!!!^^^^!!!!!!!!!!!!!!!!",
"!!^^^^^^CmdbC!^^!^^^^^^^^^^^!^^^",
"^^^^^^^^p-&#tY^^!^^^^^^^^^^^!^^^",
"^^^^^^Dix=+:hfn^^^^^^^^^^^^^^^^^",
"^^^^^^Ik0o1)PlB^^^^^^^^^^^^^^^^^",
"^^^^^^vH*.,(_Js^^^^^^^^^^^^^^^^^",
"^^^^^^cw9OX<qGa!^^^^^^^^^^^^^^^^",
"^^^^^^VKy@$%8Lz!^^^^^^^!^^^^^^^^",
"^^^^^^Mrg;2>uej^^^^^^^^!^^^^^^^^",
"!!!!!!YNYRFS!ZA!!!!!!!!!!!!!!!!!",
"55555555555555555555555555555555",
"33433333334333344333333333333343",
"44444444444444444444444444444444",
"44444444444444444444444444444444",
"44444444444444444444444444444444",
"44444444444444444444444444444444",
"44444444444444444444444444444444",
"````````````````````````````````",
"````````````````````````````````",
"````````````````````````````````",
"````````````````````````````````"
};
