/* XPM */
static char *hr[] = {
/* columns rows colors chars-per-pixel */
"32 32 98 2",
"   c black",
".  c #001072",
"X  c #011172",
"o  c #021272",
"O  c #021373",
"+  c #031373",
"@  c #182179",
"#  c #1B237A",
"$  c #3D2B73",
"%  c #422C72",
"&  c #402D74",
"*  c #442D72",
"=  c #7F1B4B",
"-  c #7B2A55",
";  c #4F5148",
":  c #547368",
">  c #5A757D",
",  c #6F5968",
"<  c #69686A",
"1  c #5E7B81",
"2  c #3F896E",
"3  c #71857B",
"4  c #599BAB",
"5  c #AC2139",
"6  c #B62732",
"7  c #921F41",
"8  c #815949",
"9  c #944B54",
"0  c #9D4C53",
"q  c #8D6E73",
"w  c #8D757A",
"e  c #B35458",
"r  c #D61517",
"t  c #D71416",
"y  c #D71516",
"u  c #D51719",
"i  c #D61518",
"p  c #D21B1F",
"a  c #D81416",
"s  c #D91416",
"d  c #D91516",
"f  c #D01B20",
"g  c #C4292E",
"h  c #C62B2D",
"j  c #C02831",
"k  c #C54B52",
"l  c #CC4D53",
"z  c #E15557",
"x  c #E15758",
"c  c #E25759",
"v  c #E2595B",
"b  c #E25A5E",
"n  c #E55D5F",
"m  c #E15C60",
"M  c #E96E6E",
"N  c #E96F6F",
"B  c #E26F72",
"V  c #E17276",
"C  c #E87E7F",
"Z  c #818776",
"A  c #A6A6C7",
"S  c #A6A6C8",
"D  c #A5ABCD",
"F  c #C5A8BC",
"G  c #C9ACBF",
"H  c #E98081",
"J  c #E98282",
"K  c #E98485",
"L  c #EA8889",
"P  c #E38D92",
"I  c #E58F95",
"U  c #EB8F90",
"Y  c #E59497",
"T  c #E0969A",
"R  c #EB9091",
"E  c #EE9394",
"W  c #ED999A",
"Q  c #EE9C9C",
"!  c #EE9FA0",
"~  c #EFA4A4",
"^  c #F0A7A7",
"/  c #F1A8A8",
"(  c #F2B1B2",
")  c #F2B3B4",
"_  c #F2B4B4",
"`  c #F2B6B7",
"'  c #D9B6C3",
"]  c #DAB6C3",
"[  c #F8D1D2",
"{  c #F9D2D3",
"}  c #FAD5D6",
"|  c #F9DCDC",
" . c #FBDFDF",
".. c #FCDFDF",
"X. c #FDEEEF",
"o. c #FDEFEF",
"O. c gray100",
"+. c None",
/* pixels */
"+.+.+.+.+.+.+.+.+.+.+.+.+.+.+.+.+.+.+.+.+.+.+.+.+.+.+.+.+.+.+.+.",
"+.+.+.+.+.+.+.+.+.+.+.+.+.+.+.+.+.+.+.+.+.+.+.+.+.+.+.+.+.+.+.+.",
"+.+.+.+.+.+.+.+.+.+.+.+.+.+.+.+.+.+.+.+.+.+.+.+.+.+.+.+.+.+.+.+.",
"+.+.+.+.+.+.+.+.+.+.+.+.+.+.+.+.+.+.+.+.+.+.+.+.+.+.+.+.+.+.+.+.",
"+.+.+.+.+.+.+.+.+.+.+.+.+.+.+.+.+.+.+.+.+.+.+.+.+.+.+.+.+.+.+.+.",
"+.+.+.+.+.+.+.+.+.+.+.+.+.+.+.+.+.+.+.+.+.+.+.+.+.+.+.+.+.+.+.+.",
"+.+.+.+.+.+.+.+.+.+.+.+.+.+.+.+.+.+.+.+.+.+.+.+.+.+.+.+.+.+.+.+.",
"r r r r r r r r r r r r r r r r r r r r r r r r r r r r r r r r ",
"r r r r r r r r r r r r r r r r r r r r r r r r r r r r r r r r ",
"r r r r r r r r r r r r r r a s a a a r r r r r r r r r r r r r ",
"r r r r r r r r r r r r g j 5 0 9 7 6 h r r r r r r r r r r r r ",
"r r r r r r r r r r r p 3 1 = : 2 ; > Z f r r r r r r r r r r r ",
"r r r r r r r r r r r i q 4 - , < 8 w e i r r r r r r r r r r r ",
"^ ^ ^ ^ ^ ^ ^ ^ ^ ^ ^ / T k P m b Y l Y / ^ ^ ^ ^ ^ ^ ^ ^ ^ ^ ^ ",
"O.O.O.O.O.O.O.O.O.O.O.O.} n ( K J ( n [ O.O.O.O.O.O.O.O.O.O.O.O.",
"O.O.O.O.O.O.O.O.O.O.O.O.X.| v ! ~ z | X.O.O.O.O.O.O.O.O.O.O.O.O.",
"O.O.O.O.O.O.O.O.O.O.O.O.[ z _ J C ` v [ O.O.O.O.O.O.O.O.O.O.O.O.",
"O.O.O.O.O.O.O.O.O.O.O.O...E L U R L E | O.O.O.O.O.O.O.O.O.O.O.O.",
"D D D D D D D D D D D D A ] N W Q M ] A D D D D D D D D D D D D ",
"+ X + + + X + + + X + + X $ F V V G & + + + + + X + + + + + + X ",
"o o o o o o o o X + X + + X @ * * # X X + X o o o o o o o o o o ",
"o o o o o o o o X X + X X + X X X X + X X + o o o o o o o o o o ",
"o o o o o o o o X + X + + X + X X + X + + o o o o o o o o o o o ",
"o o o o o o o o + X + X X + X + X X + X o o o o o o o o o o o o ",
"o o X X + X X + X X + X X + X X + + X X + + X X o o X X + X X + ",
"+.+.+.+.+.+.+.+.+.+.+.+.+.+.+.+.+.+.+.+.+.+.+.+.+.+.+.+.+.+.+.+.",
"+.+.+.+.+.+.+.+.+.+.+.+.+.+.+.+.+.+.+.+.+.+.+.+.+.+.+.+.+.+.+.+.",
"+.+.+.+.+.+.+.+.+.+.+.+.+.+.+.+.+.+.+.+.+.+.+.+.+.+.+.+.+.+.+.+.",
"+.+.+.+.+.+.+.+.+.+.+.+.+.+.+.+.+.+.+.+.+.+.+.+.+.+.+.+.+.+.+.+.",
"+.+.+.+.+.+.+.+.+.+.+.+.+.+.+.+.+.+.+.+.+.+.+.+.+.+.+.+.+.+.+.+.",
"+.+.+.+.+.+.+.+.+.+.+.+.+.+.+.+.+.+.+.+.+.+.+.+.+.+.+.+.+.+.+.+.",
"+.+.+.+.+.+.+.+.+.+.+.+.+.+.+.+.+.+.+.+.+.+.+.+.+.+.+.+.+.+.+.+."
};
