/* XPM */
static char *in[] = {
/* columns rows colors chars-per-pixel */
"32 32 148 2",
"   c black",
".  c #257B24",
"X  c #267B24",
"o  c #287F22",
"O  c #2D7A3D",
"+  c #2E7B3E",
"@  c #206166",
"#  c #226367",
"$  c #725655",
"%  c #735756",
"&  c #35649A",
"*  c #3C699C",
"=  c #4A598C",
"-  c #4F5E8E",
";  c #406D9E",
":  c #436F9F",
">  c #55608D",
",  c #57628E",
"<  c #456CAE",
"1  c #4B66A6",
"2  c #4E73B1",
"3  c #576DA6",
"4  c #526CA9",
"5  c #596FA6",
"6  c #5577BB",
"7  c #5779BC",
"8  c #597CB5",
"9  c #5B7EB5",
"0  c #587ABC",
"q  c #5F7FBF",
"w  c #2A8515",
"e  c #309101",
"r  c #329301",
"t  c #339301",
"y  c #329202",
"u  c #329203",
"i  c #329302",
"p  c #319005",
"a  c #50A228",
"s  c #51A228",
"d  c #51A229",
"f  c #6583C1",
"g  c #6684C2",
"h  c #6F8CC5",
"j  c #718DC7",
"k  c #728EC6",
"l  c #728EC7",
"z  c #738FC7",
"x  c #7490C8",
"c  c #7590C8",
"v  c #7792C8",
"b  c #7793CA",
"n  c #7892C9",
"m  c #7993C9",
"M  c #7B96CC",
"N  c #AF682E",
"B  c #C16817",
"V  c #C66A17",
"C  c #D46D0B",
"Z  c #E77200",
"A  c #E77300",
"S  c #E77301",
"D  c #E87300",
"F  c #E97300",
"G  c #E97400",
"H  c #EB8117",
"J  c #E98018",
"K  c #859ECF",
"L  c #869ECE",
"P  c #879FCF",
"I  c #859FD1",
"U  c #89A1D0",
"Y  c #8AA2D0",
"T  c #8BA2D1",
"R  c #8AA3D4",
"E  c #8EA5D3",
"W  c #8FA5D2",
"Q  c #8FA5D3",
"!  c #91A7D3",
"~  c #92A8D4",
"^  c #94A9D4",
"/  c #96ABD5",
"(  c #97ACD5",
")  c #9AAED7",
"_  c #9AADD9",
"`  c #9CB0D8",
"'  c #9DB0D8",
"]  c #9EB1D8",
"[  c #9FB1DB",
"{  c #A3B7DD",
"}  c #BBCED4",
"|  c #B1C2E2",
" . c #B3C2E1",
".. c #B5C4E1",
"X. c #B7C5E3",
"o. c #B8C6E3",
"O. c #BAC8E3",
"+. c #BBC8E4",
"@. c #BDCAE4",
"#. c #BDCAE5",
"$. c #BECBE5",
"%. c #BECBE6",
"&. c #BFCCE6",
"*. c #D4CAC8",
"=. c #C2CEE7",
"-. c #C2CFE7",
";. c #C3CFE7",
":. c #C5D1E8",
">. c #C4D1EA",
",. c #C5D2EB",
"<. c #C6D1E8",
"1. c #C7D2E9",
"2. c #C8D3E9",
"3. c #C9D4E9",
"4. c #CAD4EA",
"5. c #CCD6EB",
"6. c #CCD7EB",
"7. c #CDD7EB",
"8. c #CED7EB",
"9. c #CED8EB",
"0. c #CFD8EC",
"q. c #D0D9EC",
"w. c #D0D9EE",
"e. c #D2DAEE",
"r. c #D7DFEF",
"t. c #D8E0EF",
"y. c #D8E1F1",
"u. c #DAE1F1",
"i. c #DBE2F1",
"p. c #DCE3F1",
"a. c #DDE3F1",
"s. c #DDE4F1",
"d. c #DDE4F2",
"f. c #DEE5F2",
"g. c #DFE5F2",
"h. c #FBEAD9",
"j. c #FDECDA",
"k. c #E2E8F3",
"l. c #E3E8F4",
"z. c #E5EAF5",
"x. c #E6EBF5",
"c. c #ECF5E8",
"v. c #EFF7E9",
"b. c #FCFDFE",
"n. c #FDFDFE",
"m. c #FEFEFF",
"M. c gray100",
"N. c None",
/* pixels */
"N.N.N.N.N.N.N.N.N.N.N.N.N.N.N.N.N.N.N.N.N.N.N.N.N.N.N.N.N.N.N.N.",
"N.N.N.N.N.N.N.N.N.N.N.N.N.N.N.N.N.N.N.N.N.N.N.N.N.N.N.N.N.N.N.N.",
"N.N.N.N.N.N.N.N.N.N.N.N.N.N.N.N.N.N.N.N.N.N.N.N.N.N.N.N.N.N.N.N.",
"A A A A A A A A A A A A A A A A A A A A A A A A A A A A A A A A ",
"A A A A A A A A A A A A A A A A A A A A A A A A A A A A A A A A ",
"A A A A A A A A A A A A A A A A A A A A A A A A A A A A A A A A ",
"A A A A A A A A A A A A A A A A A A A A A A A A A A A A A A A A ",
"A A A A A A A A A A A A A A A A A A A A A A A A A A A A A A A A ",
"A A A A S S S S S S S S A A D G D D A A A A A A A A S S S S S S ",
"A A A A S S S S S G S S G A C B B C A D A A A A A A S S S S S S ",
"S S A A S S A A S G S G V $ > 3 5 > $ V D A A A A A A S A G S S ",
"J J J S J J S J J J J N = I :.y.y.:.R - N H J J J J S J J J J J ",
"j.j.h.h.h.h.h.h.j.j.*.1 { d.9.$.#.7.d.| 4 *.j.h.h.h.h.h.j.h.h.h.",
"M.M.M.M.M.M.M.M.M.M.b K d.O.^ n n ! #.a.E M M.M.M.M.M.M.M.M.M.M.",
"M.M.M.M.M.M.M.M.M.z.6 :.9.! h ^ / k T 4.8.q z.M.M.M.M.M.M.M.M.M.",
"M.M.M.M.M.M.M.M.M.9.7 t.#.b ^ =.=.) c #.d.f 8.M.M.M.M.M.M.M.M.M.",
"M.M.M.M.M.M.M.M.M.8.0 r.O.c ) =.=.' k o.d.g 4.M.M.M.M.M.M.M.M.M.",
"M.M.M.M.M.M.M.M.M.l.6 :.4.U k ) ] b K 2.0.q k.M.M.M.M.M.M.M.M.M.",
"M.M.M.M.M.M.M.M.M.M.k E a.o.U k k K ..a.] x M.M.M.M.M.M.M.M.M.M.",
"c.c.c.c.c.c.c.c.c.c.} < X.d.2.....<.a.#.2 } c.c.c.c.c.c.c.c.c.c.",
"a a a a a a a a a a a + & _ w.y.u.e.] * + a a a a a a a a a a a ",
"e e e t e e e e t e e t w @ < 8 8 : @ o t t e e t e e e t e e t ",
"p t p t t p t p t p t t i p w X X w p t p p t p p p p t p t p t ",
"t p t p p t p t p t p t i i i i t t t t p t p t t p t p t p t p ",
"p t i i p p i i p i i i p i i p i p p i p i i i p i p i i i p i ",
"i p p i i i i p i i p i p i i p i i i i i i p p p t i i p i p i ",
"t p i i i i i p i p i p i i i i p i i p i p i i i i p p i p i i ",
"p i i p p p i i i p i i i p p i p i i p i i p i p i i i i i i p ",
"i p i i i i i p i i p i i p i i i i i p i i p i i p i i p i i p ",
"N.N.N.N.N.N.N.N.N.N.N.N.N.N.N.N.N.N.N.N.N.N.N.N.N.N.N.N.N.N.N.N.",
"N.N.N.N.N.N.N.N.N.N.N.N.N.N.N.N.N.N.N.N.N.N.N.N.N.N.N.N.N.N.N.N.",
"N.N.N.N.N.N.N.N.N.N.N.N.N.N.N.N.N.N.N.N.N.N.N.N.N.N.N.N.N.N.N.N."
};
