/* XPM */
static char *kh[] = {
/* columns rows colors chars-per-pixel */
"32 32 109 2",
"   c black",
".  c #4B005F",
"X  c #480062",
"o  c #480063",
"O  c #4B0060",
"+  c #490669",
"@  c #4A086A",
"#  c #4E0E6E",
"$  c #4E0F6F",
"%  c #511E7E",
"&  c #511E7F",
"*  c #511F7F",
"=  c #000099",
"-  c #00009A",
";  c #00009B",
":  c #00009C",
">  c #511F80",
",  c #522384",
"<  c #532485",
"1  c #CB0000",
"2  c #CB0001",
"3  c #CB0101",
"4  c #CC0000",
"5  c #CC0101",
"6  c #CC0202",
"7  c #CD0606",
"8  c #CE0A0A",
"9  c #CE0C0C",
"0  c #CF0F0F",
"q  c #D01515",
"w  c #D11A1A",
"e  c #D11B1B",
"r  c #D11C1C",
"t  c #D32222",
"y  c #D32323",
"u  c #D42929",
"i  c #D42C2C",
"p  c #D63232",
"a  c #D63535",
"s  c #D73D3E",
"d  c #D83D3D",
"f  c #D83E3E",
"g  c #D93F3F",
"h  c #DA4545",
"j  c #DA4646",
"k  c #DA4747",
"l  c #D94748",
"z  c #DB4949",
"x  c #DB4C4C",
"c  c #DD5353",
"v  c #DD5454",
"b  c #DD5555",
"n  c #E06767",
"m  c #E37272",
"M  c #E57F7F",
"N  c #E68181",
"B  c #E88B8B",
"V  c #E88C8C",
"C  c #E99393",
"Z  c #EC9E9E",
"A  c #EC9F9F",
"S  c #EDA5A5",
"D  c #EDA7A7",
"F  c #EEA8A8",
"G  c #EEAAAA",
"H  c #EEABAB",
"J  c #EEACAC",
"K  c #EEADAD",
"L  c #EFACAC",
"P  c #EFADAD",
"I  c #EFAFAF",
"U  c #EFB0B0",
"Y  c #F0B3B3",
"T  c #F0B4B5",
"R  c #F0B5B5",
"E  c #F0B6B6",
"W  c #F0B7B7",
"Q  c #F1B6B6",
"!  c #F1B7B7",
"~  c #F0B8B8",
"^  c #F0B9B9",
"/  c #F1B8B8",
"(  c #F1B9B9",
")  c #F1BABA",
"_  c #F1BBBB",
"`  c #F2BCBB",
"'  c #F2BCBC",
"]  c #F2BDBD",
"[  c #F2BEBD",
"{  c #F2BEBE",
"}  c #F2BFBF",
"|  c #F2BFC0",
" . c #F3C0C0",
".. c #F3C1C1",
"X. c #F3C2C2",
"o. c #F3C3C3",
"O. c #F3C4C4",
"+. c #F4C6C6",
"@. c #F4C7C7",
"#. c #F4C8C8",
"$. c #F4C9C9",
"%. c #F5CECE",
"&. c #F6CFCF",
"*. c #F5D1D1",
"=. c #F6D1D1",
"-. c #F6D3D3",
";. c #F6D4D4",
":. c #F7D4D4",
">. c None",
/* pixels */
">.>.>.>.>.>.>.>.>.>.>.>.>.>.>.>.>.>.>.>.>.>.>.>.>.>.>.>.>.>.>.>.",
">.>.>.>.>.>.>.>.>.>.>.>.>.>.>.>.>.>.>.>.>.>.>.>.>.>.>.>.>.>.>.>.",
">.>.>.>.>.>.>.>.>.>.>.>.>.>.>.>.>.>.>.>.>.>.>.>.>.>.>.>.>.>.>.>.",
">.>.>.>.>.>.>.>.>.>.>.>.>.>.>.>.>.>.>.>.>.>.>.>.>.>.>.>.>.>.>.>.",
"= = = = = = = = = = = = = = = = = = = = = = = = = = = = = = = = ",
"= = = = = = = = = = = = = = = = = = = = = = = = = = = = = = = = ",
"= = = = = = = = = = = = = = = = = = = = = = = = = = = = = = = = ",
"= = = = = = = = = = = = = = = = = = = = = = = = = = = = = = = = ",
"= = = = = = = = = = = = = = = = = = = = = = = = = = = = = = = = ",
": : : : : : : : : : : : : : : : : : : : : : : : : : : : : : : : ",
"o o o o o o o o o o o o o o o + @ o o o o o o o o o o o o o o o ",
"2 2 2 2 2 2 2 2 2 2 2 2 2 2 2 s z 2 2 2 2 2 2 2 2 2 2 2 2 2 2 2 ",
"4 4 4 4 4 4 4 4 4 4 q u 4 4 7 N V 9 2 2 t w 4 4 4 4 4 4 4 4 4 4 ",
"4 4 4 4 4 4 4 4 4 4 j m 7 4 w K U y 4 4 n b 4 4 4 4 4 4 4 4 4 4 ",
"4 4 4 4 4 4 4 4 4 9 M D t 2 g @.#.j 2 r A V 9 4 4 4 4 4 4 4 4 4 ",
"4 4 4 4 4 4 4 4 4 c ( { A C H @.@.H C S { ( b 4 4 4 4 4 4 4 4 4 ",
"4 4 4 4 4 4 4 4 2 z o.@.@.:.O.{ { O.:.@.@...x 2 4 4 4 4 4 4 4 4 ",
"4 4 4 4 4 4 4 4 2 p | ..#...@.Q ! o...&.%...a 2 4 4 4 4 4 4 4 4 ",
"4 4 4 4 4 4 4 4 4 g H H U K I D D K K Q Y D g 2 4 4 4 4 4 4 4 4 ",
"4 4 4 4 4 4 4 4 j ( ..{ =.=.=.{ { =.-.=.` ..( j 4 4 4 4 4 4 4 4 ",
"4 4 4 4 4 4 4 u Q :.| Q =.=.=.( ( =.=.=.W { -.Q i 4 4 4 4 4 4 4 ",
"O O O O O o . $ < , > % , , , > * < < < % , , < $ . O O o . O O ",
": : : : : : : = = = = = = = = = = = = = = = = = = : : : : : : : ",
"= = = = = = = = = = = = = = = = = = = = = = = = = = = = = = = = ",
"= = = = = = = = = = = = = = = = = = = = = = = = = = = = = = = = ",
"= = = = = = = = = = = = = = = = = = = = = = = = = = = = = = = = ",
"= = = = = = = = = = = = = = = = = = = = = = = = = = = = = = = = ",
"= = = = = = = = = = = = = = = = = = = = = = = = = = = = = = = = ",
">.>.>.>.>.>.>.>.>.>.>.>.>.>.>.>.>.>.>.>.>.>.>.>.>.>.>.>.>.>.>.>.",
">.>.>.>.>.>.>.>.>.>.>.>.>.>.>.>.>.>.>.>.>.>.>.>.>.>.>.>.>.>.>.>.",
">.>.>.>.>.>.>.>.>.>.>.>.>.>.>.>.>.>.>.>.>.>.>.>.>.>.>.>.>.>.>.>.",
">.>.>.>.>.>.>.>.>.>.>.>.>.>.>.>.>.>.>.>.>.>.>.>.>.>.>.>.>.>.>.>."
};
