/* XPM */
static char *kw[] = {
/* columns rows colors chars-per-pixel */
"32 32 53 1",
"  c black",
". c #000504",
"X c #060001",
"o c #001712",
"O c #001813",
"+ c #1C0205",
"@ c #1D0205",
"# c #1B1B1B",
"$ c #1B1C1C",
"% c #1C1B1B",
"& c #003127",
"* c #00382B",
"= c #00382C",
"- c #122823",
"; c #2D1417",
": c #3E050B",
"> c #005F4A",
", c #00604B",
"< c #007D61",
"1 c #47060D",
"2 c #7D0A17",
"3 c #008164",
"4 c #008165",
"5 c #008668",
"6 c #009473",
"7 c #009977",
"8 c #009A77",
"9 c #019978",
"0 c #009A78",
"q c #009B78",
"w c #00A480",
"e c #A50E1E",
"r c #AB0E20",
"t c #AC0E20",
"y c #C61025",
"u c #C71025",
"i c #CE1126",
"p c #CF1126",
"a c #CE1227",
"s c #D01126",
"d c #D01127",
"f c #DE1229",
"g c #8FC3B8",
"h c #A5DBCF",
"j c #A6DDD1",
"k c #D5949B",
"l c #EEABB2",
"z c #F0ACB3",
"x c gainsboro",
"c c #DCDDDD",
"v c #DDDCDC",
"b c gray100",
"n c None",
/* pixels */
"nnnnnnnnnnnnnnnnnnnnnnnnnnnnnnnn",
"nnnnnnnnnnnnnnnnnnnnnnnnnnnnnnnn",
"nnnnnnnnnnnnnnnnnnnnnnnnnnnnnnnn",
"nnnnnnnnnnnnnnnnnnnnnnnnnnnnnnnn",
"nnnnnnnnnnnnnnnnnnnnnnnnnnnnnnnn",
"nnnnnnnnnnnnnnnnnnnnnnnnnnnnnnnn",
"nnnnnnnnnnnnnnnnnnnnnnnnnnnnnnnn",
"5w777777777777777777777777777777",
"&<q77777777777777777777777777777",
" O,6q777777777777777777777777777",
"  .*3q77777777777777777777777777",
"    o>6q777777777777777777777777",
"     .=3qqq99999999999999999qqq9",
"       -gjhhhhhhhhhhhhhhhhhhhhhh",
"       %vbbbbbbbbbbbbbbbbbbbbbbb",
"       #vbbbbbbbbbbbbbbbbbbbbbbb",
"       $xbbbbbbbbbbbbbbbbbbbbbbb",
"       $xbbbbbbbbbbbbbbbbbbbbbbb",
"       ;kzllllllllllllllllllllll",
"     X1riiaaiiaaaaiiaaaaiiaaaaii",
"    +2ydiiiiiiiiiiiiiiiiiiiiiiii",
"  X1rdiiiiiiiiiiiiiiiiiiiiiiiiii",
" +2ydiiiiiiiiiiiiiiiiiiiiiiiiiii",
":ediiiiiiiiiiiiiiiiiiiiiiiiiiiii",
"tfiiiiiiiiiiiiiiiiiiiiiiiiiiiiii",
"nnnnnnnnnnnnnnnnnnnnnnnnnnnnnnnn",
"nnnnnnnnnnnnnnnnnnnnnnnnnnnnnnnn",
"nnnnnnnnnnnnnnnnnnnnnnnnnnnnnnnn",
"nnnnnnnnnnnnnnnnnnnnnnnnnnnnnnnn",
"nnnnnnnnnnnnnnnnnnnnnnnnnnnnnnnn",
"nnnnnnnnnnnnnnnnnnnnnnnnnnnnnnnn",
"nnnnnnnnnnnnnnnnnnnnnnnnnnnnnnnn"
};
