/* XPM */
static char *lk[] = {
/* columns rows colors chars-per-pixel */
"32 32 180 2",
"   c black",
".  c DarkGreen",
"X  c #006500",
"o  c #006600",
"O  c #0A6003",
"+  c #0A6103",
"@  c #0B6103",
"#  c #096004",
"$  c #0A6004",
"%  c #0E6401",
"&  c #0F6500",
"*  c #106600",
"=  c #357B00",
"-  c #3D7E00",
";  c #3E7F00",
":  c #3F7F00",
">  c #7F2F27",
",  c #7C2929",
"<  c #7C2A29",
"1  c #4B7F00",
"2  c #678F00",
"3  c #961635",
"4  c #971933",
"5  c #971834",
"6  c #981933",
"7  c #981A33",
"8  c #991A33",
"9  c #991B33",
"0  c #981934",
"q  c #991834",
"w  c #9B1A34",
"e  c #991C33",
"r  c #9A1C33",
"t  c #9A1D32",
"y  c #9B1E32",
"u  c #9C1F32",
"i  c #873C23",
"p  c #9C2031",
"a  c #9C2131",
"s  c #9C2032",
"d  c #9D2231",
"f  c #9E2331",
"g  c #9E2430",
"h  c #9F2530",
"j  c #9F2630",
"k  c #A0272F",
"l  c #A1292F",
"z  c #A22B2E",
"x  c #A32C2E",
"c  c #A32D2E",
"v  c #A52F2D",
"b  c #A42E2E",
"n  c #A6332C",
"m  c #A7332C",
"M  c #A9362B",
"N  c #A9372B",
"B  c #A8352C",
"V  c #AA382B",
"C  c #AB3A2A",
"Z  c #AD3D29",
"A  c #AC3C2A",
"S  c #AD3E29",
"D  c #AD3F29",
"F  c #92501E",
"G  c #8B4421",
"H  c #AF520F",
"J  c #AF4128",
"K  c #B14427",
"L  c #B24726",
"P  c #B74B26",
"I  c #BA5422",
"U  c #BC5822",
"Y  c #BD5A21",
"T  c #BE5B21",
"R  c #BF5D20",
"E  c #D94A13",
"W  c #D94C13",
"Q  c #DD4C12",
"!  c #CC6500",
"~  c #CC6600",
"^  c #CC6700",
"/  c #C1601F",
"(  c #C1611F",
")  c #C2621F",
"_  c #C3631E",
"`  c #C3641E",
"'  c #C5671D",
"]  c #C4661E",
"[  c #C6641E",
"{  c #C76B1C",
"}  c #C86C1C",
"|  c #CA701B",
" . c #CB711A",
".. c #CB721A",
"X. c #CD7519",
"o. c #CE7719",
"O. c #CF7918",
"+. c #D87F00",
"@. c #D17C17",
"#. c #D27E17",
"$. c #D27F16",
"%. c #D37F16",
"&. c #D97913",
"*. c #FF6500",
"=. c #FF6600",
"-. c #FF6700",
";. c #FF6800",
":. c #FF6900",
">. c #FF6A00",
",. c #FF7F00",
"<. c #95A100",
"1. c #96A200",
"2. c #9AA001",
"3. c #ACAB00",
"4. c #CB8D10",
"5. c #D38016",
"6. c #D48116",
"7. c #D58016",
"8. c #D48215",
"9. c #D48315",
"0. c #D58315",
"q. c #D68514",
"w. c #D78614",
"e. c #D88913",
"r. c #D98A13",
"t. c #D98B13",
"y. c #D88814",
"u. c #D88914",
"i. c #DA8C12",
"p. c #DB8D12",
"a. c #DB8E12",
"s. c #DC9011",
"d. c #DD9111",
"f. c #DE9011",
"g. c #DE9310",
"h. c #E1970F",
"j. c #E1980F",
"k. c #E2990F",
"l. c #E29A0E",
"z. c #E29B0E",
"x. c #E39B0E",
"c. c #E49C0E",
"v. c #E49D0E",
"b. c #E19311",
"n. c #E09510",
"m. c #E09610",
"M. c #FF8100",
"N. c #E6A10D",
"B. c #E7A30C",
"V. c #E8A50B",
"C. c #EBA90A",
"Z. c #EDAD09",
"A. c #EFAF08",
"S. c #F3B706",
"D. c #F3BA06",
"F. c #F4BA05",
"G. c #F6BC05",
"H. c #F6BD04",
"J. c #FFB000",
"K. c #FFB300",
"L. c #FFB700",
"P. c #F1C600",
"I. c #F4C800",
"U. c #F6C800",
"Y. c #F7C800",
"T. c #F8C003",
"R. c #FBC602",
"E. c #FCC702",
"W. c #F8C900",
"Q. c #F9CA00",
"!. c #FDC800",
"~. c #FDC801",
"^. c #FFC800",
"/. c #FFCB00",
"(. c #FFCC00",
"). c #FFCD00",
"_. c #FFCE00",
"`. c #FFCF00",
"'. c #FFD100",
"]. c None",
/* pixels */
"].].].].].].].].].].].].].].].].].].].].].].].].].].].].].].].].",
"].].].].].].].].].].].].].].].].].].].].].].].].].].].].].].].].",
"].].].].].].].].].].].].].].].].].].].].].].].].].].].].].].].].",
"(.(.(.(.(.(.(.(.(.(.(.(.(.(.(.(.(.(.(.(.(.(.(.(.(.(.(.(.(.(.(.(.",
"(.(.(.(.(.(.(.(./././.(.(.(././.(.(./././.(.(.(.(.(.(.(.(.(.(.(.",
"(.(.U.U.U.U.U.U.U.U.U.U./.E.E.E.E./.E.E.E././.(.(.(.(.(.(.(.(.(.",
"(.U.2 : : : : : : : : 1 +.,.,.,.,.,.,.,.,.M.L.(.(.(.(.(.(.(.(.(.",
"(.P.= X X X X X X . . % ^ =.=.=.=.=.=.=.=.=.J.(.(.(.(.(.(.(.(.(.",
"(.P.= X o o o o o o o * ^ =.=.=.=.=.=.=.=.;.K.(.(.(.(.(.(.(.(.(.",
"(.P.= X o o o o o o o * ^ =.=.=.=.=.=.=.=.;.K.(.(.(.(.(.(.(.(.(.",
"(.P.= X o o o o o o o * ^ =.=.=.=.=.=.=.=.;.J.(.(.(.(.(.(.(.(.(.",
"(.P.= X o o o o o o o * ^ =.=.=.;.;.=.;.;.;.K.'.(.'.(.'.(.'.(.(.",
"(.P.= X X X o o o o o & H Q E E E E E E E E &.t.t.t.t.t.t.i.C.(.",
"(.P.= X X X o o o o X + F 6.k 9 9 9 9 9 9 9 9 9 9 9 9 9 D %.O.(.",
"(.P.= X X o o o o o o @ i [ n 9 9 9 9 9 9 9 8 3 3 9 e 9 K Y ..(.",
"(.P.= X o o o o o o o @ < 8 9 9 x j 8 j n k D U D u e e 9 3 { (.",
"(.P.= X o o o o X X X @ < w 9 9 K M R w.j.w.j.O...) V e e 5 } (.",
"(.I.= X o o o o X X X + < w 9 9 Y M %.N.g.6.[ ..[ ` ` e e 5 } '.",
"(.P.= X o o o o X X X + < w 9 u { V X.j.v.5.) 5.z.j.9.e e 5 } (.",
"(.P.= X o o o o o X X % < w 9 A i.J { F.H.T.(.(.'.'.B.j 9 5 } '.",
"(.P.= X o o o o o o o @ < w 9 B s.d.D.'.(.(.(.R./.(.t.e 9 5 } (.",
"(.P.= X o o o o o o o @ < w 9 n i.j.Z.H./.D.d.S.z.Z.) 8 9 5 } (.",
"(.P.= X o o o o o o o @ < 8 9 l ..D M u.j.V a t.5.5.5.e e 5 } (.",
"(.P.= X o o o o o o o @ < 8 9 9 j 9 J g...9 n %.u.m.) 8 9 3 { '.",
"(.P.= X X o o o X o o @ > P b 9 9 9 j x j 9 a j l x a 9 K I ..(.",
"(.P.= X X X o o X X o + G m.n 4 4 9 9 9 4 9 9 9 8 8 9 5 J 5.O.(.",
"(.Q.3.1.1.1.1.1.1.1.1.2.4.d.w.6.5.6.6.6.5.5.6.6.5.6.6.6.6.w.V.(.",
"(.(.(.'.(.'.(.'.'.(.'.(.'.(.(.'.(.'.(.'.'.(.'.(.(.'.'.(.'.'.(.(.",
"(.(.(.(.(.(.(.(.(.(.(.(.(.(.(.(.(.(.(.(.(.(.(.(.(.(.(.(.(.(.(.(.",
"].].].].].].].].].].].].].].].].].].].].].].].].].].].].].].].].",
"].].].].].].].].].].].].].].].].].].].].].].].].].].].].].].].].",
"].].].].].].].].].].].].].].].].].].].].].].].].].].].].].].].]."
};
