/* XPM */
static char *mk[] = {
/* columns rows colors chars-per-pixel */
"32 32 186 2",
"   c black",
".  c #D00000",
"X  c #D10000",
"o  c #D20000",
"O  c #D20100",
"+  c #D20200",
"@  c #D20300",
"#  c #D30300",
"$  c #D20400",
"%  c #D20500",
"&  c #D30500",
"*  c #D30700",
"=  c #D30800",
"-  c #D30900",
";  c #D40800",
":  c #D40900",
">  c #D40A00",
",  c #D40B00",
"<  c #D40C00",
"1  c #D40D00",
"2  c #D50E00",
"3  c #D50F00",
"4  c #D51000",
"5  c #D51100",
"6  c #D51200",
"7  c #D51300",
"8  c #D61400",
"9  c #D61500",
"0  c #D61600",
"q  c #D61700",
"w  c #D71A00",
"e  c #D41C00",
"r  c #D71C00",
"t  c #D81F00",
"y  c #D52100",
"u  c #D62300",
"i  c #D72800",
"p  c #D82000",
"a  c #D82100",
"s  c #D92200",
"d  c #D92300",
"f  c #DA2700",
"g  c #DA2800",
"h  c #DA2900",
"j  c #DA2A00",
"k  c #DA2B00",
"l  c #DB2F00",
"z  c #DB3000",
"x  c #DC3100",
"c  c #DC3400",
"v  c #DD3700",
"b  c #DD3800",
"n  c #DE3C00",
"m  c #DF4000",
"M  c #DF4100",
"N  c #DF4200",
"B  c #DF4300",
"V  c #DF4400",
"C  c #DF4500",
"Z  c #E04600",
"A  c #E04700",
"S  c #E04800",
"D  c #E04900",
"F  c #E04A00",
"G  c #E14A00",
"H  c #E14B00",
"J  c #E14C00",
"K  c #E14D00",
"L  c #E14E00",
"P  c #E25000",
"I  c #E25100",
"U  c #E25200",
"Y  c #E25300",
"T  c #E25400",
"R  c #E35600",
"E  c #E35700",
"W  c #E35800",
"Q  c #E45900",
"!  c #E45B00",
"~  c #E45C00",
"^  c #E45E00",
"/  c #E55F00",
"(  c #E56300",
")  c #E66300",
"_  c #E66500",
"`  c #E66700",
"'  c #E66800",
"]  c #E76900",
"[  c #E76A00",
"{  c #E76E00",
"}  c #E86E00",
"|  c #E86F00",
" . c #E87000",
".. c #E87100",
"X. c #E87200",
"o. c #E97600",
"O. c #E97700",
"+. c #EA7A00",
"@. c #EA7B00",
"#. c #EB7F00",
"$. c #EB8000",
"%. c #EB8200",
"&. c #EB8300",
"*. c #EB8400",
"=. c #EC8500",
"-. c #EC8700",
";. c #ED8800",
":. c #ED8A00",
">. c #ED8C00",
",. c #EE8C00",
"<. c #EE8D00",
"1. c #EF9200",
"2. c #EF9300",
"3. c #EF9400",
"4. c #EF9500",
"5. c #EF9700",
"6. c #F09800",
"7. c #F09B00",
"8. c #F09C00",
"9. c #F09D00",
"0. c #F19E00",
"q. c #F19F00",
"w. c #F1A000",
"e. c #F2A100",
"r. c #F2A200",
"t. c #F2A300",
"y. c #F2A400",
"u. c #F2A500",
"i. c #F2A600",
"p. c #F3A600",
"a. c #F3A800",
"s. c #F3A900",
"d. c #F3AB00",
"f. c #F3AE00",
"g. c #F4AB00",
"h. c #F4AD00",
"j. c #F4AE00",
"k. c #F5B000",
"l. c #F5B300",
"z. c #F4B700",
"x. c #F6B500",
"c. c #F6B600",
"v. c #F6B700",
"b. c #F6B900",
"n. c #F7BB00",
"m. c #F7BC00",
"M. c #F7BD00",
"N. c #F7BE00",
"B. c #F6C000",
"V. c #F7C700",
"C. c #F8C000",
"Z. c #F8C100",
"A. c #F8C300",
"S. c #F8C400",
"D. c #F9C500",
"F. c #FACA00",
"G. c #FACB00",
"H. c #FACC00",
"J. c #FACE00",
"K. c #FACF00",
"L. c #FBD000",
"P. c #FBD200",
"I. c #FCD400",
"U. c #FCD500",
"Y. c #FCD800",
"T. c #FCD900",
"R. c #FDDA00",
"E. c #FDDB00",
"W. c #FDDD00",
"Q. c #FDDE00",
"!. c #FDDF00",
"~. c #FEE000",
"^. c #FEE100",
"/. c #FEE200",
"(. c #FEE300",
"). c #FEE400",
"_. c #FFE500",
"`. c #FEE600",
"'. c #FFE700",
"]. c #FFE800",
"[. c #FFE900",
"{. c #FFEA00",
"}. c #FFEB00",
"|. c #FFEC00",
" X c #FFFC00",
".X c None",
/* pixels */
".X.X.X.X.X.X.X.X.X.X.X.X.X.X.X.X.X.X.X.X.X.X.X.X.X.X.X.X.X.X.X.X",
".X.X.X.X.X.X.X.X.X.X.X.X.X.X.X.X.X.X.X.X.X.X.X.X.X.X.X.X.X.X.X.X",
".X.X.X.X.X.X.X.X.X.X.X.X.X.X.X.X.X.X.X.X.X.X.X.X.X.X.X.X.X.X.X.X",
".X.X.X.X.X.X.X.X.X.X.X.X.X.X.X.X.X.X.X.X.X.X.X.X.X.X.X.X.X.X.X.X",
".X.X.X.X.X.X.X.X.X.X.X.X.X.X.X.X.X.X.X.X.X.X.X.X.X.X.X.X.X.X.X.X",
".X.X.X.X.X.X.X.X.X.X.X.X.X.X.X.X.X.X.X.X.X.X.X.X.X.X.X.X.X.X.X.X",
".X.X.X.X.X.X.X.X.X.X.X.X.X.X.X.X.X.X.X.X.X.X.X.X.X.X.X.X.X.X.X.X",
"B. X].].F.y o o o o o o o o =.].].<.o o o o o o o o r S.].]. XV.",
"n 8.Q.].^.=.0 o o o o o o o  .].].@.o o o o o o o 7 $.^.].Q.w.M ",
"o 1 J i.^.].i.l o o o o o o J ).).T o o o o o o l w.].^.a.Y 1 o ",
"o o o 1 C a.^.J.~ , o o o o k U.T.z o o o o , T F.).a.J < o o o ",
"o o o o o < C a.T.2.r o o o 7 B.S.0 o o o r <.T.a.J < o o o o o ",
"o o o o o o o , F a.l.C % o o 8.i.% o o M k.a.J 1 o o o o o o o ",
"o o o o o o o o o , J 3.{ 0 o ^ ` o 7 ' 5.Y 1 o o o o o o o . . ",
"@.' T M z d 0 < % o o , C W T b.n.E T F 1 o o % 1 0 y z M Y ` @.",
"].].).^.T.L.S.b.i.3.$.' Y M M.|.].A.Z Y ' $.3.i.l.A.L.T.^.).].].",
"].].].).Q.U.F.M.j.8.:.X.W C M.|.].A.Z E  .-.9.f.M.F.U.Q.^.].].].",
"=. .~ C v f w 7 ; o o , M T ^ M.A.^ E Z < o % , 1 w f v C ~  .=.",
"o o o o o o o o o ; C 3.X.0 o ^ ) o 7 } 3.C , o o o o o o o o o ",
"o o o o o o o , C w.l.J % o o 8.i.& o o C k.i.C , o o o o o o o ",
"o o o o o , M w.T.6.f o o o 7 M.A.0 o o o d 2.T.i.C , . o o o o ",
"o o o , C 8.Q.L.) ; o o o o k U.U.l o o o o , ~ L.^.w.C , . o o ",
"o , C 9.Q.].a.c o o o o o o F ).).Y o o o o o o z i.].~.i.C < o ",
"c 3.Q.].).<.w o o o o o o o { ].].o.o o o o o o o 0 -.^.].Q.5.b ",
"f. X|.).L.i o o o o o o o o $.|.].:.o o o o o o o . y J.).|. Xb.",
".X.X.X.X.X.X.X.X.X.X.X.X.X.X.X.X.X.X.X.X.X.X.X.X.X.X.X.X.X.X.X.X",
".X.X.X.X.X.X.X.X.X.X.X.X.X.X.X.X.X.X.X.X.X.X.X.X.X.X.X.X.X.X.X.X",
".X.X.X.X.X.X.X.X.X.X.X.X.X.X.X.X.X.X.X.X.X.X.X.X.X.X.X.X.X.X.X.X",
".X.X.X.X.X.X.X.X.X.X.X.X.X.X.X.X.X.X.X.X.X.X.X.X.X.X.X.X.X.X.X.X",
".X.X.X.X.X.X.X.X.X.X.X.X.X.X.X.X.X.X.X.X.X.X.X.X.X.X.X.X.X.X.X.X",
".X.X.X.X.X.X.X.X.X.X.X.X.X.X.X.X.X.X.X.X.X.X.X.X.X.X.X.X.X.X.X.X",
".X.X.X.X.X.X.X.X.X.X.X.X.X.X.X.X.X.X.X.X.X.X.X.X.X.X.X.X.X.X.X.X"
};
