/* XPM */
static char *mt[] = {
/* columns rows colors chars-per-pixel */
"32 32 43 1",
"  c black",
". c #CF1229",
"X c #CF142B",
"o c #D53044",
"O c #A8A29E",
"+ c #A8A39F",
"@ c #B4AEAC",
"# c #B9B2B0",
"$ c #C7BEBE",
"% c #C9BEBE",
"& c #D6BEC1",
"* c #CAC0C0",
"= c #D2C3C4",
"- c #D7C5C7",
"; c #D7C8C9",
": c #D8C2C3",
"> c #DBC2C5",
", c #DDC6C8",
"< c #DBCBCC",
"1 c #E5CED0",
"2 c #E7D1D4",
"3 c #E9D2D5",
"4 c #EAD5D7",
"5 c #ECDEDF",
"6 c #F0E3E4",
"7 c #F5E6E7",
"8 c #F6E8EA",
"9 c #F9E3E6",
"0 c #F8EDEE",
"q c #F9EFF0",
"w c #FAF2F3",
"e c #FCF4F5",
"r c #FCF7F8",
"t c #FDF7F8",
"y c #FDF8F9",
"u c #FDF9FA",
"i c #FEFCFD",
"p c #FFFCFC",
"a c #FFFCFD",
"s c #FFFDFD",
"d c #FFFEFE",
"f c gray100",
"g c None",
/* pixels */
"gggggggggggggggggggggggggggggggg",
"gggggggggggggggggggggggggggggggg",
"gggggggggggggggggggggggggggggggg",
"gggggggggggggggggggggggggggggggg",
"fffffffffffffff9o.XXXXXXXXXXXXXX",
"fffwyffffffffff9o.XXXXXXXXXXXXXX",
"ffq:4ffffffffff9o.XXXXXXXXXXXXXX",
"ff6&<tfffffffff9o.XXXXXXXXXXXXXX",
"7,$O#-3ffffffff9o.XXXXXXXXXXXXXX",
"7:$O@=1ffffffff9o.XXXXXXXXXXXXXX",
"it5$;wyffffffff9o.XXXXXXXXXXXXXX",
"ff0&2ffffffffff9o.XXXXXXXXXXXXXX",
"ffiwrffffffffff9o.XXXXXXXXXXXXXX",
"fffffffffffffff9o.XXXXXXXXXXXXXX",
"fffffffffffffff9o.XXXXXXXXXXXXXX",
"fffffffffffffff9o.XXXXXXXXXXXXXX",
"fffffffffffffff9o.XXXXXXXXXXXXXX",
"fffffffffffffff9o.XXXXXXXXXXXXXX",
"fffffffffffffff9o.XXXXXXXXXXXXXX",
"fffffffffffffff9o.XXXXXXXXXXXXXX",
"fffffffffffffff9o.XXXXXXXXXXXXXX",
"fffffffffffffff9o.XXXXXXXXXXXXXX",
"fffffffffffffff9o.XXXXXXXXXXXXXX",
"fffffffffffffff9o.XXXXXXXXXXXXXX",
"fffffffffffffff9o.XXXXXXXXXXXXXX",
"fffffffffffffff9o.XXXXXXXXXXXXXX",
"fffffffffffffff9o.XXXXXXXXXXXXXX",
"fffffffffffffff9o.XXXXXXXXXXXXXX",
"gggggggggggggggggggggggggggggggg",
"gggggggggggggggggggggggggggggggg",
"gggggggggggggggggggggggggggggggg",
"gggggggggggggggggggggggggggggggg"
};
