/* XPM */
static char *mv[] = {
/* columns rows colors chars-per-pixel */
"32 32 66 1",
"  c black",
". c #3D6444",
"X c #3D6544",
"o c #3E6444",
"O c #764338",
"+ c #774338",
"@ c #784238",
"# c #495D42",
"$ c #495E42",
"% c #4A5D42",
"& c #00854E",
"* c #00854F",
"= c #00864F",
"- c #00874F",
"; c #008650",
": c #008750",
"> c #008751",
", c #018751",
"< c #028751",
"1 c #008851",
"2 c #008952",
"3 c #018852",
"4 c #018953",
"5 c #008A52",
"6 c #048954",
"7 c #078A56",
"8 c #118F5D",
"9 c #14905F",
"0 c #27996B",
"q c #2F9D71",
"w c #309E72",
"e c #319E72",
"r c #38A177",
"t c #3AA278",
"y c #3CA379",
"u c #3EA47B",
"i c #43A67E",
"p c #4AAA83",
"a c #4CAB85",
"s c #54AF8A",
"d c #5DB391",
"f c #67B797",
"g c #7CC1A5",
"h c #853B35",
"j c #843C35",
"k c #9B2F31",
"l c #9F2C30",
"z c #923333",
"x c #963132",
"c c #CA1327",
"v c #CD1126",
"b c #CC1226",
"n c #CD1226",
"m c #CE1126",
"M c #D10F25",
"N c #D20F25",
"B c #D01025",
"V c #D11025",
"C c #83C4AA",
"Z c #BEE1D3",
"A c #C2E2D5",
"S c #C3E3D6",
"D c #C8E5DA",
"F c #E5F3EE",
"G c #E6F3EE",
"H c None",
/* pixels */
"HHHHHHHHHHHHHHHHHHHHHHHHHHHHHHHH",
"HHHHHHHHHHHHHHHHHHHHHHHHHHHHHHHH",
"HHHHHHHHHHHHHHHHHHHHHHHHHHHHHHHH",
"HHHHHHHHHHHHHHHHHHHHHHHHHHHHHHHH",
"mmmmmmmmmmmmmmmmmmmmmmmmmmmmmmmm",
"mmmmmmmmmmmmmmmmmmmmmmmmmmmmmmmm",
"mmmmmmmmmmmmmmmmmmmmmmmmmmmmmmmm",
"mmmmmmmmmmmmmmmmmmmmmmmmmmmmmmmm",
"mmmmmmmmmmmmVmmmmmmVmmmmmmmmmmmm",
"mmmmmVNNNNNNNNNNNNNNNNNNNNVmmmmm",
"mmmmmljhhhhhhhhhhhhhhhhhhjlmmmmm",
"mmmmm#2>>>>>>>>==>>>>>>>>2Xcmmmm",
"mmmmm#2>>>>>>>>0de2>>>>>>2Xcmmmm",
"mmmmm#2>>>>>>=iZs7>>>>>>>2Xcmmmm",
"mmmmm#2>>>>>>8SC=>>>>>>>>2Xcmmmm",
"mmmmm#2>>>>>=rGu=>>>>>>>>2Xcmmmm",
"mmmmm#2>>>>>=rGu=>>>>>>>>2.cmmmm",
"mmmmm#2>>>>>=9Dg*>>>>>>>>2.cmmmm",
"mmmmm#2>>>>>>=aAp6>>>>>>>2.cmmmm",
"mmmmm#2>>>>>>>>efe>>>>>>>2.cmmmm",
"mmmmm#22222>>2>=>>>>2>>2>2Xcmmmm",
"mmmmmxOO@@@@++@@@@@@@@++@+zcmmmm",
"mmmmmmNNNNNNNNNNNNNNNNNNNNNmmmmm",
"mmmmmmmmmmmmmmmmVmmmmmmmmmmmmmmm",
"mmmmmmmmmmmmmmmmmmmmmmmmmmmmmmmm",
"mmmmmmmmmmmmmmmmmmmmmmmmmmmmmmmm",
"mmmmmmmmmmmmmmmmmmmmmmmmmmmmmmmm",
"mmmmmmmmmmmmmmmmmmmmmmmmmmmmmmmm",
"HHHHHHHHHHHHHHHHHHHHHHHHHHHHHHHH",
"HHHHHHHHHHHHHHHHHHHHHHHHHHHHHHHH",
"HHHHHHHHHHHHHHHHHHHHHHHHHHHHHHHH",
"HHHHHHHHHHHHHHHHHHHHHHHHHHHHHHHH"
};
