/* XPM */
static char *no[] = {
/* columns rows colors chars-per-pixel */
"32 32 36 1",
"  c black",
". c #002465",
"X c #002666",
"o c #002868",
"O c #0B316E",
"+ c #143974",
"@ c #21437B",
"# c #3C5B8C",
"$ c #7288AC",
"% c #EF2629",
"& c #EF272A",
"* c #EF282A",
"= c #EF292B",
"- c #EF2A2C",
"; c #EF2B2D",
": c #F0383A",
"> c #F0393B",
", c #F03B3D",
"< c #F56C6D",
"1 c #F57779",
"2 c #8497B6",
"3 c #8A9EBC",
"4 c #8A9FBC",
"5 c #8C9FBC",
"6 c #FA9FA0",
"7 c #FAA0A0",
"8 c #FBA7A7",
"9 c #D3DAE5",
"0 c #D3DDE8",
"q c #FFDCDB",
"w c #FFDDDC",
"e c #FFE8E7",
"r c #F4F2F5",
"t c #F4F5F8",
"y c #FFF2F1",
"u c None",
/* pixels */
"uuuuuuuuuuuuuuuuuuuuuuuuuuuuuuuu",
"uuuuuuuuuuuuuuuuuuuuuuuuuuuuuuuu",
"uuuuuuuuuuuuuuuuuuuuuuuuuuuuuuuu",
"uuuuuuuuuuuuuuuuuuuuuuuuuuuuuuuu",
";;;;;;;&<r#.+07=;;;;;;;;;;;;;;;;",
";;;;;;;&<r#.+07=;;;;;;;;;;;;;;;;",
";;;;;;;&<r#.+07=;;;;;;;;;;;;;;;;",
";;;;;;;&<r#X+07=;;;;;;;;;;;;;;;;",
";;;;;;;&<r#X+07=;;;;;;;;;;;;;;;;",
";;;;;;;&<r#.+07=;;;;;;;;;;;;;;;;",
";;;;;;;&<r#.+07=;;;;;;;;;;;;;;;;",
";=;;=;;&<r#.+06&;;=;==;;;;==;=;;",
",,,,,,,:1r#.+08:,,,,,,,,,,,,,,,,",
"wwwwwwwqet#.+9ywqwwwwwwwwwwwwwww",
"4444444442@XO$544444444444444444",
"XXXXXXXXXXoooXXXXXXXXXXXXXXXXXXX",
"XXXXXXXXXXoooXXXXXXXXXXXXXXXXXXX",
"4444444442@XO$544444444444444444",
"wwwwwwwqet#.+9ywwwwwwwwqwwwwwwww",
",,,,,,,:1r#X+08:,,,,,,,,,,,,,,,,",
";;;=;;=&<r#.+06=;;==;=;;==;;;;;=",
";;;;;;;&<r#.+07=;;;;;;;;;;;;;;;;",
";;;;;;;&<r#.+07=;;;;;;;;;;;;;;;;",
";;;;;;;&<r#.+07=;;;;;;;;;;;;;;;;",
";;;;;;;&<r#.+07=;;;;;;;;;;;;;;;;",
";;;;;;;&<r#.+07=;;;;;;;;;;;;;;;;",
";;;;;;;&<r#.+06=;;;;;;;;;;;;;;;;",
";;;;;;;&<r#X+06=;;;;;;;;;;;;;;;;",
"uuuuuuuuuuuuuuuuuuuuuuuuuuuuuuuu",
"uuuuuuuuuuuuuuuuuuuuuuuuuuuuuuuu",
"uuuuuuuuuuuuuuuuuuuuuuuuuuuuuuuu",
"uuuuuuuuuuuuuuuuuuuuuuuuuuuuuuuu"
};
