/* XPM */
static char *om[] = {
/* columns rows colors chars-per-pixel */
"32 32 63 1",
"  c black",
". c #009543",
"X c #009643",
"o c #029443",
"O c #1E8A41",
"+ c #208A41",
"@ c #A65B38",
"# c #A75B38",
"$ c #B15737",
"% c #FC3A2E",
"& c #FC3B30",
"* c #FF3B32",
"= c #FC3C31",
"- c #FC3D32",
"; c #FD3D32",
": c #FC3E33",
"> c #FE3C32",
", c #DE4734",
"< c #DE4834",
"1 c #F24133",
"2 c #FC4036",
"3 c #FC4338",
"4 c #FC4439",
"5 c #FC453A",
"6 c #FC453B",
"7 c #FC463C",
"8 c #FC473C",
"9 c #FC473D",
"0 c #FC493F",
"q c #FC4C42",
"w c #FC4C43",
"e c #FC4E44",
"r c #FC544A",
"t c #FC544B",
"y c #FC554C",
"u c #FC5A51",
"i c #FC5D54",
"p c #FC5F55",
"a c #FC5F56",
"s c #FB6058",
"d c #FC6259",
"f c #FC635A",
"g c #FC655D",
"h c #FC675F",
"j c #FB6D65",
"k c #FB6E67",
"l c #FC6860",
"z c #FB6F68",
"x c #FC726B",
"c c #FC766E",
"v c #FD7B74",
"b c #FD847D",
"n c #FD857E",
"m c #FA8580",
"M c #FB908B",
"N c #FB9A95",
"B c #FB9C98",
"V c #FA9E9B",
"C c #FFE8E6",
"Z c #FFE9E7",
"A c #FFECEB",
"S c gray100",
"D c None",
/* pixels */
"DDDDDDDDDDDDDDDDDDDDDDDDDDDDDDDD",
"DDDDDDDDDDDDDDDDDDDDDDDDDDDDDDDD",
"DDDDDDDDDDDDDDDDDDDDDDDDDDDDDDDD",
"DDDDDDDDDDDDDDDDDDDDDDDDDDDDDDDD",
"DDDDDDDDDDDDDDDDDDDDDDDDDDDDDDDD",
"DDDDDDDDDDDDDDDDDDDDDDDDDDDDDDDD",
"DDDDDDDDDDDDDDDDDDDDDDDDDDDDDDDD",
"dddppddcASSSSSSSSSSSSSSSSSSSSSSS",
"559qq92uCSSSSSSSSSSSSSSSSSSSSSSS",
"--phhu-tCSSSSSSSSSSSSSSSSSSSSSSS",
"&9kNVk5tCSSSSSSSSSSSSSSSSSSSSSSS",
"&eMVms0tCSSSSSSSSSSSSSSSSSSSSSSS",
"-:xzhd-tCSSSSSSSSSSSSSSSSSSSSSSS",
"-9y--t95vbbbbbbbbbbbbbbbbbbbbbbb",
"--------%%%%%%%%%%%%%%%%%%%%%%%%",
"--------------------------------",
"--------::-:---:-------:--::-::-",
"--------&*&&---:&&*&::-&*&**&**&",
"-------1$#####@@####@@@@########",
"-------,+ooooooooooooooooooooooo",
"-------<OoooXoXoooXoXoXooXoXoooo",
"-------<OooooXoXoooXoXoXXoXooooo",
"------:<OXooXoXoooXoXoXooXoXoXoo",
"------:<OXXooXoXoooXoXoXXoXoXoXo",
"-------<OXoooXooXXooXXoooXooXooX",
"DDDDDDDDDDDDDDDDDDDDDDDDDDDDDDDD",
"DDDDDDDDDDDDDDDDDDDDDDDDDDDDDDDD",
"DDDDDDDDDDDDDDDDDDDDDDDDDDDDDDDD",
"DDDDDDDDDDDDDDDDDDDDDDDDDDDDDDDD",
"DDDDDDDDDDDDDDDDDDDDDDDDDDDDDDDD",
"DDDDDDDDDDDDDDDDDDDDDDDDDDDDDDDD",
"DDDDDDDDDDDDDDDDDDDDDDDDDDDDDDDD"
};
