/* XPM */
static char *pk[] = {
/* columns rows colors chars-per-pixel */
"32 32 80 1",
"  c black",
". c #006300",
"X c DarkGreen",
"o c #006500",
"O c #016501",
"+ c #006600",
"@ c #016601",
"# c #016701",
"$ c #026702",
"% c #036603",
"& c #036803",
"* c #046804",
"= c #056805",
"- c #056905",
"; c #076907",
": c #086A08",
"> c #086B08",
", c #096A09",
"< c #096B09",
"1 c #0C6D0C",
"2 c #0E6E0E",
"3 c #0F6F0F",
"4 c #157215",
"5 c #167316",
"6 c #177417",
"7 c #1B761B",
"8 c #1F781F",
"9 c #1F791F",
"0 c #297E29",
"q c #2B802B",
"w c #3D8A3D",
"e c #408C40",
"r c #428D42",
"t c #448E44",
"y c #448F44",
"u c #489148",
"i c #4A934A",
"p c #539853",
"a c #569A56",
"s c #5A9C5A",
"d c #5C9D5C",
"f c #61A061",
"g c #62A162",
"h c #64A264",
"j c #65A365",
"k c #69A569",
"l c #6AA56A",
"z c #6DA76D",
"x c #80B380",
"c c #87B787",
"v c #88B888",
"b c #90BD90",
"n c #9CC49C",
"m c #A0C6A0",
"M c #A5C9A5",
"N c #A8CBA8",
"B c #B5D3B5",
"V c #BAD6BA",
"C c #C5DCC5",
"Z c #C9DEC9",
"A c #CADFCA",
"S c #CDE1CD",
"D c #CFE2CF",
"F c #D0E2D0",
"G c #D2E4D2",
"H c #D4E5D4",
"J c #D7E7D7",
"K c #E0EDE0",
"L c #E5EFE5",
"P c #EBF3EB",
"I c #EDF4ED",
"U c #F1F6F1",
"Y c #F2F7F2",
"T c #F5F9F5",
"R c #F6FAF6",
"E c #F7FAF7",
"W c #FAFCFA",
"Q c #FEFFFE",
"! c gray100",
"~ c None",
/* pixels */
"~~~~~~~~~~~~~~~~~~~~~~~~~~~~~~~~",
"~~~~~~~~~~~~~~~~~~~~~~~~~~~~~~~~",
"~~~~~~~~~~~~~~~~~~~~~~~~~~~~~~~~",
"~~~~~~~~~~~~~~~~~~~~~~~~~~~~~~~~",
"!!!!!!!K8oooo&&ooo&oo&oo&ooo&oo&",
"!!!!!!!K8oo&ooooo&oooo&ooo&&o&oo",
"!!!!!!!K8o&o&oo&oo&&&&ooo&oo&o&o",
"!!!!!!!K8ooo&oo&&oooooo&oo&ooo&o",
"!!!!!!!K8ooo&ooooo&oo&&o&ooo&&oo",
"!!!!!!!K8ooooo&oo3&ooooo&o&oooo&",
"!!!!!!!K8oo&ooo<di&&&oooooooooo&",
"!!!!!!!K8ooooo<vn2ooo&w67&o&&&oo",
"!!!!!!!K8ooo&ohPyo&o&6NZpoooooo&",
"!!!!!!!K8o&oo6FJ6o&o&iSPfo&&o&oo",
"!!!!!!!K8o&oouWC2ooooosa0-oo&o&o",
"!!!!!!!K8oo&ok!G4oo&oo2-oo&ooo&o",
"!!!!!!!K8ooook!Uwooooo&&oooo&&oo",
"!!!!!!!K8o&oouT!n-oo&ooo&o&oooo&",
"!!!!!!!K8oooo7S!Tz-oooooo6&oooo&",
"!!!!!!!K8ooooojT!Ybq>o-8kroo&&oo",
"!!!!!!!K8ooooo>vT!!LVMBJz>ooooo&",
"!!!!!!!K8oo&&oo>fST!!WFf2o&&o&oo",
"!!!!!!!K8oo&&oooo6yhhy4o&&oo&o&o",
"!!!!!!!K8ooooo&&oooo.ooo&&&ooo&o",
"!!!!!!!K8oooo&oo&oooooo&oo&ooo&o",
"!!!!!!!K8oo&oo&ooo&&&&ooo&oo&o&o",
"!!!!!!!K8o&o&&ooo&oooo&ooo&&o&oo",
"!!!!!!!K8oo&ooo&oo&oo&o&&oooooo&",
"~~~~~~~~~~~~~~~~~~~~~~~~~~~~~~~~",
"~~~~~~~~~~~~~~~~~~~~~~~~~~~~~~~~",
"~~~~~~~~~~~~~~~~~~~~~~~~~~~~~~~~",
"~~~~~~~~~~~~~~~~~~~~~~~~~~~~~~~~"
};
