/* XPM */
static char *pt[] = {
/* columns rows colors chars-per-pixel */
"32 32 134 2",
"   c black",
".  c #0E662F",
"X  c #0F672F",
"o  c #006133",
"O  c #006233",
"+  c #006333",
"@  c #006134",
"#  c #006234",
"$  c #086431",
"%  c #0B6630",
"&  c #2F552F",
"*  c #2E5330",
"=  c #2F5330",
"-  c #22702A",
";  c #27712A",
":  c #2C7226",
">  c #2A7328",
",  c #2D7328",
"<  c #347526",
"1  c #387825",
"2  c #5F731F",
"3  c #576E21",
"4  c #5B6B2D",
"5  c #784733",
"6  c #7E5D2E",
"7  c #7F692A",
"8  c #7F7127",
"9  c #52841F",
"0  c #54821D",
"q  c #54861F",
"w  c #57841D",
"e  c #57851D",
"r  c #648B1C",
"t  c #678C1A",
"y  c #7E8E16",
"u  c #7A8E1C",
"i  c #7D8C18",
"p  c #885F25",
"a  c #896D22",
"s  c #B6561D",
"d  c #B15F1D",
"f  c #AA4429",
"g  c #AE601B",
"h  c #B0621F",
"j  c #AE6F22",
"k  c #B06C2B",
"l  c #BD7D4F",
"z  c #D72D1C",
"x  c #DB231F",
"c  c #DB241F",
"v  c #DB261E",
"b  c #DC231F",
"n  c #DD231F",
"m  c #DC241F",
"M  c #DD241F",
"N  c #D82F1D",
"B  c #D92F1D",
"V  c #D7321C",
"C  c #D33B1A",
"Z  c #D33C1A",
"A  c #D73B1A",
"S  c #D8301C",
"D  c #D8321C",
"F  c #D8361B",
"G  c #C63728",
"H  c #C13E26",
"J  c #C33F25",
"K  c #CC3627",
"L  c #CB3929",
"P  c #D02520",
"I  c #D02720",
"U  c #CB4C18",
"Y  c #CA5217",
"T  c #C74624",
"R  c #CD4D21",
"E  c #CB4B33",
"W  c #C65E24",
"Q  c #C6592D",
"!  c #CB5924",
"~  c #CF563E",
"^  c #D34037",
"/  c #CC6F0F",
"(  c #C76111",
")  c #CF6214",
"_  c #CF6612",
"`  c #CD6913",
"'  c #CD6B13",
"]  c #CE6911",
"[  c #CC6A14",
"{  c #C86C1B",
"}  c #CB760E",
"|  c #C6701A",
" . c #C67A15",
".. c #D37211",
"X. c #DE5852",
"o. c #CC6F55",
"O. c #D7605B",
"+. c #DB686B",
"@. c #8E9C0F",
"#. c #839712",
"$. c #869316",
"%. c #899811",
"&. c #959E0E",
"*. c #9A921D",
"=. c #928321",
"-. c #BE8F14",
";. c #A7AE0E",
":. c #AFB00A",
">. c #C5890A",
",. c #C58A0A",
"<. c #C78F0D",
"1. c #C8860B",
"2. c #C29A1B",
"3. c #D59612",
"4. c #D49A1B",
"5. c #CCA219",
"6. c #D0836A",
"7. c #DBCB05",
"8. c #BF898D",
"9. c #B99D8E",
"0. c #B3AABD",
"q. c #9DB1D1",
"w. c #A1B4D3",
"e. c #A4B8D7",
"r. c #ADBEDB",
"t. c #BAB6C2",
"y. c #B1BFD6",
"u. c #B0C0DA",
"i. c #EAA5A1",
"p. c #E0BAA8",
"a. c #CFD4E0",
"s. c #D4DCE9",
"d. c #F4DCDA",
"f. c None",
/* pixels */
"f.f.f.f.f.f.f.f.f.f.f.f.f.f.f.f.f.f.f.f.f.f.f.f.f.f.f.f.f.f.f.f.",
"f.f.f.f.f.f.f.f.f.f.f.f.f.f.f.f.f.f.f.f.f.f.f.f.f.f.f.f.f.f.f.f.",
"f.f.f.f.f.f.f.f.f.f.f.f.f.f.f.f.f.f.f.f.f.f.f.f.f.f.f.f.f.f.f.f.",
"f.f.f.f.f.f.f.f.f.f.f.f.f.f.f.f.f.f.f.f.f.f.f.f.f.f.f.f.f.f.f.f.",
"O O O O O O O O O O O + & I M c M M c M c M c M c M c M M M c M ",
"O O O O O O O O O O O + & I M M M c M c M c M c M c M c M c M c ",
"O O O O O O O O O O O + & I M M c M c M c M c M c M c M c M c M ",
"O O O O O O O O O O O + & I M M M c M c M c M c M c M c M c M c ",
"O O O O O O O O O O O O & I M M c M c M c M c M c M c M c M c M ",
"O O O O O O O O O O O @ = P M M M c M c M c M c M c M c M c M c ",
"O O O O O O O O O O $ - 3 U F M c M c M c M c M c M c M c M c M ",
"O O O O O O O O O ; r q y ' ' Y S c M c M c M c M c M c M c M c ",
"O O O O O O O O : *.7 5 a H G j  .z b M c M c M c M c M c M c M ",
"O O O O O O O . ;.5.s X.l o.~ d -.( x M M c M c M c M c M c M c ",
"O O O O O O @ < :.4.^ d.y.s.i.K R / N b c M c M c M c M c M c M ",
"O O O O O O @ 0 @.=.k t.w.r.9.g { >.C b M c M c M c M c M c M c ",
"O O O O O O @ e #.8 E 0.q.e.8.T | >.Z b M c M c M c M c M c M c ",
"O O O O O O @ 1 q 4 H p.u.a.6.! 3.} S b c M c M c M c M c M c M ",
"O O O O O O O X @.$.a Q +.O.h 2.7...x M M c M c M c M c M c M c ",
"O O O O O O O O < &.u 6 f L W <.1.V x M c M c M c M c M c M c M ",
"O O O O O O O O O : t 9 i [ ' _ S M M c M c M c M c M c M c M c ",
"O O O O O O O O O O $ > 2 Y A c x M c M c M c M c M c M c M c M ",
"O O O O O O O O O O O @ * P M c M c M c M c M c M c M c M c M c ",
"O O O O O O O O O O O + & I M M c M c M c M c M c M c M c M c M ",
"O O O O O O O O O O O + & I M M c M c M c M c M M c M c M c M c ",
"O O O O O O O O O O O + & I M c M c M c M c M c c M c M c M c M ",
"O O O O O O O O O O O O & I M M c M c M c M c M M c M c M c M c ",
"O O O O O O O O O O O O & I M M M c M c M c M M c M c M c M c M ",
"f.f.f.f.f.f.f.f.f.f.f.f.f.f.f.f.f.f.f.f.f.f.f.f.f.f.f.f.f.f.f.f.",
"f.f.f.f.f.f.f.f.f.f.f.f.f.f.f.f.f.f.f.f.f.f.f.f.f.f.f.f.f.f.f.f.",
"f.f.f.f.f.f.f.f.f.f.f.f.f.f.f.f.f.f.f.f.f.f.f.f.f.f.f.f.f.f.f.f.",
"f.f.f.f.f.f.f.f.f.f.f.f.f.f.f.f.f.f.f.f.f.f.f.f.f.f.f.f.f.f.f.f."
};
