/* XPM */
static char *si[] = {
/* columns rows colors chars-per-pixel */
"32 32 47 1",
"  c black",
". c #0758DE",
"X c #1959D5",
"o c #1858D6",
"O c #0356E0",
"+ c #0356E1",
"@ c #0059E6",
"# c #005CE6",
"$ c #005CE7",
"% c #005EEA",
"& c #005EEB",
"* c #1367D5",
"= c #1467D5",
"- c #3867D5",
"; c #3968D4",
": c #3B71DA",
"> c #3D72DA",
", c #2B79E8",
"< c #2C79E8",
"1 c #5A3B94",
"2 c #667ACD",
"3 c #687BCD",
"4 c #5C89E1",
"5 c #5A96EF",
"6 c #5A97F0",
"7 c #718AD7",
"8 c #718BD7",
"9 c #FE0001",
"0 c red",
"q c #818CD0",
"w c #828CD0",
"e c #B4CEF0",
"r c #B5CFF0",
"t c #BFD3F6",
"y c #C0D4F6",
"u c #D6E3F9",
"i c #D6E4F9",
"p c #D6E6FC",
"a c #D6E7FC",
"s c #EFE3EC",
"d c #EEE4ED",
"f c #EFE5EE",
"g c #F0E4EC",
"h c #FDFCFD",
"j c #FEFEFF",
"k c gray100",
"l c None",
/* pixels */
"llllllllllllllllllllllllllllllll",
"llllllllllllllllllllllllllllllll",
"llllllllllllllllllllllllllllllll",
"llllllllllllllllllllllllllllllll",
"llllllllllllllllllllllllllllllll",
"llllllllllllllllllllllllllllllll",
"llllllllllllllllllllllllllllllll",
"kkkkkkkkkkkkkkkkkkkkkkkkkkkkkkkk",
"kkkkkkkkkkkkkkkkkkkkkkkkkkkkkkkk",
"kkkkkkkkkkkkkkkkkkkkkkkkkkkkkkkk",
"kkkkkkireuhkkkkkkkkkkkkkkkkkkkkk",
"kkkkkf>**:skkkkkkkkkkkkkkkkkkkkk",
"kkkkks;,,-fkkkkkkkkkkkkkkkkkkkkk",
"5555647pi74655555555555555555555",
"@@@@@+2tt3+@@@@@@@@@@@@@@@@@@@@@",
"@#####oqqo########@@#####@#####@",
"#######..#######################",
"%%%%%%%%%%%%%%%%%%%%%%%%%%%%%%%%",
"11111111111111111111111111111111",
"99999999999999999999999999999999",
"99999999999999999999999999999999",
"99999999999999999999999999999999",
"99999999999999999999999999999999",
"99999999999999999999999999999999",
"99999999999999999999999999999999",
"llllllllllllllllllllllllllllllll",
"llllllllllllllllllllllllllllllll",
"llllllllllllllllllllllllllllllll",
"llllllllllllllllllllllllllllllll",
"llllllllllllllllllllllllllllllll",
"llllllllllllllllllllllllllllllll",
"llllllllllllllllllllllllllllllll"
};
