/* XPM */
static char *tz[] = {
/* columns rows colors chars-per-pixel */
"32 32 115 2",
"   c black",
".  c #020200",
"X  c #040300",
"o  c #040400",
"O  c #060500",
"+  c #060501",
"@  c #110E01",
"#  c #141102",
"$  c #181402",
"%  c #1A1502",
"&  c #1A1602",
"*  c #1E1903",
"=  c #3E3306",
"-  c #453906",
";  c #463A06",
":  c #483C06",
">  c #493C06",
",  c #493D06",
"<  c #4C3F07",
"1  c #58581B",
"2  c #173BE9",
"3  c #1AB43B",
"4  c #1BB53A",
"5  c #1BB53B",
"6  c #1CB53A",
"7  c #1DB53A",
"8  c #1CB639",
"9  c #1EB53A",
"0  c #1FB53A",
"q  c #32B737",
"w  c #32B837",
"e  c #3EB935",
"r  c #028C6F",
"t  c #59BC31",
"y  c #59BD30",
"u  c #5ABC30",
"i  c #5ABD30",
"p  c #61BD2F",
"a  c #538677",
"s  c #0092ED",
"d  c #00A3DD",
"f  c #00A2DF",
"g  c #00A3DE",
"h  c #00A3DF",
"j  c #00A4DC",
"k  c #04A3DB",
"l  c #05A4DB",
"z  c #06A4DA",
"x  c #19A7C9",
"c  c #19A7CA",
"v  c #19A8C9",
"b  c #00A2E0",
"n  c #47B0A4",
"m  c #47B0A5",
"M  c #6FB785",
"N  c #836D0B",
"B  c #836D0C",
"V  c #846D0B",
"C  c #846D0C",
"Z  c #88710C",
"A  c #89720C",
"S  c #8A720C",
"D  c #A4880E",
"F  c #B99910",
"G  c #A7A83E",
"H  c #87BB73",
"J  c #84BB75",
"K  c #87BC73",
"L  c #92BE69",
"P  c #91C327",
"I  c #91C428",
"U  c #C1A011",
"Y  c #C2A111",
"T  c #C4A311",
"R  c #DFB914",
"E  c #D6B239",
"W  c #C3CA1F",
"Q  c #C4CA1F",
"!  c #C6CA1F",
"~  c #C7CA1F",
"^  c #C7CB1F",
"/  c #EAC213",
"(  c #EBC213",
")  c #EBC313",
"_  c #EAC214",
"`  c #EBC314",
"'  c #ECC414",
"]  c #EDC414",
"[  c #ECD019",
"{  c #EDD019",
"}  c #F2D118",
"|  c #F3D01E",
" . c #FAD115",
".. c #FBD317",
"X. c #FDD213",
"o. c #FCD116",
"O. c #FDD214",
"+. c #FCD216",
"@. c #FDD216",
"#. c #FDD316",
"$. c #FFD316",
"%. c #FFD413",
"&. c #FDD416",
"*. c #FDD417",
"=. c #FFD415",
"-. c #FFD516",
";. c #FEDE1A",
":. c #E9CE26",
">. c #EBCF24",
",. c #ECCF23",
"<. c #FFF732",
"1. c #C3C743",
"2. c #C4C743",
"3. c #FDFC4A",
"4. c None",
/* pixels */
"4.4.4.4.4.4.4.4.4.4.4.4.4.4.4.4.4.4.4.4.4.4.4.4.4.4.4.4.4.4.4.4.",
"4.4.4.4.4.4.4.4.4.4.4.4.4.4.4.4.4.4.4.4.4.4.4.4.4.4.4.4.4.4.4.4.",
"4.4.4.4.4.4.4.4.4.4.4.4.4.4.4.4.4.4.4.4.4.4.4.4.4.4.4.4.4.4.4.4.",
"4.4.4.4.4.4.4.4.4.4.4.4.4.4.4.4.4.4.4.4.4.4.4.4.4.4.4.4.4.4.4.4.",
"9 9 9 9 9 9 9 9 9 9 9 9 9 9 9 9 9 9 4 r a  .;.3.1               ",
"9 9 9 9 9 9 9 9 9 9 9 9 9 9 9 9 9 9 4 e W @.@.D #               ",
"9 9 9 9 9 9 9 9 9 9 9 9 9 9 9 9 9 9 y W  .' Z *                 ",
"9 9 9 9 9 9 9 9 9 9 9 9 9 9 9 4 w P [ @.T > o                   ",
"9 9 9 9 9 9 9 9 9 9 9 9 9 9 9 y ~ &.' Z &                       ",
"9 9 9 9 9 9 9 9 9 9 9 9 9 w P [ @.T > o                         ",
"9 9 9 9 9 9 9 9 9 9 9 9 y ^ &.' Z &                           @ ",
"9 9 9 9 9 9 9 9 9 4 q P [ @.T > o                         o ; F ",
"9 9 9 9 9 9 9 9 9 y ~ @.' Z &                           & V ) &.",
"9 9 9 9 9 9 4 w I [ @.T > o                         X ; U @.>.L ",
"9 9 9 9 9 9 y ~ &.' Z &                           & V ) &.2.m l ",
"9 9 9 4 q P [ @.T > X                         X ; U @.,.H c d d ",
"9 9 0 y ~ &.' Z &                           & N ) @.1.n k d d d ",
"9 w P [ @.T > o                         X ; U @.,.K v b d d d d ",
"p ~ @.' Z &                           & N ) &.2.n k d d d d d d ",
"} @.T > X                           ; U @.>.K c d d d d d d d d ",
"_ Z &                           & N ) &.2.n k b d d d d d d d d ",
"= o                         X ; U @.,.K v d d d d d d d d d d d ",
"                          & C _ @.1.n k d d d d d d d d d d d d ",
"                      X ; U @.>.H c d d d d d d d d d d d d d d ",
"                    & V _ &.1.n k d d d d d d d d d d d d d d d ",
"                o > U @.:.J c d d d d d d d d d d d d d d d d d ",
"                < R &.| M l d d d d d d d d d d d d d d d d d d ",
"                G <.%.E 2 s j d d d d d d d d d d d d d d d d d ",
"4.4.4.4.4.4.4.4.4.4.4.4.4.4.4.4.4.4.4.4.4.4.4.4.4.4.4.4.4.4.4.4.",
"4.4.4.4.4.4.4.4.4.4.4.4.4.4.4.4.4.4.4.4.4.4.4.4.4.4.4.4.4.4.4.4.",
"4.4.4.4.4.4.4.4.4.4.4.4.4.4.4.4.4.4.4.4.4.4.4.4.4.4.4.4.4.4.4.4.",
"4.4.4.4.4.4.4.4.4.4.4.4.4.4.4.4.4.4.4.4.4.4.4.4.4.4.4.4.4.4.4.4."
};
