/* XPM */
static char *uz[] = {
/* columns rows colors chars-per-pixel */
"32 32 69 1",
"  c black",
". c #1DB63A",
"X c #1EB53A",
"o c #29A837",
"O c #008DAC",
"+ c #0D8EAA",
"@ c #0E8EAA",
"# c #0E8FAA",
"$ c #0091AF",
"% c #0096B3",
"& c #0097B3",
"* c #0097B4",
"= c #0098B4",
"- c #0098B5",
"; c #0099B5",
": c #0199B5",
"> c #009AB6",
", c #019AB6",
"< c #049BB6",
"1 c #059BB6",
"2 c #0A9BB7",
"3 c #089CB7",
"4 c #099DB8",
"5 c #0B9EB9",
"6 c #0C9FB9",
"7 c #0D9EB9",
"8 c #0D9FBA",
"9 c #1A93AE",
"0 c #1B94AE",
"q c #1E95AF",
"w c #1F95AF",
"e c #109FBA",
"r c #0FA0BA",
"t c #10A0BA",
"y c #11A1BB",
"u c #12A0BA",
"i c #12A1BB",
"p c #13A1BB",
"a c #14A1BB",
"s c #15A1BB",
"d c #16A2BC",
"f c #19A3BC",
"g c #1AA3BD",
"h c #1CA4BD",
"j c #2096AF",
"k c #2196B0",
"l c #2397B0",
"z c #2799B1",
"x c #32ADC4",
"c c #33ADC4",
"v c #3CB2C7",
"b c #4CA7BC",
"n c #45B5CA",
"m c #55BBCD",
"M c #57BCCE",
"N c #69B3C4",
"B c #6CC4D4",
"V c #BEAEB9",
"C c #BFAEB9",
"Z c #BFE5EC",
"A c #C1AEB9",
"S c #C1AFB9",
"D c #C1AFBA",
"F c #C2AFBA",
"G c #C7B4A2",
"H c #C3E7ED",
"J c #CAEBF0",
"K c gray100",
"L c None",
/* pixels */
"LLLLLLLLLLLLLLLLLLLLLLLLLLLLLLLL",
"LLLLLLLLLLLLLLLLLLLLLLLLLLLLLLLL",
"LLLLLLLLLLLLLLLLLLLLLLLLLLLLLLLL",
"LLLLLLLLLLLLLLLLLLLLLLLLLLLLLLLL",
"LLLLLLLLLLLLLLLLLLLLLLLLLLLLLLLL",
"LLLLLLLLLLLLLLLLLLLLLLLLLLLLLLLL",
"LLLLLLLLLLLLLLLLLLLLLLLLLLLLLLLL",
";;;$O%;;;%%%%;;;;;;;;;;;;;;;;;;;",
";;;cMa;;<tt8d;;;;;;;;;;;;;;;;;;;",
";;cHm3;;<ae8d;;;;;;;;;;;;;;;;;;;",
";*BZ2;;fafdth;;;;;;;;;;;;;;;;;;;",
";;vJn48t8tt8i;;;>>>>;;;;;;;;>>;;",
"+++bNzww9kw0k+++###+++++++++###+",
"FFFVVFFFFFFFFFFFFFFFFFFFFFFFFFFF",
"KKKKKKKKKKKKKKKKKKKKKKKKKKKKKKKK",
"KKKKKKKKKKKKKKKKKKKKKKKKKKKKKKKK",
"KKKKKKKKKKKKKKKKKKKKKKKKKKKKKKKK",
"KKKKKKKKKKKKKKKKKKKKKKKKKKKKKKKK",
"GGGGGGGGGGGGGGGGGGGGGGGGGGGGGGGG",
"oooooooooooooooooooooooooooooooo",
"................................",
"XXXXXXXX....XXXX..XXXXXXXXXXXXXX",
"XXXXXXXXXX.XXXXX.XXXXXXXXXXXXXXX",
"XXXXXXXXXXXXXXXX..XXXXXXXXXXXXXX",
"XX.....XXXXXXXXXXXXXXXXXXX.....X",
"LLLLLLLLLLLLLLLLLLLLLLLLLLLLLLLL",
"LLLLLLLLLLLLLLLLLLLLLLLLLLLLLLLL",
"LLLLLLLLLLLLLLLLLLLLLLLLLLLLLLLL",
"LLLLLLLLLLLLLLLLLLLLLLLLLLLLLLLL",
"LLLLLLLLLLLLLLLLLLLLLLLLLLLLLLLL",
"LLLLLLLLLLLLLLLLLLLLLLLLLLLLLLLL",
"LLLLLLLLLLLLLLLLLLLLLLLLLLLLLLLL"
};
