/* XPM */
static char *bd[] = {
/* columns rows colors chars-per-pixel */
"22 22 54 1",
"  c black",
". c #065D12",
"X c #075D12",
"o c #065E12",
"O c #085D12",
"+ c #095C12",
"@ c #095D12",
"# c #0A5C12",
"$ c #0C5B12",
"% c #115912",
"& c #125912",
"* c #135912",
"= c #155812",
"- c #1D5512",
"; c #2E4E12",
": c #245212",
"> c #275112",
", c #354C11",
"< c #3E4811",
"1 c #5F3C11",
"2 c #673911",
"3 c #6B3711",
"4 c #703511",
"5 c #723411",
"6 c #434611",
"7 c #494411",
"8 c #4F4211",
"9 c #524111",
"0 c #822F11",
"q c #892C10",
"w c #8C2B10",
"e c #912810",
"r c #942810",
"t c #9F2310",
"y c #AF1D10",
"u c #BF1710",
"i c #BB1910",
"p c #BD1810",
"a c #A22210",
"s c #A82010",
"d c #A92010",
"f c #DB0D0F",
"g c #D21010",
"h c #E00B0F",
"j c #E40A0F",
"k c #EF050F",
"l c #F2040F",
"z c #F5030F",
"x c #FB010F",
"c c #FC000F",
"v c #FD000F",
"b c #FE000F",
"n c #FF000F",
"m c None",
/* pixels */
"mmmmmmmmmmmmmmmmmmmmmm",
"mmmmmmmmmmmmmmmmmmmmmm",
"######################",
"######################",
"######################",
"######.....###########",
"######>3eq9=.#########",
"#####8gxnnzs>#########",
"###.,fnxnxxna%########",
"####wnxnnxxnk6.#######",
"###%pnxxxnxnn3.#######",
"###%unxnxxxxn5.#######",
"####rnnxxxxnl7.#######",
"###.<jnxnxnny=########",
"#####1fnnnxi;#########",
"######,0st2-.#########",
"#######.$#.###########",
"######################",
"######################",
"######################",
"mmmmmmmmmmmmmmmmmmmmmm",
"mmmmmmmmmmmmmmmmmmmmmm"
};
