/* XPM */
static char *cd[] = {
/* columns rows colors chars-per-pixel */
"22 22 101 2",
"   c black",
".  c #002FFF",
"X  c #0030FF",
"o  c #0031FF",
"O  c #0130FE",
"+  c #0032FF",
"@  c #0033FF",
"#  c #0132FE",
"$  c #0133FE",
"%  c #0333FC",
"&  c #0134FE",
"*  c #0234FD",
"=  c #0235FD",
"-  c #0335FC",
";  c #0435FB",
":  c #0436FB",
">  c #0536FA",
",  c #0737F8",
"<  c #0837F7",
"1  c #0838F7",
"2  c #0939F6",
"3  c #0B39F4",
"4  c #103DEF",
"5  c #103EEF",
"6  c #113EEE",
"7  c #1340EC",
"8  c #1440EB",
"9  c #1D46E2",
"0  c #1E47E1",
"q  c #2149DE",
"w  c #2249DD",
"e  c #234ADC",
"r  c #244BDB",
"t  c #264BD9",
"y  c #264CD9",
"u  c #294DD6",
"i  c #284ED7",
"p  c #2D51D2",
"a  c #3053CF",
"s  c #3758C8",
"d  c #3A5AC5",
"f  c #3B5AC4",
"g  c #3E5DC1",
"h  c #3F5DC0",
"j  c #405EBF",
"k  c #415FBE",
"l  c #4360BC",
"z  c #4662B9",
"x  c #4964B6",
"c  c #4A64B5",
"v  c #4A65B5",
"b  c #4B65B4",
"n  c #4C66B3",
"m  c #4D67B2",
"M  c #4E67B1",
"N  c #4F68B0",
"B  c #576DA8",
"V  c #62759D",
"C  c #677898",
"Z  c #687997",
"A  c #697996",
"S  c #6B7B94",
"D  c #6D7C92",
"F  c #6F7D90",
"G  c #727F8D",
"H  c #74808B",
"J  c #75818A",
"K  c #768389",
"L  c #778388",
"P  c #7C8683",
"I  c #80897F",
"U  c #818A7E",
"Y  c #828A7D",
"T  c #8A9075",
"R  c #92956D",
"E  c #9B9B64",
"W  c #A3A05C",
"Q  c #ABA654",
"!  c #B0A94F",
"~  c #CEBD31",
"^  c #D6C329",
"/  c #D7C428",
"(  c #DAC625",
")  c #DDC822",
"_  c #DFC920",
"`  c #E1CA1E",
"'  c #E9D016",
"]  c #EBD114",
"[  c #EFD410",
"{  c #F5D80A",
"}  c #F6D809",
"|  c #F7D908",
" . c #F7DA08",
".. c #F9DA06",
"X. c #FCDC03",
"o. c #FEDE01",
"O. c #FFDE00",
"+. c #FFDF00",
"@. c #FFE000",
"#. c #FFE200",
"$. c None",
/* pixels */
"$.$.$.$.$.$.$.$.$.$.$.$.$.$.$.$.$.$.$.$.$.$.",
"$.$.$.$.$.$.$.$.$.$.$.$.$.$.$.$.$.$.$.$.$.$.",
"& X X X & X & & & & & & X & & & X & X & & & ",
"& 9 0 & & & X & & X & X & & & X & & & & & X ",
"& P U & & & & X X & X & & & & & X & & & X & ",
"& e r & X & & & & & & & & & & X & & & X & & ",
"& j l & & X & X & & & X 9 z X & X & X & & & ",
"& F H & & & & & & X & X B Q , & & & & & & X ",
"& 3 5 & & & & & X X X X E ' i X X X & & & & ",
": C F : X & X : a g d v ( @.U s d d 7 & & X ",
"& v v & & & & & N ~  . .o.o... .' T 7 X & & ",
"& 9 0 & X & & X X p ! X.o.o.o._ V 3 X & & X ",
"& P U : & & X & & X r ` @.o.o.H X & & & X & ",
"X e e & & X & & & X v  .[ _ @.W & & & X & & ",
"& v M & & & & & X & R / B r W / e X X & & & ",
"& A S & & X & & X 5 K r X X 3 A g X & & & X ",
"X 5 5 & & & & & X & 3 X & & X & 3 & & X & X ",
"& H K : & X & X & & & & & X & & X & & & & & ",
"& g l X X & & & X & X & & & & & & X & X & & ",
"& X X & & & & X & & & & & X & X & & & & X & ",
"$.$.$.$.$.$.$.$.$.$.$.$.$.$.$.$.$.$.$.$.$.$.",
"$.$.$.$.$.$.$.$.$.$.$.$.$.$.$.$.$.$.$.$.$.$."
};
