/* XPM */
static char *dvorak[] = {
/* columns rows colors chars-per-pixel */
"22 22 65 1",
"  c black",
". c #010101",
"X c #020202",
"o c gray1",
"O c gray2",
"+ c #060606",
"@ c gray3",
"# c #0B0B0B",
"$ c #0C0C0C",
"% c gray5",
"& c #101010",
"* c #161616",
"= c #202020",
"- c #222222",
"; c gray14",
": c #252525",
"> c gray15",
", c #272727",
"< c gray16",
"1 c #2A2A2A",
"2 c #2C2C2C",
"3 c gray18",
"4 c gray20",
"5 c gray23",
"6 c gray28",
"7 c gray29",
"8 c #4B4B4B",
"9 c #4C4C4C",
"0 c #4E4E4E",
"q c gray31",
"w c #505050",
"e c #585858",
"r c gray39",
"t c #656565",
"y c gray42",
"u c gray44",
"i c #727272",
"p c gray51",
"a c gray58",
"s c #9D9D9D",
"d c gray63",
"f c #B7B7B7",
"g c #B9B9B9",
"h c #BBBBBB",
"j c #C0C0C0",
"k c gray76",
"l c #C5C5C5",
"z c gray82",
"x c gray84",
"c c gray85",
"v c gainsboro",
"b c #DDDDDD",
"n c gray88",
"m c #E2E2E2",
"M c gray90",
"N c #E6E6E6",
"B c #E7E7E7",
"V c gray93",
"C c gray94",
"Z c gray95",
"A c #F4F4F4",
"S c #F8F8F8",
"D c #F9F9F9",
"F c gray98",
"G c None",
/* pixels */
"GGGGGGGGGGGGGGGGGGGGGG",
"GGGGGGGGGGGGGGGGGGGGGG",
"GGGGGGGGGGGGGGGGGGGGGG",
"GGGGGGGGGGGGGGGGGGGGGG",
"                      ",
"                      ",
"                      ",
"    %,,=$ +;*  %>$    ",
"    wMvcj9&gdO ix1    ",
"    eDu6km2pB<#lf@    ",
"    eS7 qFr4Vy5Ct     ",
"    eS7 qFt+hhan-     ",
"    eDu6km3 yAZsX     ",
"    wNbcj0. :zM8      ",
"    %,,=$   o=:@      ",
"                      ",
"                      ",
"                      ",
"GGGGGGGGGGGGGGGGGGGGGG",
"GGGGGGGGGGGGGGGGGGGGGG",
"GGGGGGGGGGGGGGGGGGGGGG",
"GGGGGGGGGGGGGGGGGGGGGG"
};
