/* XPM */
static char *eg[] = {
/* columns rows colors chars-per-pixel */
"22 22 29 1",
"  c black",
". c #747060",
"X c #747161",
"o c #74736F",
"O c #747474",
"+ c #CD0D22",
"@ c #CD0D23",
"# c #CE1126",
"$ c #E4787C",
"% c #E47980",
"& c #E47A86",
"* c #E47B87",
"= c #E47A88",
"- c #FDE373",
"; c #FDE476",
": c #FDE888",
"> c #FDE88B",
", c #FDEA94",
"< c #FEEA97",
"1 c #FFEFA1",
"2 c #FFEFA2",
"3 c #FFF5C5",
"4 c #FFF5C6",
"5 c #FFF9DA",
"6 c #FFFADD",
"7 c #FFFCE9",
"8 c #FFFCEA",
"9 c gray100",
"0 c None",
/* pixels */
"0000000000000000000000",
"0000000000000000000000",
"0000000000000000000000",
"######################",
"######################",
"######################",
"######################",
"++++++++++++++++++++++",
"&&&&&&&&&=$%=&&&&&&&&&",
"9999999998568999999999",
"999999999<-;<999999999",
"999999999>-;:999999999",
"9999999993113999999999",
"OOOOOOOOOO..oOOOOOOOOO",
"                      ",
"                      ",
"                      ",
"                      ",
"                      ",
"0000000000000000000000",
"0000000000000000000000",
"0000000000000000000000"
};
