/* XPM */
static char *in[] = {
/* columns rows colors chars-per-pixel */
"22 22 88 1",
"  c black",
". c #287C2C",
"X c #297C2C",
"o c #2C754A",
"O c #2E774B",
"+ c #777B99",
"@ c #7A7D9A",
"# c #2B8614",
"$ c #319102",
"% c #319202",
"& c #329301",
"* c #339301",
"= c #329203",
"- c #329302",
"; c #35920E",
": c #39960B",
"> c #6088A6",
", c #638AA8",
"< c #739BA1",
"1 c #769DA2",
"2 c #7A96CD",
"3 c #7E97CB",
"4 c #7D96CD",
"5 c #7E98CB",
"6 c #7F98CC",
"7 c #7F99CC",
"8 c #9A633E",
"9 c #9C643F",
"0 c #B76620",
"q c #D26C0C",
"w c #E37306",
"e c #E77300",
"r c #E77503",
"t c #E87300",
"y c #E87503",
"u c #EA7400",
"i c #A19295",
"p c #A39496",
"a c #8497C3",
"s c #8099CC",
"d c #8F9EC4",
"f c #8F9FC5",
"g c #8E9FC7",
"h c #829CD0",
"j c #869DD1",
"k c #89A2CB",
"l c #8FA5D2",
"z c #8FA6D2",
"x c #90A8CE",
"c c #92A9CE",
"v c #92AACE",
"b c #99ADD6",
"n c #9AAED6",
"m c #9BAFD7",
"M c #9FB2D8",
"N c #A0B3D9",
"B c #ACBCDE",
"V c #AFBFDF",
"C c #B0BFDF",
"Z c #B3C2E0",
"A c #BECBE5",
"S c #BFCCE6",
"D c #CAE3BD",
"F c #CAE3BE",
"G c #F7D3AE",
"H c #F8D3AE",
"J c #C1CDE6",
"K c #C2CEE7",
"L c #C3CFE7",
"P c #C4CFE7",
"I c #C5D0E8",
"U c #C5D1E8",
"Y c #C5D1E9",
"T c #C6D2E8",
"R c #C7D2E9",
"E c #CCD6EB",
"W c #CCD7EB",
"Q c #CDD7EB",
"! c #CDD9EE",
"~ c #CFD8EC",
"^ c #CED9EF",
"/ c #D0D9EE",
"( c #D1D9EE",
") c #E3E9F5",
"_ c #E4E9F5",
"` c #E6EBF6",
"' c gray100",
"] c None",
/* pixels */
"]]]]]]]]]]]]]]]]]]]]]]",
"]]]]]]]]]]]]]]]]]]]]]]",
"eeeeeeeeeeeeeeeeeeeeee",
"eeeeeeeeeeeeeeeeeeeeee",
"eeeeeeeetteteeeeeeeeee",
"eeeeeeeeetyyteeeeeeeee",
"eeeeeeettq00qtteeeeeee",
"rrrrrryw8+ff@9wyrrrrrr",
"GGGGGGHia!RU!kpHGGGGGG",
"''''''_2ENssNQs`''''''",
"''''''UzU6BBsPmR''''''",
"''''''PzK3CZsKmU''''''",
"'''''')4Qb56bQj_''''''",
"DDDDDDD<k/SS/x1DDDDDDD",
":::::::;o>xx,O;:::::::",
"=======**#XX#***======",
"=========****=========",
"======================",
"======================",
"======================",
"]]]]]]]]]]]]]]]]]]]]]]",
"]]]]]]]]]]]]]]]]]]]]]]"
};
