/* XPM */
static char *it[] = {
/* columns rows colors chars-per-pixel */
"22 22 9 1",
"  c black",
". c #008D46",
"X c #018D47",
"o c #D2232C",
"O c #D2242D",
"+ c #A5D7BD",
"@ c #EFB1B4",
"# c gray100",
"$ c None",
/* pixels */
"$$$$$$$$$$$$$$$$$$$$$$",
"$$$$$$$$$$$$$$$$$$$$$$",
"$$$$$$$$$$$$$$$$$$$$$$",
"......X+######@Ooooooo",
"......X+######@Ooooooo",
"......X+######@Ooooooo",
".......+######@Ooooooo",
".......+######@Ooooooo",
"......X+######@Ooooooo",
"......X+######@Ooooooo",
"......X+######@Ooooooo",
"......X+######@Ooooooo",
"......X+######@Ooooooo",
"......X+######@Ooooooo",
".......+######@Ooooooo",
".......+######@Ooooooo",
"......X+######@Ooooooo",
"......X+######@Ooooooo",
"......X+######@Ooooooo",
"$$$$$$$$$$$$$$$$$$$$$$",
"$$$$$$$$$$$$$$$$$$$$$$",
"$$$$$$$$$$$$$$$$$$$$$$"
};
