/* XPM */
static char *lk[] = {
/* columns rows colors chars-per-pixel */
"22 22 145 2",
"   c black",
".  c #006200",
"X  c DarkGreen",
"o  c #006401",
"O  c #016400",
"+  c #006600",
"@  c #016600",
"#  c #0A6B00",
"$  c #0E6A01",
"%  c #0E6C00",
"&  c #633621",
"*  c #653920",
"=  c #663A20",
"-  c #765617",
";  c #7A5618",
":  c #498300",
">  c #4C8400",
",  c #4D8400",
"<  c #7A9600",
"1  c #7B9700",
"2  c #961634",
"3  c #971734",
"4  c #971834",
"5  c #991B33",
"6  c #9A1B32",
"7  c #9A1B33",
"8  c #9B1834",
"9  c #9B1934",
"0  c #9A1C33",
"q  c #9A1D32",
"w  c #9B1E32",
"e  c #9D2231",
"r  c #9E2330",
"t  c #9E2331",
"y  c #9E2430",
"u  c #9F2630",
"i  c #A0272F",
"p  c #A1292F",
"a  c #A22A2F",
"s  c #A22B2F",
"d  c #A32C2E",
"f  c #A32D2E",
"g  c #A52A2F",
"h  c #A42E2D",
"j  c #A02630",
"k  c #A32630",
"l  c #A5302D",
"z  c #A5312D",
"x  c #A6312D",
"c  c #A7342C",
"v  c #A9372B",
"b  c #AB3A2A",
"n  c #AD3D29",
"m  c #915B0A",
"M  c #AE4028",
"N  c #AF4128",
"B  c #B14527",
"V  c #B24626",
"C  c #B04228",
"Z  c #B44A26",
"A  c #B74F24",
"S  c #B85123",
"D  c #B95223",
"F  c #BB5622",
"G  c #BD5921",
"H  c #BE5B20",
"J  c #BF5D20",
"K  c #A36400",
"L  c #A36600",
"P  c #A36700",
"I  c #DD4D11",
"U  c #DD4E11",
"Y  c #C05E20",
"T  c #C35D20",
"R  c #C0601F",
"E  c #C4661D",
"W  c #C5671D",
"Q  c #C6691C",
"!  c #C76B1C",
"~  c #C9681D",
"^  c #CA701A",
"/  c #CB721A",
"(  c #CD7619",
")  c #DD7C11",
"_  c #E5530F",
"`  c #FF6400",
"'  c #FF6600",
"]  c #FF6700",
"[  c #FF6800",
"{  c #FF6900",
"}  c #829A00",
"|  c #BE8400",
" . c #A2A700",
".. c #D38016",
"X. c #D68515",
"o. c #D88913",
"O. c #D98A13",
"+. c #D88814",
"@. c #DA8C12",
"#. c #DD9111",
"$. c #DD9211",
"%. c #DE9310",
"&. c #DF9610",
"*. c #C7B600",
"=. c #C8B600",
"-. c #DFAE06",
";. c #E39C0E",
":. c #FF8400",
">. c #FF8500",
",. c #E6A00D",
"<. c #E8A50B",
"1. c #ECAB09",
"2. c #ECAA0A",
"3. c #ECAC09",
"4. c #FFAC00",
"5. c #FFAF00",
"6. c #F0B207",
"7. c #F0B307",
"8. c #F1B307",
"9. c #F1B407",
"0. c #F3B706",
"q. c #F4B906",
"w. c #F7BE04",
"e. c #FFB600",
"r. c #E2C100",
"t. c #FAC402",
"y. c #FBC502",
"u. c #FBC602",
"i. c #FCC702",
"p. c #FACA00",
"a. c #FCCB00",
"s. c #FDCA00",
"d. c #FECB01",
"f. c #FFCA00",
"g. c #FFCB00",
"h. c #FFCC00",
"j. c #FFCD00",
"k. c #FFCE00",
"l. c #FFCF00",
"z. c #FFD000",
"x. c #FFD100",
"c. c #FFD200",
"v. c #FFD300",
"b. c #FFD400",
"n. c None",
/* pixels */
"n.n.n.n.n.n.n.n.n.n.n.n.n.n.n.n.n.n.n.n.n.n.",
"n.n.n.n.n.n.n.n.n.n.n.n.n.n.n.n.n.n.n.n.n.n.",
"h.h.h.h.h.h.h.h.h.h.h.h.h.a.h.h.h.h.h.h.h.h.",
"h.a.p.p.p.a.a.a.a.a.a.a.a.a.a.a.h.h.h.h.h.h.",
"h. .: > > > > > | :.:.:.:.:.:.e.h.h.h.h.h.h.",
"h.< X X X X X X K ` ` ` ` ` ` 4.z.h.h.h.h.h.",
"h.1 X + X + + + K { ` { ` ` { 4.h.h.h.h.h.h.",
"h.1 X X + + + + K { ` { { { { 4.z.z.h.z.h.h.",
"h.1 X + + + + + m _ U U U U U ) $.$.$.$.,.u.",
"h.1 X + + + + X - T 0 0 0 0 5 5 5 5 5 n / 6.",
"z.1 X + + + + + = k 0 i 0 p f v n u 5 e b 6.",
"h.1 X + + + + + & 9 0 N D O.+.X./ R z 4 z 6.",
"h.1 X + + + + + & 9 e S T ;.@.Q ..O.D 3 z 9.",
"h.1 X + + + + + & 9 c ( ! q.w.u.h.h.E 3 z 9.",
"z.1 X + + + X X & 9 z @.1.u.u.6.0.6.Z 3 z 6.",
"h.1 X + + + X X & 9 p G V &.Q N $.O.A 3 z 6.",
"h.1 X X + + + + = g 0 5 p G p f F J h i C 6.",
"z.} # % % % % % ; ~ u u u e e u e e e V / 9.",
"h.r.*.=.=.=.=.=.-.1.<.<.<.<.<.<.<.<.<.<.3.i.",
"h.z.z.z.z.z.z.z.z.b.b.b.b.b.b.b.b.b.b.b.z.h.",
"n.n.n.n.n.n.n.n.n.n.n.n.n.n.n.n.n.n.n.n.n.n.",
"n.n.n.n.n.n.n.n.n.n.n.n.n.n.n.n.n.n.n.n.n.n."
};
