/* XPM */
static char *mao[] = {
/* columns rows colors chars-per-pixel */
"22 22 51 1",
"  c black",
". c #000101",
"X c #010101",
"o c gray2",
"O c #0C0C0C",
"+ c #131313",
"@ c #151515",
"# c #2A2A2A",
"$ c #2F2E2E",
"% c #414141",
"& c #656565",
"* c gray44",
"= c #D30000",
"- c #D40000",
"; c #D40202",
": c #D50505",
"> c #D50808",
", c #D50909",
"< c #D60B0B",
"1 c #DA2121",
"2 c #DA2525",
"3 c #DC3030",
"4 c #DD3838",
"5 c #DE3D3D",
"6 c #E25454",
"7 c #E77070",
"8 c #EC7F7F",
"9 c #8A8585",
"0 c #AA8080",
"q c gray68",
"w c #EB8686",
"e c #F19999",
"r c #F4BBBB",
"t c #F4BEBE",
"y c #C5C6C6",
"u c #D3D4D4",
"i c #D5D5D5",
"p c #DAD9D9",
"a c #DBDCDC",
"s c #F6CBCB",
"d c #F8D5D5",
"f c #FADFDF",
"g c #F5E7E7",
"h c #FAE4E4",
"j c #FBE6E6",
"k c #F5F1F1",
"l c #FDF4F4",
"z c #FFFCFC",
"x c #FFFEFE",
"c c gray100",
"v c None",
/* pixels */
"vvvvvvvvvvvvvvvvvvvvvv",
"vvvvvvvvvvvvvvvvvvvvvv",
"vvvvvvvvvvvvvvvvvvvvvv",
"vvvvvvvvvvvvvvvvvvvvvv",
"                      ",
"                      ",
"******&#              ",
"ccccccca%             ",
"tttttrscqo            ",
",,,,,34eyO            ",
"----7hd89             ",
"---1fcg0$+@@@@@@@@@@@@",
"---2hckpuiiiiiiiiiiiii",
"---:wlcccccccccccccccc",
"----,56666666666666666",
"-----=================",
"----------------------",
"----------------------",
"vvvvvvvvvvvvvvvvvvvvvv",
"vvvvvvvvvvvvvvvvvvvvvv",
"vvvvvvvvvvvvvvvvvvvvvv",
"vvvvvvvvvvvvvvvvvvvvvv"
};
