/* XPM */
static char *ml[] = {
/* columns rows colors chars-per-pixel */
"22 22 11 1",
"  c black",
". c #14B53A",
"X c #15B53A",
"o c #CE1126",
"O c #CE1226",
"+ c #AAC723",
"@ c #EC8D1C",
"# c #FCD116",
"$ c #FFD115",
"% c #FDD416",
"& c None",
/* pixels */
"&&&&&&&&&&&&&&&&&&&&&&",
"&&&&&&&&&&&&&&&&&&&&&&",
"&&&&&&&&&&&&&&&&&&&&&&",
".......+$$$#$%@OOOOoOO",
".......+$####%@Ooooooo",
".......+$####%@Ooooooo",
".......+$####%@Ooooooo",
".......+$####%@Ooooooo",
".......+$####%@Ooooooo",
".......+$####%@Ooooooo",
".......+$####%@Ooooooo",
".......+$####%@Ooooooo",
".......+$####%@OooooOO",
".......+$####%@OooooOO",
".......+$####%@OooooOo",
".......+$####%@Ooooooo",
".......+$####%@OOOoooo",
".......+$$###%@OOOOOoo",
".......+$$$$#%@OOOOOoO",
"&&&&&&&&&&&&&&&&&&&&&&",
"&&&&&&&&&&&&&&&&&&&&&&",
"&&&&&&&&&&&&&&&&&&&&&&"
};
