/* XPM */
static char *pk[] = {
/* columns rows colors chars-per-pixel */
"22 22 64 1",
"  c black",
". c #006300",
"X c DarkGreen",
"o c #006500",
"O c #016501",
"+ c #006600",
"@ c #016601",
"# c #016701",
"$ c #026602",
"% c #026702",
"& c #066A06",
"* c #086A08",
"= c #086B08",
"- c #0A6C0A",
"; c #0B6D0B",
": c #0C6D0C",
"> c #0D6D0D",
", c #0E6E0E",
"< c #0F6F0F",
"1 c #106F10",
"2 c #167316",
"3 c #177317",
"4 c #187418",
"5 c #187518",
"6 c #197419",
"7 c #1B751B",
"8 c #257C25",
"9 c #277D27",
"0 c #2C802C",
"q c #2D812D",
"w c #2E812E",
"e c #378737",
"r c #418C41",
"t c #428E42",
"y c #448F44",
"u c #4F954F",
"i c #5B9C5B",
"p c #5E9F5E",
"a c #66A466",
"s c #67A467",
"d c #68A468",
"f c #69A569",
"g c #6BA66B",
"h c #7CB07C",
"j c #80B280",
"k c #80B380",
"l c #8AB98A",
"z c #8EBB8E",
"x c #9DC49D",
"c c #9EC59E",
"v c #B2D1B2",
"b c #B3D2B3",
"n c #B4D2B4",
"m c #BBD6BB",
"M c #C1DAC1",
"N c #CADFCA",
"B c #D3E4D3",
"V c #D9E8D9",
"C c #E4EFE4",
"Z c #F6F9F6",
"A c #F8FBF8",
"S c #F9FBF9",
"D c gray100",
"F c None",
/* pixels */
"FFFFFFFFFFFFFFFFFFFFFF",
"FFFFFFFFFFFFFFFFFFFFFF",
"FFFFFFFFFFFFFFFFFFFFFF",
"DDDDDkoooo##o#ooo##o##",
"DDDDDjoo#o#oo#o#o#o##o",
"DDDDDjooo#o##o#o#o#oo#",
"DDDDDjoo#oo,-oooo##o#o",
"DDDDDjoo#oqs,oo2=#o#o#",
"DDDDDkooo6vyoo,zh=oo#o",
"DDDDDjooofB2oo6xl,o#o#",
"DDDDDjoooxV2o#o6,##o#o",
"DDDDDjoooxZto##oo#o#o#",
"DDDDDjooosDv2oooo-#oo#",
"DDDDDkooo6MDmu8qpeoo##",
"DDDDDjooooqnSSCNf-o#o#",
"DDDDDkooooo,tfi8#o#o#o",
"DDDDDjooo#oooooooo#o#o",
"DDDDDjoo#o#oooo#o#o#o#",
"DDDDDjoooooo#oo##oo#o#",
"FFFFFFFFFFFFFFFFFFFFFF",
"FFFFFFFFFFFFFFFFFFFFFF",
"FFFFFFFFFFFFFFFFFFFFFF"
};
