/* XPM */
static char *sa[] = {
/* columns rows colors chars-per-pixel */
"22 22 74 1",
"  c black",
". c #00942D",
"X c #00942E",
"o c #00942F",
"O c #00952F",
"+ c #009530",
"@ c #019530",
"# c #049633",
"$ c #059734",
"% c #079836",
"& c #089836",
"* c #0B9A39",
"= c #0C9A39",
"- c #0E9B3B",
"; c #0F9B3C",
": c #0F9C3D",
"> c #109C3D",
", c #129C3F",
"< c #149D40",
"1 c #169E42",
"2 c #199F44",
"3 c #1AA045",
"4 c #1BA046",
"5 c #1CA147",
"6 c #1DA147",
"7 c #1EA148",
"8 c #1FA249",
"9 c #20A24A",
"0 c #21A34B",
"q c #23A44D",
"w c #24A44D",
"e c #27A54F",
"r c #2AA652",
"t c #2FA856",
"y c #30A957",
"u c #32AA58",
"i c #35AB5B",
"p c #37AC5C",
"a c #38AC5E",
"s c #39AD5F",
"d c #3CAE61",
"f c #3DAE61",
"g c #3EAF62",
"h c #3EAF63",
"j c #3FAF63",
"k c #42B166",
"l c #43B166",
"z c #48B36A",
"x c #49B36B",
"c c #4BB46D",
"v c #4CB46D",
"b c #4DB56F",
"n c #50B671",
"m c #54B874",
"M c #54B875",
"N c #56B976",
"B c #57B976",
"V c #5ABA79",
"C c #5BBB7A",
"Z c #5DBC7C",
"A c #63BE80",
"S c #63BE81",
"D c #64BE81",
"F c #64BF82",
"G c #66BF83",
"H c #6CC288",
"J c #6EC389",
"K c #71C48C",
"L c #76C690",
"P c #78C791",
"I c #7CC894",
"U c #81CB99",
"Y c #83CB9A",
"T c None",
/* pixels */
"TTTTTTTTTTTTTTTTTTTTTT",
"TTTTTTTTTTTTTTTTTTTTTT",
"TTTTTTTTTTTTTTTTTTTTTT",
"++++++++++++++++++++++",
"+++++++++++O++++++++++",
"+++++++++++O++++++++++",
"++++++OO+OOOOOOO++++++",
"++++O<kseehvphhx0o++++",
"++++OyYHpCAZNNCLyo++++",
"++++O<NYcAIKcnzGaO++++",
"++++O0HDNAPxuCMhrO++++",
"+++++%2;<<<==;%*#+++++",
"++++++ooooooOOOo++++++",
"++++++#266644q7$++++++",
"++++OO#tkhhsikv>O+++++",
"++++OOO.ooooo+++++++++",
"++++++++++++++++++++++",
"++++++++++++++++++++++",
"++++++++++++++++++++++",
"TTTTTTTTTTTTTTTTTTTTTT",
"TTTTTTTTTTTTTTTTTTTTTT",
"TTTTTTTTTTTTTTTTTTTTTT"
};
