/* XPM */
static char *sy[] = {
/* columns rows colors chars-per-pixel */
"22 22 23 1",
"  c black",
". c gray45",
"X c #747373",
"o c #747374",
"O c #47B98D",
"+ c #4BBA8E",
"@ c #CD0D23",
"# c #CE1126",
"$ c #E47C88",
"% c #E57D89",
"& c #A6DDC7",
"* c #AADFCA",
"= c #C0E7D8",
"- c #C9EBDE",
"; c #E1F5ED",
": c #F1FBF7",
"> c #F2FBF7",
", c #F5FCF9",
"< c #FAFDFC",
"1 c #FBFDFC",
"2 c #FEFFFF",
"3 c gray100",
"4 c None",
/* pixels */
"4444444444444444444444",
"4444444444444444444444",
"4444444444444444444444",
"######################",
"######################",
"######################",
"######################",
"@@@@@@@@@@@@@@@@@@@@@@",
"$$$$$$$$$$$$$$$$$$$$$$",
"333333;13333331;333333",
"33333=+&133331&+=33333",
"33333-O*333333*O-33333",
"33333,>>333333>>,33333",
".....Xoo......ooX.....",
"                      ",
"                      ",
"                      ",
"                      ",
"                      ",
"4444444444444444444444",
"4444444444444444444444",
"4444444444444444444444"
};
