/* XPM */
static char *th[] = {
/* columns rows colors chars-per-pixel */
"22 22 14 1",
"  c black",
". c #00217B",
"X c #00227C",
"o c #00247D",
"O c #DE0F17",
"+ c #DE1018",
"@ c #E02027",
"# c #E1232B",
"$ c #8697C1",
"% c #8E9EC5",
"& c #F9D1D3",
"* c #F9D7D8",
"= c gray100",
"- c None",
/* pixels */
"----------------------",
"----------------------",
"----------------------",
"++++++++++++++++++++++",
"OOOOOOOOOOOOOOOOOOOOOO",
"@@@@@@@@@@@@@@@@@@@@@@",
"&&&&&&&&&&&&&&&&&&&&&&",
"======================",
"%%%%%%%%%%%%%%%%%%%%%%",
"XXXXXXXXXXXXXXXXXXXXXX",
"oooooooooooooooooooooo",
"oooooooooooooooooooooo",
"......................",
"$$$$$$$$$$$$$$$$$$$$$$",
"======================",
"**********************",
"######################",
"OOOOOOOOOOOOOOOOOOOOOO",
"++++++++++++++++++++++",
"----------------------",
"----------------------",
"----------------------"
};
