/* XPM */
static char *vn[] = {
/* columns rows colors chars-per-pixel */
"22 22 35 1",
"  c black",
". c #CD0D26",
"X c #CD0E26",
"o c #CD0F26",
"O c #CE0F26",
"+ c #CE1026",
"@ c #CE1126",
"# c #CE1226",
"$ c #CF1426",
"% c #CF1625",
"& c #CF1826",
"* c #D52E23",
"= c #D52C24",
"- c #D52D24",
"; c #D53023",
": c #D83A23",
"> c #DC4C21",
", c #DE5321",
"< c #E05A20",
"1 c #E2621F",
"2 c #E36A1F",
"3 c #E46B1F",
"4 c #E6741E",
"5 c #E87E1D",
"6 c #F09F1A",
"7 c #F4AE19",
"8 c #F6B918",
"9 c #F6BA18",
"0 c #F9C617",
"q c #F8C018",
"w c #FAC817",
"e c #FCD116",
"r c #FCD316",
"t c #FDD416",
"y c None",
/* pixels */
"yyyyyyyyyyyyyyyyyyyyyy",
"yyyyyyyyyyyyyyyyyyyyyy",
"yyyyyyyyyyyyyyyyyyyyyy",
"@@@@@@@@@@@@@@@@@@@@@@",
"@@@@@@@@@@@@@@@@@@@@@@",
"@@@@@@@@@@@@@@@@@@@@@@",
"@@@@@@@@@O==O@@@@@@@@@",
"@@@@@@@@@O22O@@@@@@@@@",
"@@@@@@@OO%66%.OO@@@@@@",
"@@@@@@=34500543=@@@@@@",
"@@@@@@&<8rrrt8<%@@@@@@",
"@@@@@@@O:8rr8:O@@@@@@@",
"@@@@@@@O;qw0q;O@@@@@@@",
"@@@@@@@O17>>71O@@@@@@@",
"@@@@@@@%,*OO*,%@@@@@@@",
"@@@@@@@@@@@@@@@@@@@@@@",
"@@@@@@@@@@@@@@@@@@@@@@",
"@@@@@@@@@@@@@@@@@@@@@@",
"@@@@@@@@@@@@@@@@@@@@@@",
"yyyyyyyyyyyyyyyyyyyyyy",
"yyyyyyyyyyyyyyyyyyyyyy",
"yyyyyyyyyyyyyyyyyyyyyy"
};
