/* XPM */
static char *ae[] = {
/* columns rows colors chars-per-pixel */
"16 10 6 1",
"  c black",
"o c #5A5A5A",
"$ c #009B00",
"* c #59BF5A",
"1 c #CE1126",
"9 c #FEFEFE",
/* pixels */
"1111$$$$$$$$$$$$",
"1111$$$$$$$$$$$$",
"1111$$$$$$$$$$$$",
"1111************",
"1111999999999999",
"1111999999999999",
"1111oooooooooooo",
"1111            ",
"1111            ",
"1111            "
};
