/* XPM */
static char *ba[] = {
/* columns rows colors chars-per-pixel */
"16 10 10 1",
"X c #584D71",
"% c #171796",
"= c #2C2887",
"> c #4545AB",
"6 c #6C6CBE",
"9 c #837677",
"w c #9B8940",
"u c #F7D117",
"a c #E3C020",
"s c #9B9CD4",
/* pixels */
"%%6>wuuuuuuuX%%%",
"%%>69auuuuuuX%%%",
"%%%>69auuuuuX%%%",
"%%%%>69auuuuX%%%",
"%%%%%>69auuuX%%%",
"%%%%%%>69auuX%%%",
"%%%%%%%>69auX%%%",
"%%%%%%%%>69aX%%%",
"%%%%%%%%%>69X%%%",
"%%%%%%%%%%s6=%%%"
};
