/* XPM */
static char *be[] = {
/* columns rows colors chars-per-pixel */
"16 16 5 1",
"  c black",
"o c #EE0100",
"O c #A58F00",
"+ c #F98F00",
"# c #FFE200",
/* pixels */
"     O####+ooooo",
"     O####+ooooo",
"     O####+ooooo",
"     O####+ooooo",
"     O####+ooooo",
"     O####+ooooo",
"     O####+ooooo",
"     O####+ooooo",
"     O####+ooooo",
"     O####+ooooo",
"     O####+ooooo",
"     O####+ooooo",
"     O####+ooooo",
"     O####+ooooo",
"     O####+ooooo",
"     O####+ooooo"
};
