/* XPM */
static char *ca[] = {
/* columns rows colors chars-per-pixel */
"16 10 13 1",
". c red",
"X c #FF0707",
"o c #FF0D0D",
"# c #FF1F1F",
"% c #FF2A2A",
"* c #FF5C5C",
"- c #FF7373",
"> c #FF8383",
"1 c #FFB8B8",
"2 c #FFD5D5",
"8 c #FFE0E0",
"r c #FFF2F2",
"i c gray100",
/* pixels */
"...#8iiiiii8#...",
"...#8iirrii8#...",
"...#8ir>>ri8#...",
"...#881##188#...",
"...#2*#oo#*8#...",
"...#8>X..X>8#...",
"...#8i-%%-i8#...",
"...#8ir22ri8#...",
"...#8iirrii8#...",
"...#8iiiiii8#..."
};
