/* XPM */
static char *ch[] = {
/* columns rows colors chars-per-pixel */
"16 16 4 1",
"+ c #D81E05",
"$ c #E66F60",
"* c #EFA298",
"- c #FFFEFE",
/* pixels */
"++++++++++++++++",
"++++++++++++++++",
"++++++$$$$++++++",
"++++++*--*++++++",
"++++++*--*++++++",
"++++++*--*++++++",
"++$***----***$++",
"++$----------$++",
"++$----------$++",
"++$***----***$++",
"++++++*--*++++++",
"++++++*--*++++++",
"++++++*--*++++++",
"++++++$$$$++++++",
"++++++++++++++++",
"++++++++++++++++"
};
