/* XPM */
static char *ee[] = {
/* columns rows colors chars-per-pixel */
"16 12 7 1",
"  c black",
". c #142945",
"X c #4E4E4E",
"o c #3A74C3",
"O c #3A75C4",
"+ c #FBFBFB",
"@ c gray100",
/* pixels */
"OOOOOOOOOOOOOOOO",
"OOOOOOOOOOOOOOOO",
"OOOOOOOOOOOOOOOO",
"oooooooooooooooo",
"................",
"                ",
"                ",
"XXXXXXXXXXXXXXXX",
"++++++++++++++++",
"@@@@@@@@@@@@@@@@",
"@@@@@@@@@@@@@@@@",
"@@@@@@@@@@@@@@@@"
};
