/* XPM */
static char *gr[] = {
/* columns rows colors chars-per-pixel */
"16 12 6 1",
"X c #071786",
"= c #293696",
", c #4651A4",
"5 c #747CBB",
"d c #BFC3E0",
"x c #DADDEC",
/* pixels */
"XXddXXXXXXXXXXXX",
"XXddX=,,,,,,,,,,",
"==dd=,xxxxxxxxxx",
"xxxxxd,,,,,,,,,,",
",,dd,5dddddddddd",
"XXddX=5555555555",
"55xd555555555555",
"dddddddddddddddd",
",,,,,,,,,,,,,,,,",
"xxxxxxxxxxxxxxxx",
",,,,,,,,,,,,,,,,",
"XXXXXXXXXXXXXXXX"
};
