/* XPM */
static char *it[] = {
/* columns rows colors chars-per-pixel */
"16 12 3 1",
". c #008D46",
"o c #D2232C",
"# c gray100",
/* pixels */
".....######ooooo",
".....######ooooo",
".....######ooooo",
".....######ooooo",
".....######ooooo",
".....######ooooo",
".....######ooooo",
".....######ooooo",
".....######ooooo",
".....######ooooo",
".....######ooooo",
".....######ooooo"
};
