/* XPM */
static char *kp[] = {
/* columns rows colors chars-per-pixel */
"16 10 7 1",
"o c #0552A7",
"% c #9F5C7D",
", c #F11E25",
"5 c #F03D44",
"8 c #F65E63",
"t c #FA898C",
"a c #FCA9AB",
/* pixels */
"oooooooooooooooo",
"oooooooooooooooo",
"%%%%%%%%%%%%%%%%",
",,,,ta8,,,,,,,,,",
",,,8a8a5,,,,,,,,",
",,,8a8a5,,,,,,,,",
",,,,ta8,,,,,,,,,",
"%%%%%%%%%%%%%%%%",
"oooooooooooooooo",
"oooooooooooooooo"
};
