/* XPM */
static char *lv[] = {
/* columns rows colors chars-per-pixel */
"16 10 2 1",
"X c #87002F",
"@ c #E5C8D2",
/* pixels */
"XXXXXXXXXXXXXXXX",
"XXXXXXXXXXXXXXXX",
"XXXXXXXXXXXXXXXX",
"XXXXXXXXXXXXXXXX",
"@@@@@@@@@@@@@@@@",
"@@@@@@@@@@@@@@@@",
"XXXXXXXXXXXXXXXX",
"XXXXXXXXXXXXXXXX",
"XXXXXXXXXXXXXXXX",
"XXXXXXXXXXXXXXXX"
};
