/* XPM */
static char *mao[] = {
/* columns rows colors chars-per-pixel */
"16 10 16 1",
"  c black",
"X c #232323",
"@ c #444444",
"% c #676969",
"* c #D40000",
"- c #D91E1E",
": c #DC2F2F",
"< c #E66868",
"3 c #E97A7A",
"4 c #AC9393",
"5 c #E38E8E",
"6 c #F2AFAF",
"7 c #C3C4C4",
"9 c #F9D2D2",
"0 c #FCECEC",
"w c #F7F8F8",
/* pixels */
"                ",
"@@@@@X          ",
"wwwww7X         ",
"<<<<39%         ",
"***365@         ",
"**:0w4@@@@@@@@@@",
"**-9wwwwwwwwwwww",
"***:<<<<<<<<<<<<",
"****************",
"****************"
};
