/* XPM */
static char *mn[] = {
/* columns rows colors chars-per-pixel */
"16 10 9 1",
"+ c #7C7890",
"$ c #44B1D2",
", c #DC181C",
"0 c #DE291C",
"r c #E2461A",
"y c #E55618",
"s c #EC8315",
"g c #EF9814",
"l c #F2B013",
/* pixels */
",,,,,+$$$$+,,,,,",
",,,,,+$$$$+,,,,,",
",,y0,+$$$$+,,,,,",
",,gr,+$$$$+,,,,,",
",ysy0+$$$$+,,,,,",
"0gggr+$$$$+,,,,,",
"0gglr+$$$$+,,,,,",
",sssr+$$$$+,,,,,",
",,,,,+$$$$+,,,,,",
",,,,,+$$$$+,,,,,"
};
