/* XPM */
static char *ng[] = {
/* columns rows colors chars-per-pixel */
"16 10 2 1",
". c #008751",
"O c gray100",
/* pixels */
".....OOOOOO.....",
".....OOOOOO.....",
".....OOOOOO.....",
".....OOOOOO.....",
".....OOOOOO.....",
".....OOOOOO.....",
".....OOOOOO.....",
".....OOOOOO.....",
".....OOOOOO.....",
".....OOOOOO....."
};
