/* XPM */
static char *nl[] = {
/* columns rows colors chars-per-pixel */
"16 12 3 1",
". c #21468B",
"o c #AE1C28",
"# c gray100",
/* pixels */
"oooooooooooooooo",
"oooooooooooooooo",
"oooooooooooooooo",
"oooooooooooooooo",
"################",
"################",
"################",
"################",
"................",
"................",
"................",
"................"
};
