/* XPM */
static char *pk[] = {
/* columns rows colors chars-per-pixel */
"16 12 17 1",
"O c #006500",
"= c #096C09",
": c #117011",
", c #197419",
"2 c #1F781F",
"6 c #2B802B",
"9 c #338533",
"r c #3A893A",
"t c #408C40",
"y c #469046",
"i c #90BD90",
"p c #A0C6A0",
"a c #A5C9A5",
"d c #BDD8BD",
"g c #CEE2CE",
"h c #E0EDE0",
"k c gray100",
/* pixels */
"kkkh2OOOOOOOOOOO",
"kkkh2OOOOOOOOOOO",
"kkkh2OOO=OOOOOOO",
"kkkh2OO9yOO2=OOO",
"kkkh2O:p6O2a9OOO",
"kkkh2Org,O=9:OOO",
"kkkh6OrhyOOOOOOO",
"kkkh2O=dgt:26OOO",
"kkkh2OO9dhdi6OOO",
"kkkh2OOO:9r:OOOO",
"kkkh2OOOOOOOOOOO",
"kkkh2OOOOOOOOOOO"
};
