/* XPM */
static char *pt[] = {
/* columns rows colors chars-per-pixel */
"16 12 12 1",
". c #006233",
"* c #3A7925",
"- c #7D4027",
", c #99651A",
"2 c #B86B48",
"7 c #DC241F",
"t c #D64A18",
"p c #D37312",
"a c #C3602D",
"g c #808B1D",
"j c #C88C79",
"l c #BBBED1",
/* pixels */
"......-777777777",
"......-777777777",
"......-777777777",
".....*,t77777777",
"....g22ap7777777",
"...*gjl2p7777777",
"...*gjl2p7777777",
"....g,2pp7777777",
".....*,t77777777",
"......-777777777",
"......-777777777",
"......-777777777"
};
