/* XPM */
static char *sa[] = {
/* columns rows colors chars-per-pixel */
"16 12 9 1",
"X c #009530",
"; c #0D9A3B",
"2 c #27A550",
"6 c #39AD5E",
"0 c #41B065",
"t c #4DB56F",
"a c #58BA78",
"f c #65BF82",
"j c #71C48B",
/* pixels */
"XXXXXXXXXXXXXXXX",
"XXXXXXXXXXXXXXXX",
"XXXXXXXXXXXXXXXX",
"XXXX66260606XXXX",
"XXXXajtfftaf;XXX",
"XXXXtfajttt0;XXX",
"XXXX;;;;X;;XXXXX",
"XXXXX;;;;;;XXXXX",
"XXXXX266666XXXXX",
"XXXXXXXXXXXXXXXX",
"XXXXXXXXXXXXXXXX",
"XXXXXXXXXXXXXXXX"
};
