/* XPM */
static char *se[] = {
/* columns rows colors chars-per-pixel */
"16 12 3 1",
". c #3A767B",
"o c #005B99",
"- c #E0C425",
/* pixels */
"ooooo--ooooooooo",
"ooooo--ooooooooo",
"ooooo--ooooooooo",
"ooooo--ooooooooo",
"oooo.--.oooooooo",
"----------------",
"----------------",
"oooo.--.oooooooo",
"ooooo--ooooooooo",
"ooooo--ooooooooo",
"ooooo--ooooooooo",
"ooooo--ooooooooo"
};
