/* XPM */
static char *sn[] = {
/* columns rows colors chars-per-pixel */
"16 12 12 1",
". c #009900",
"O c #50B800",
"@ c #56BB00",
"$ c #FF0100",
"% c #A5DB00",
"* c orange",
"= c #CFF000",
": c #DEF200",
"> c #E8FA00",
", c #F1F900",
"< c #F4FF00",
"2 c yellow",
/* pixels */
".....%2222*$$$$$",
".....%2222*$$$$$",
".....%2222*$$$$$",
".....%2222*$$$$$",
".....%2::2*$$$$$",
".....%:@O=*$$$$$",
".....%,@O>*$$$$$",
".....%2::<*$$$$$",
".....%2222*$$$$$",
".....%2222*$$$$$",
".....%2222*$$$$$",
".....%2222*$$$$$"
};
