/* XPM */
static char *tm[] = {
/* columns rows colors chars-per-pixel */
"16 14 18 1",
"O c #004F00",
"- c #124700",
"3 c #175E17",
"7 c #327132",
"9 c #563101",
"t c #772008",
"i c #4B824B",
"p c #8D0B00",
"h c #841C00",
"z c #9F0001",
"Z c #97200E",
"G c #9A3C07",
"H c #993010",
"P c #AE2A00",
"T c #AA3322",
"W c #994A22",
"~ c #A44C38",
"/ c #C18353",
/* pixels */
"hzzh-OOOOOOOOOOO",
"ZTHh-OOOOOOOOOOO",
"ZWWH-333OOOOOOOO",
"hhZh-37iOOOOOOOO",
"hGGt-3i3OOOOOOOO",
"hhhh-OOOOOOOOOOO",
"htth-OOOOOOOOOOO",
"hhhh-OOOOOOOOOOO",
"h99t-OOOOOOOOOOO",
"Z~GZ-OOOOOOOOOOO",
"W//W-OOOOOOOOOOO",
"GPTG-OOOOOOOOOOO",
"hPPZ-OOOOOOOOOOO",
"pPPh-OOOOOOOOOOO"
};
