/* XPM */
static char *tw[] = {
/* columns rows colors chars-per-pixel */
"16 14 8 1",
"& c #08399C",
"e c #3D66B0",
"y c #547AB8",
"p c #779BC6",
"d c #DE2110",
"f c #C02323",
"z c #A8C1D8",
"b c #F8FBFB",
/* pixels */
"&&&&&&&&&fdddddd",
"&&&&&&&&&fdddddd",
"&&&ypy&&&fdddddd",
"&&ezbze&&fdddddd",
"&&ezbze&&fdddddd",
"&&&ypy&&&fdddddd",
"&&&&&&&&&fdddddd",
"fffffffffddddddd",
"dddddddddddddddd",
"dddddddddddddddd",
"dddddddddddddddd",
"dddddddddddddddd",
"dddddddddddddddd",
"dddddddddddddddd"
};
