/* XPM */
static char *uz[] = {
/* columns rows colors chars-per-pixel */
"16 10 13 1",
"X c #1EB53A",
"o c #7CB675",
"+ c #0797B3",
"# c #0099B5",
"> c #119FB9",
"1 c #28A9C0",
"2 c #32ADC3",
"4 c #6BA6B9",
"6 c #73A9BB",
"7 c #4DB8CB",
"8 c #70C5D5",
"0 c #88B2C1",
"e c #FFFAFC",
/* pixels */
"#+>#############",
"#72#>>##########",
"#81#>>##########",
"4006666444444444",
"eeeeeeeeeeeeeeee",
"eeeeeeeeeeeeeeee",
"oooooooooooooooo",
"XXXXXXXXXXXXXXXX",
"XXXXXXXXXXXXXXXX",
"XXXXXXXXXXXXXXXX"
};
