/* XPM */
static char *vn[] = {
/* columns rows colors chars-per-pixel */
"16 12 8 1",
"O c #CE1126",
"= c #D63523",
"; c #DE5520",
"> c #E6751E",
", c #EA841C",
"< c #EE961B",
"2 c #F6B818",
"4 c #FDD516",
/* pixels */
"OOOOOOOOOOOOOOOO",
"OOOOOOOOOOOOOOOO",
"OOOOOOOOOOOOOOOO",
"OOOOOOO;;OOOOOOO",
"OOOOO==<<==OOOOO",
"OOOOO>2442>OOOOO",
"OOOOOO>44>OOOOOO",
"OOOOOO,<<,OOOOOO",
"OOOOOO;OO;OOOOOO",
"OOOOOOOOOOOOOOOO",
"OOOOOOOOOOOOOOOO",
"OOOOOOOOOOOOOOOO"
};
