/* XPM */
static char *za[] = {
/* columns rows colors chars-per-pixel */
"16 12 40 1",
"  c black",
"O c #241902",
"$ c #02337F",
"& c #007A57",
"6 c #493205",
"7 c #5A3F06",
"8 c #193883",
"9 c #16438A",
"0 c #3E639E",
"w c #5B7CAD",
"t c #148154",
"a c #2E884E",
"s c #3D8B49",
"d c #259071",
"j c #6D963C",
"l c #5A9241",
"x c #4AA388",
"b c #67B09C",
"M c #7EB6A4",
"V c #8F670C",
"Z c #9D740F",
"G c #E23D28",
"H c #E44632",
"J c #EA5F4E",
"L c #ED7061",
"U c #AF8F1A",
"T c #A29E2B",
"R c #B2A126",
"E c #84BFAF",
"Q c #8AA1C4",
"! c #A7BDD0",
"^ c #9AC6B7",
"/ c #ADCECD",
") c #B1D9CF",
"` c #F2968B",
"' c #EBB6AE",
"] c #CBD8CF",
"[ c #D0CEC5",
"{ c #D6DCEB",
"} c #FCCAC5",
/* pixels */
"&&&)}GGGGGGGGGGG",
"&&&x]`HGGGGGGGGG",
"lt&&d^'JGGGGGGGG",
"ZTa&&&b[`LLLLLLL",
" 7Ujt&&dMMMMMMMM",
"  OZTa&&&&&&&&&&",
"  OVRa&&&&&&&&&&",
" 6Ujt&&dbbbbbbbb",
"VTs&&&x/Qwwwwwww",
"jt&&dE!0$$$$$$$$",
"&&&d)Q9$$$$$$$$$",
"&&&^{8$$$$$$$$$$"
};
