/* XPM */
static char *fi[] = {
/* columns rows colors chars-per-pixel */
"128 128 29 1",
"  c black",
". c #00337F",
"X c #00347F",
"o c #003480",
"O c #003580",
"+ c #073B83",
"@ c #17478B",
"# c #18488C",
"$ c #245292",
"% c #275493",
"& c #285594",
"* c #295594",
"= c #2C5896",
"- c #2D5896",
"; c #4D72A6",
": c #7C97BE",
"> c #7D98BF",
", c #8BA3C5",
"< c #8EA5C7",
"1 c #8FA6C8",
"2 c #90A6C8",
"3 c #CAD5E5",
"4 c #E1E7F0",
"5 c #E1E8F0",
"6 c #E5EAF2",
"7 c #E7EBF3",
"8 c #E8ECF3",
"9 c gray100",
"0 c None",
/* pixels */
"00000000000000000000000000000000000000000000000000000000000000000000000000000000000000000000000000000000000000000000000000000000",
"00000000000000000000000000000000000000000000000000000000000000000000000000000000000000000000000000000000000000000000000000000000",
"00000000000000000000000000000000000000000000000000000000000000000000000000000000000000000000000000000000000000000000000000000000",
"00000000000000000000000000000000000000000000000000000000000000000000000000000000000000000000000000000000000000000000000000000000",
"00000000000000000000000000000000000000000000000000000000000000000000000000000000000000000000000000000000000000000000000000000000",
"00000000000000000000000000000000000000000000000000000000000000000000000000000000000000000000000000000000000000000000000000000000",
"00000000000000000000000000000000000000000000000000000000000000000000000000000000000000000000000000000000000000000000000000000000",
"00000000000000000000000000000000000000000000000000000000000000000000000000000000000000000000000000000000000000000000000000000000",
"00000000000000000000000000000000000000000000000000000000000000000000000000000000000000000000000000000000000000000000000000000000",
"00000000000000000000000000000000000000000000000000000000000000000000000000000000000000000000000000000000000000000000000000000000",
"00000000000000000000000000000000000000000000000000000000000000000000000000000000000000000000000000000000000000000000000000000000",
"00000000000000000000000000000000000000000000000000000000000000000000000000000000000000000000000000000000000000000000000000000000",
"00000000000000000000000000000000000000000000000000000000000000000000000000000000000000000000000000000000000000000000000000000000",
"00000000000000000000000000000000000000000000000000000000000000000000000000000000000000000000000000000000000000000000000000000000",
"00000000000000000000000000000000000000000000000000000000000000000000000000000000000000000000000000000000000000000000000000000000",
"00000000000000000000000000000000000000000000000000000000000000000000000000000000000000000000000000000000000000000000000000000000",
"00000000000000000000000000000000000000000000000000000000000000000000000000000000000000000000000000000000000000000000000000000000",
"00000000000000000000000000000000000000000000000000000000000000000000000000000000000000000000000000000000000000000000000000000000",
"00000000000000000000000000000000000000000000000000000000000000000000000000000000000000000000000000000000000000000000000000000000",
"00000000000000000000000000000000000000000000000000000000000000000000000000000000000000000000000000000000000000000000000000000000",
"00000000000000000000000000000000000000000000000000000000000000000000000000000000000000000000000000000000000000000000000000000000",
"00000000000000000000000000000000000000000000000000000000000000000000000000000000000000000000000000000000000000000000000000000000",
"00000000000000000000000000000000000000000000000000000000000000000000000000000000000000000000000000000000000000000000000000000000",
"00000000000000000000000000000000000000000000000000000000000000000000000000000000000000000000000000000000000000000000000000000000",
"99999999999999999999999999999999999,OOOOOOOOOOOOOOOOOOO.&49999999999999999999999999999999999999999999999999999999999999999999999",
"99999999999999999999999999999999999,OOOOOOOOOOOOOOOOOOO.&49999999999999999999999999999999999999999999999999999999999999999999999",
"99999999999999999999999999999999999,OOOOOOOOOOOOOOOOOOO.&49999999999999999999999999999999999999999999999999999999999999999999999",
"99999999999999999999999999999999999,OOOOOOOOOOOOOOOOOOO.&49999999999999999999999999999999999999999999999999999999999999999999999",
"99999999999999999999999999999999999,OOOOOOOOOOOOOOOOOOO.&49999999999999999999999999999999999999999999999999999999999999999999999",
"99999999999999999999999999999999999,OOOOOOOOOOOOOOOOOOO.&49999999999999999999999999999999999999999999999999999999999999999999999",
"99999999999999999999999999999999999,OOOOOOOOOOOOOOOOOOO.&49999999999999999999999999999999999999999999999999999999999999999999999",
"99999999999999999999999999999999999,OOOOOOOOOOOOOOOOOOO.&49999999999999999999999999999999999999999999999999999999999999999999999",
"99999999999999999999999999999999999,OOOOOOOOOOOOOOOOOOO.*49999999999999999999999999999999999999999999999999999999999999999999999",
"99999999999999999999999999999999999,OOOOOOOOOOOOOOOOOOO.*49999999999999999999999999999999999999999999999999999999999999999999999",
"99999999999999999999999999999999999,OOOOOOOOOOOOOOOOOOO.&49999999999999999999999999999999999999999999999999999999999999999999999",
"99999999999999999999999999999999999,OOOOOOOOOOOOOOOOOOO.&49999999999999999999999999999999999999999999999999999999999999999999999",
"99999999999999999999999999999999999,OOOOOOOOOOOOOOOOOOO.&49999999999999999999999999999999999999999999999999999999999999999999999",
"99999999999999999999999999999999999,OOOOOOOOOOOOOOOOOOO.&49999999999999999999999999999999999999999999999999999999999999999999999",
"99999999999999999999999999999999999,OOOOOOOOOOOOOOOOOOO.&49999999999999999999999999999999999999999999999999999999999999999999999",
"99999999999999999999999999999999999,OOOOOOOOOOOOOOOOOOO.&49999999999999999999999999999999999999999999999999999999999999999999999",
"99999999999999999999999999999999999,OOOOOOOOOOOOOOOOOOO.&49999999999999999999999999999999999999999999999999999999999999999999999",
"99999999999999999999999999999999999,OOOOOOOOOOOOOOOOOOO.&49999999999999999999999999999999999999999999999999999999999999999999999",
"99999999999999999999999999999999999,OOOOOOOOOOOOOOOOOOO.&49999999999999999999999999999999999999999999999999999999999999999999999",
"99999999999999999999999999999999999,OOOOOOOOOOOOOOOOOOO.&49999999999999999999999999999999999999999999999999999999999999999999999",
"99999999999999999999999999999999999,OOOOOOOOOOOOOOOOOOO.&49999999999999999999999999999999999999999999999999999999999999999999999",
"99999999999999999999999999999999999,OOOOOOOOOOOOOOOOOOO.&49999999999999999999999999999999999999999999999999999999999999999999999",
"99999999999999999999999999999999999,OOOOOOOOOOOOOOOOOOO.&49999999999999999999999999999999999999999999999999999999999999999999999",
"99999999999999999999999999999999999,OOOOOOOOOOOOOOOOOOO.&49999999999999999999999999999999999999999999999999999999999999999999999",
"99999999999999999999999999999999999,OOOOOOOOOOOOOOOOOOO.&49999999999999999999999999999999999999999999999999999999999999999999999",
"99999999999999999999999999999999999,OOOOOOOOOOOOOOOOOOO.&49999999999999999999999999999999999999999999999999999999999999999999999",
"99999999999999999999999999999999999,OOOOOOOOOOOOOOOOOOO.*49999999999999999999999999999999999999999999999999999999999999999999999",
"99999999999999999999999999999999999,OOOOOOOOOOOOOOOOOOO.*49999999999999999999999999999999999999999999999999999999999999999999999",
"99999999999999999999999999999999999,OOOOOOOOOOOOOOOOOOO.*59999999999999999999999999999999999999999999999999999999999999999999999",
"<<<<<<<<<<<<<<<<<<<<<<<<<<<<<<<<<<2;OOOOOOOOOOOOOOOOOOOX@>1<<<<<<<<<<<<<<<<<<<<<<<<<<<<<<<<<<<<<<<<<<<<<<<<<<<<<<<<<<<<<<<<<<<<<",
"OOOOOOOOOOOOOOOOOOOOOOOOOOOOOOOOOOOOOOOOOOOOOOOOOOOOOOOOOOOOOOOOOOOOOOOOOOOOOOOOOOOOOOOOOOOOOOOOOOOOOOOOOOOOOOOOOOOOOOOOOOOOOOOO",
"OOOOOOOOOOOOOOOOOOOOOOOOOOOOOOOOOOOOOOOOOOOOOOOOOOOOOOOOOOOOOOOOOOOOOOOOOOOOOOOOOOOOOOOOOOOOOOOOOOOOOOOOOOOOOOOOOOOOOOOOOOOOOOOO",
"OOOOOOOOOOOOOOOOOOOOOOOOOOOOOOOOOOOOOOOOOOOOOOOOOOOOOOOOOOOOOOOOOOOOOOOOOOOOOOOOOOOOOOOOOOOOOOOOOOOOOOOOOOOOOOOOOOOOOOOOOOOOOOOO",
"OOOOOOOOOOOOOOOOOOOOOOOOOOOOOOOOOOOOOOOOOOOOOOOOOOOOOOOOOOOOOOOOOOOOOOOOOOOOOOOOOOOOOOOOOOOOOOOOOOOOOOOOOOOOOOOOOOOOOOOOOOOOOOOO",
"OOOOOOOOOOOOOOOOOOOOOOOOOOOOOOOOOOOOOOOOOOOOOOOOOOOOOOOOOOOOOOOOOOOOOOOOOOOOOOOOOOOOOOOOOOOOOOOOOOOOOOOOOOOOOOOOOOOOOOOOOOOOOOOO",
"OOOOOOOOOOOOOOOOOOOOOOOOOOOOOOOOOOOOOOOOOOOOOOOOOOOOOOOOOOOOOOOOOOOOOOOOOOOOOOOOOOOOOOOOOOOOOOOOOOOOOOOOOOOOOOOOOOOOOOOOOOOOOOOO",
"OOOOOOOOOOOOOOOOOOOOOOOOOOOOOOOOOOOOOOOOOOOOOOOOOOOOOOOOOOOOOOOOOOOOOOOOOOOOOOOOOOOOOOOOOOOOOOOOOOOOOOOOOOOOOOOOOOOOOOOOOOOOOOOO",
"OOOOOOOOOOOOOOOOOOOOOOOOOOOOOOOOOOOOOOOOOOOOOOOOOOOOOOOOOOOOOOOOOOOOOOOOOOOOOOOOOOOOOOOOOOOOOOOOOOOOOOOOOOOOOOOOOOOOOOOOOOOOOOOO",
"OOOOOOOOOOOOOOOOOOOOOOOOOOOOOOOOOOOOOOOOOOOOOOOOOOOOOOOOOOOOOOOOOOOOOOOOOOOOOOOOOOOOOOOOOOOOOOOOOOOOOOOOOOOOOOOOOOOOOOOOOOOOOOOO",
"OOOOOOOOOOOOOOOOOOOOOOOOOOOOOOOOOOOOOOOOOOOOOOOOOOOOOOOOOOOOOOOOOOOOOOOOOOOOOOOOOOOOOOOOOOOOOOOOOOOOOOOOOOOOOOOOOOOOOOOOOOOOOOOO",
"OOOOOOOOOOOOOOOOOOOOOOOOOOOOOOOOOOOOOOOOOOOOOOOOOOOOOOOOOOOOOOOOOOOOOOOOOOOOOOOOOOOOOOOOOOOOOOOOOOOOOOOOOOOOOOOOOOOOOOOOOOOOOOOO",
"OOOOOOOOOOOOOOOOOOOOOOOOOOOOOOOOOOOOOOOOOOOOOOOOOOOOOOOOOOOOOOOOOOOOOOOOOOOOOOOOOOOOOOOOOOOOOOOOOOOOOOOOOOOOOOOOOOOOOOOOOOOOOOOO",
"OOOOOOOOOOOOOOOOOOOOOOOOOOOOOOOOOOOOOOOOOOOOOOOOOOOOOOOOOOOOOOOOOOOOOOOOOOOOOOOOOOOOOOOOOOOOOOOOOOOOOOOOOOOOOOOOOOOOOOOOOOOOOOOO",
"OOOOOOOOOOOOOOOOOOOOOOOOOOOOOOOOOOOOOOOOOOOOOOOOOOOOOOOOOOOOOOOOOOOOOOOOOOOOOOOOOOOOOOOOOOOOOOOOOOOOOOOOOOOOOOOOOOOOOOOOOOOOOOOO",
"OOOOOOOOOOOOOOOOOOOOOOOOOOOOOOOOOOOOOOOOOOOOOOOOOOOOOOOOOOOOOOOOOOOOOOOOOOOOOOOOOOOOOOOOOOOOOOOOOOOOOOOOOOOOOOOOOOOOOOOOOOOOOOOO",
"OOOOOOOOOOOOOOOOOOOOOOOOOOOOOOOOOOOOOOOOOOOOOOOOOOOOOOOOOOOOOOOOOOOOOOOOOOOOOOOOOOOOOOOOOOOOOOOOOOOOOOOOOOOOOOOOOOOOOOOOOOOOOOOO",
"OOOOOOOOOOOOOOOOOOOOOOOOOOOOOOOOOOOOOOOOOOOOOOOOOOOOOOOOOOOOOOOOOOOOOOOOOOOOOOOOOOOOOOOOOOOOOOOOOOOOOOOOOOOOOOOOOOOOOOOOOOOOOOOO",
"OOOOOOOOOOOOOOOOOOOOOOOOOOOOOOOOOOOOOOOOOOOOOOOOOOOOOOOOOOOOOOOOOOOOOOOOOOOOOOOOOOOOOOOOOOOOOOOOOOOOOOOOOOOOOOOOOOOOOOOOOOOOOOOO",
"OOOOOOOOOOOOOOOOOOOOOOOOOOOOOOOOOOOOOOOOOOOOOOOOOOOOOOOOOOOOOOOOOOOOOOOOOOOOOOOOOOOOOOOOOOOOOOOOOOOOOOOOOOOOOOOOOOOOOOOOOOOOOOOO",
"...................................OOOOOOOOOOOOOOOOOOOOOO.......................................................................",
"===================================#OOOOOOOOOOOOOOOOOOOO+%======================================================================",
"66666666666666666666666666666666668:OOOOOOOOOOOOOOOOOOO.$36666666666666666666666666666666666666666666666666666666666666666666666",
"99999999999999999999999999999999999,OOOOOOOOOOOOOOOOOOO.*59999999999999999999999999999999999999999999999999999999999999999999999",
"99999999999999999999999999999999999,OOOOOOOOOOOOOOOOOOO.&49999999999999999999999999999999999999999999999999999999999999999999999",
"99999999999999999999999999999999999,OOOOOOOOOOOOOOOOOOO.&49999999999999999999999999999999999999999999999999999999999999999999999",
"99999999999999999999999999999999999,OOOOOOOOOOOOOOOOOOO.&49999999999999999999999999999999999999999999999999999999999999999999999",
"99999999999999999999999999999999999,OOOOOOOOOOOOOOOOOOO.*49999999999999999999999999999999999999999999999999999999999999999999999",
"99999999999999999999999999999999999,OOOOOOOOOOOOOOOOOOO.*49999999999999999999999999999999999999999999999999999999999999999999999",
"99999999999999999999999999999999999,OOOOOOOOOOOOOOOOOOO.&49999999999999999999999999999999999999999999999999999999999999999999999",
"99999999999999999999999999999999999,OOOOOOOOOOOOOOOOOOO.&49999999999999999999999999999999999999999999999999999999999999999999999",
"99999999999999999999999999999999999,OOOOOOOOOOOOOOOOOOO.&49999999999999999999999999999999999999999999999999999999999999999999999",
"99999999999999999999999999999999999,OOOOOOOOOOOOOOOOOOO.&49999999999999999999999999999999999999999999999999999999999999999999999",
"99999999999999999999999999999999999,OOOOOOOOOOOOOOOOOOO.&49999999999999999999999999999999999999999999999999999999999999999999999",
"99999999999999999999999999999999999,OOOOOOOOOOOOOOOOOOO.&49999999999999999999999999999999999999999999999999999999999999999999999",
"99999999999999999999999999999999999,OOOOOOOOOOOOOOOOOOO.&49999999999999999999999999999999999999999999999999999999999999999999999",
"99999999999999999999999999999999999,OOOOOOOOOOOOOOOOOOO.&49999999999999999999999999999999999999999999999999999999999999999999999",
"99999999999999999999999999999999999,OOOOOOOOOOOOOOOOOOO.&49999999999999999999999999999999999999999999999999999999999999999999999",
"99999999999999999999999999999999999,OOOOOOOOOOOOOOOOOOO.&49999999999999999999999999999999999999999999999999999999999999999999999",
"99999999999999999999999999999999999,OOOOOOOOOOOOOOOOOOO.&49999999999999999999999999999999999999999999999999999999999999999999999",
"99999999999999999999999999999999999,OOOOOOOOOOOOOOOOOOO.&49999999999999999999999999999999999999999999999999999999999999999999999",
"99999999999999999999999999999999999,OOOOOOOOOOOOOOOOOOO.&49999999999999999999999999999999999999999999999999999999999999999999999",
"99999999999999999999999999999999999,OOOOOOOOOOOOOOOOOOO.&49999999999999999999999999999999999999999999999999999999999999999999999",
"99999999999999999999999999999999999,OOOOOOOOOOOOOOOOOOO.&49999999999999999999999999999999999999999999999999999999999999999999999",
"99999999999999999999999999999999999,OOOOOOOOOOOOOOOOOOO.&49999999999999999999999999999999999999999999999999999999999999999999999",
"99999999999999999999999999999999999,OOOOOOOOOOOOOOOOOOO.&49999999999999999999999999999999999999999999999999999999999999999999999",
"99999999999999999999999999999999999,OOOOOOOOOOOOOOOOOOO.&49999999999999999999999999999999999999999999999999999999999999999999999",
"99999999999999999999999999999999999,OOOOOOOOOOOOOOOOOOO.&49999999999999999999999999999999999999999999999999999999999999999999999",
"99999999999999999999999999999999999,OOOOOOOOOOOOOOOOOOO.&49999999999999999999999999999999999999999999999999999999999999999999999",
"99999999999999999999999999999999999,OOOOOOOOOOOOOOOOOOO.*49999999999999999999999999999999999999999999999999999999999999999999999",
"99999999999999999999999999999999999,OOOOOOOOOOOOOOOOOOO.*49999999999999999999999999999999999999999999999999999999999999999999999",
"00000000000000000000000000000000000000000000000000000000000000000000000000000000000000000000000000000000000000000000000000000000",
"00000000000000000000000000000000000000000000000000000000000000000000000000000000000000000000000000000000000000000000000000000000",
"00000000000000000000000000000000000000000000000000000000000000000000000000000000000000000000000000000000000000000000000000000000",
"00000000000000000000000000000000000000000000000000000000000000000000000000000000000000000000000000000000000000000000000000000000",
"00000000000000000000000000000000000000000000000000000000000000000000000000000000000000000000000000000000000000000000000000000000",
"00000000000000000000000000000000000000000000000000000000000000000000000000000000000000000000000000000000000000000000000000000000",
"00000000000000000000000000000000000000000000000000000000000000000000000000000000000000000000000000000000000000000000000000000000",
"00000000000000000000000000000000000000000000000000000000000000000000000000000000000000000000000000000000000000000000000000000000",
"00000000000000000000000000000000000000000000000000000000000000000000000000000000000000000000000000000000000000000000000000000000",
"00000000000000000000000000000000000000000000000000000000000000000000000000000000000000000000000000000000000000000000000000000000",
"00000000000000000000000000000000000000000000000000000000000000000000000000000000000000000000000000000000000000000000000000000000",
"00000000000000000000000000000000000000000000000000000000000000000000000000000000000000000000000000000000000000000000000000000000",
"00000000000000000000000000000000000000000000000000000000000000000000000000000000000000000000000000000000000000000000000000000000",
"00000000000000000000000000000000000000000000000000000000000000000000000000000000000000000000000000000000000000000000000000000000",
"00000000000000000000000000000000000000000000000000000000000000000000000000000000000000000000000000000000000000000000000000000000",
"00000000000000000000000000000000000000000000000000000000000000000000000000000000000000000000000000000000000000000000000000000000",
"00000000000000000000000000000000000000000000000000000000000000000000000000000000000000000000000000000000000000000000000000000000",
"00000000000000000000000000000000000000000000000000000000000000000000000000000000000000000000000000000000000000000000000000000000",
"00000000000000000000000000000000000000000000000000000000000000000000000000000000000000000000000000000000000000000000000000000000",
"00000000000000000000000000000000000000000000000000000000000000000000000000000000000000000000000000000000000000000000000000000000",
"00000000000000000000000000000000000000000000000000000000000000000000000000000000000000000000000000000000000000000000000000000000",
"00000000000000000000000000000000000000000000000000000000000000000000000000000000000000000000000000000000000000000000000000000000",
"00000000000000000000000000000000000000000000000000000000000000000000000000000000000000000000000000000000000000000000000000000000",
"00000000000000000000000000000000000000000000000000000000000000000000000000000000000000000000000000000000000000000000000000000000"
};
