/* XPM */
static char *tm[] = {
/* columns rows colors chars-per-pixel */
"128 128 257 2",
"   c black",
".  c #1C2E00",
"X  c #1E3E00",
"o  c #391C00",
"O  c #2A2A01",
"+  c #293902",
"@  c #382902",
"#  c #383805",
"$  c #3E3F12",
"%  c #004E00",
"&  c #094D00",
"*  c #0D4700",
"=  c #045103",
"-  c #0C5200",
";  c #0B550A",
":  c #0E580E",
">  c #174502",
",  c #145402",
"<  c #155C15",
"1  c #1D621D",
"2  c #234401",
"3  c #264A00",
"4  c #294B05",
"5  c #2B5601",
"6  c #384A01",
"7  c #3A4716",
"8  c #375F01",
"9  c #305819",
"0  c #3D5C27",
"q  c #336109",
"w  c #266926",
"e  c #376A2A",
"r  c #367436",
"t  c #3F7B40",
"y  c #451A00",
"u  c #5D1B00",
"i  c #551700",
"p  c #5A0F00",
"a  c #482801",
"s  c #433509",
"d  c #542302",
"f  c #5C2200",
"g  c #542B04",
"h  c #523406",
"j  c #6A0C00",
"k  c #641500",
"l  c #621B01",
"z  c #6C1500",
"x  c #6E1A00",
"c  c #740B00",
"v  c #7C0400",
"b  c #7B0D00",
"n  c #750600",
"m  c #731400",
"M  c #711D00",
"N  c #7A1700",
"B  c #692602",
"V  c #683800",
"C  c #7B2D00",
"Z  c #762601",
"A  c #792814",
"S  c #7D3300",
"D  c #753701",
"F  c #783D1E",
"G  c #464702",
"H  c #475700",
"J  c #594600",
"K  c #575A00",
"L  c #4A4814",
"P  c #555E2F",
"I  c #456403",
"U  c #556505",
"Y  c #694404",
"T  c #784706",
"R  c #75530F",
"E  c #66552D",
"W  c #636701",
"Q  c #746A00",
"!  c #437B42",
"~  c #577A47",
"^  c #5D833F",
"/  c #6C8635",
"(  c #49824A",
")  c #578A57",
"_  c #5D9461",
"`  c #7D8446",
"'  c #659565",
"]  c #719C71",
"[  c #7AA37A",
"{  c #840300",
"}  c #840A01",
"|  c #8C0400",
" . c #8C0B01",
".. c #871604",
"X. c #861B10",
"o. c #950100",
"O. c #940B00",
"+. c #980000",
"@. c #9D0C00",
"#. c #980A0A",
"$. c #931500",
"%. c #941B00",
"&. c #9B1200",
"*. c #9B1900",
"=. c #981715",
"-. c #9E0F10",
";. c #842802",
":. c #812818",
">. c #843A04",
",. c #982603",
"<. c #9F231A",
"1. c #983803",
"2. c #983817",
"3. c #982622",
"4. c #A10E00",
"5. c #A21300",
"6. c #A51A00",
"7. c #A81C00",
"8. c #AA2300",
"9. c #AE2B00",
"0. c #A52700",
"q. c #A53D00",
"w. c #A73400",
"e. c #B02D00",
"r. c #B33400",
"t. c #B63B00",
"y. c #B93D00",
"u. c #B33908",
"i. c #AE3413",
"p. c #AA3A3B",
"a. c #AA2D27",
"s. c #864400",
"d. c #984300",
"f. c #945800",
"g. c #864F0E",
"h. c #894D3B",
"j. c #944A2C",
"k. c #9A6605",
"l. c #947800",
"z. c #946D0A",
"x. c #8E6F36",
"c. c #A74700",
"v. c #BB4400",
"b. c #BD4B00",
"n. c #B54401",
"m. c #BB4E19",
"M. c #B85500",
"N. c #B9531E",
"B. c #B45134",
"V. c #A46C05",
"C. c #B97208",
"Z. c #AE6E05",
"A. c #AD733A",
"S. c #995648",
"D. c #967053",
"F. c #967965",
"G. c #AC4A47",
"H. c #B54846",
"J. c #B85758",
"K. c #B75948",
"L. c #BD704B",
"P. c #BA6F67",
"I. c #C04E00",
"U. c #C25300",
"Y. c #C65B00",
"T. c #C95D00",
"R. c #C85B08",
"E. c #C35B28",
"W. c #CB6300",
"Q. c #CE6A00",
"!. c #C86707",
"~. c #C36513",
"^. c #CA7319",
"/. c #D06E00",
"(. c #D37300",
"). c #D67A00",
"_. c #D97E00",
"`. c #D27508",
"'. c #C76A2D",
"]. c #CA7648",
"[. c #C57055",
"{. c #C67170",
"}. c #BA860D",
"|. c #B7AA00",
" X c #A48A34",
".X c #9D8A44",
"XX c #9D8873",
"oX c #A78B4B",
"OX c #AA9A7B",
"+X c #BBA465",
"@X c #CA8904",
"#X c #DB8300",
"$X c #DE8A00",
"%X c #D98814",
"&X c #D28F33",
"*X c #D1A131",
"=X c #E18D00",
"-X c #E49603",
";X c #E39813",
":X c #E39F28",
">X c #E5A218",
",X c #E3BE00",
"<X c #E4A227",
"1X c #E6A937",
"2X c #EAB03A",
"3X c #D48655",
"4X c #D99158",
"5X c #D58F4B",
"6X c #CC8378",
"7X c #D08879",
"8X c #D09368",
"9X c #DDA577",
"0X c #DEBB70",
"qX c #E7B253",
"wX c #E3B172",
"eX c #D1AC51",
"rX c #E2C17D",
"tX c #87AC87",
"yX c #8DB08D",
"uX c #98B898",
"iX c #8FB290",
"pX c #B4AB92",
"aX c #A9C4A9",
"sX c #B4CBB5",
"dX c #BDD1BD",
"fX c #CE8889",
"gX c #D28F8D",
"hX c #D59A9B",
"jX c #D6968C",
"kX c #DCA896",
"lX c #D9B190",
"zX c #DBA7A6",
"xX c #DFB0B1",
"cX c #E3B694",
"vX c #E4B9A2",
"bX c #E2B7B8",
"nX c #DFC284",
"mX c #CACABC",
"MX c #E5C885",
"NX c #EACC95",
"BX c #F2DEBB",
"VX c #ECD2AD",
"CX c #F1E1BF",
"ZX c #CAD8C8",
"AX c #D4DACA",
"SX c #D6E2D5",
"DX c #E9C8C8",
"FX c #EED4D1",
"GX c #F6EAD9",
"HX c #F6E8CD",
"JX c #EDF2ED",
"KX c #F6E8E5",
"LX c #FAF4E8",
"PX c #FEFEFE",
"IX c #FBF8F5",
"UX c #E4ECE4",
"YX c None",
/* pixels */
"YXYXYXYXYXYXYXYXYXYXYXYXYXYXYXYXYXYXYXYXYXYXYXYXYXYXYXYXYXYXYXYXYXYXYXYXYXYXYXYXYXYXYXYXYXYXYXYXYXYXYXYXYXYXYXYXYXYXYXYXYXYXYXYXYXYXYXYXYXYXYXYXYXYXYXYXYXYXYXYXYXYXYXYXYXYXYXYXYXYXYXYXYXYXYXYXYXYXYXYXYXYXYXYXYXYXYXYXYXYXYXYXYXYXYXYXYXYXYXYXYXYXYXYXYXYXYXYX",
"YXYXYXYXYXYXYXYXYXYXYXYXYXYXYXYXYXYXYXYXYXYXYXYXYXYXYXYXYXYXYXYXYXYXYXYXYXYXYXYXYXYXYXYXYXYXYXYXYXYXYXYXYXYXYXYXYXYXYXYXYXYXYXYXYXYXYXYXYXYXYXYXYXYXYXYXYXYXYXYXYXYXYXYXYXYXYXYXYXYXYXYXYXYXYXYXYXYXYXYXYXYXYXYXYXYXYXYXYXYXYXYXYXYXYXYXYXYXYXYXYXYXYXYXYXYXYXYX",
"YXYXYXYXYXYXYXYXYXYXYXYXYXYXYXYXYXYXYXYXYXYXYXYXYXYXYXYXYXYXYXYXYXYXYXYXYXYXYXYXYXYXYXYXYXYXYXYXYXYXYXYXYXYXYXYXYXYXYXYXYXYXYXYXYXYXYXYXYXYXYXYXYXYXYXYXYXYXYXYXYXYXYXYXYXYXYXYXYXYXYXYXYXYXYXYXYXYXYXYXYXYXYXYXYXYXYXYXYXYXYXYXYXYXYXYXYXYXYXYXYXYXYXYXYXYXYXYX",
"YXYXYXYXYXYXYXYXYXYXYXYXYXYXYXYXYXYXYXYXYXYXYXYXYXYXYXYXYXYXYXYXYXYXYXYXYXYXYXYXYXYXYXYXYXYXYXYXYXYXYXYXYXYXYXYXYXYXYXYXYXYXYXYXYXYXYXYXYXYXYXYXYXYXYXYXYXYXYXYXYXYXYXYXYXYXYXYXYXYXYXYXYXYXYXYXYXYXYXYXYXYXYXYXYXYXYXYXYXYXYXYXYXYXYXYXYXYXYXYXYXYXYXYXYXYXYXYX",
"YXYXYXYXYXYXYXYXYXYXYXYXYXYXYXYXYXYXYXYXYXYXYXYXYXYXYXYXYXYXYXYXYXYXYXYXYXYXYXYXYXYXYXYXYXYXYXYXYXYXYXYXYXYXYXYXYXYXYXYXYXYXYXYXYXYXYXYXYXYXYXYXYXYXYXYXYXYXYXYXYXYXYXYXYXYXYXYXYXYXYXYXYXYXYXYXYXYXYXYXYXYXYXYXYXYXYXYXYXYXYXYXYXYXYXYXYXYXYXYXYXYXYXYXYXYXYXYX",
"YXYXYXYXYXYXYXYXYXYXYXYXYXYXYXYXYXYXYXYXYXYXYXYXYXYXYXYXYXYXYXYXYXYXYXYXYXYXYXYXYXYXYXYXYXYXYXYXYXYXYXYXYXYXYXYXYXYXYXYXYXYXYXYXYXYXYXYXYXYXYXYXYXYXYXYXYXYXYXYXYXYXYXYXYXYXYXYXYXYXYXYXYXYXYXYXYXYXYXYXYXYXYXYXYXYXYXYXYXYXYXYXYXYXYXYXYXYXYXYXYXYXYXYXYXYXYXYX",
"YXYXYXYXYXYXYXYXYXYXYXYXYXYXYXYXYXYXYXYXYXYXYXYXYXYXYXYXYXYXYXYXYXYXYXYXYXYXYXYXYXYXYXYXYXYXYXYXYXYXYXYXYXYXYXYXYXYXYXYXYXYXYXYXYXYXYXYXYXYXYXYXYXYXYXYXYXYXYXYXYXYXYXYXYXYXYXYXYXYXYXYXYXYXYXYXYXYXYXYXYXYXYXYXYXYXYXYXYXYXYXYXYXYXYXYXYXYXYXYXYXYXYXYXYXYXYXYX",
"YXYXYXYXYXYXYXYXYXYXYXYXYXYXYXYXYXYXYXYXYXYXYXYXYXYXYXYXYXYXYXYXYXYXYXYXYXYXYXYXYXYXYXYXYXYXYXYXYXYXYXYXYXYXYXYXYXYXYXYXYXYXYXYXYXYXYXYXYXYXYXYXYXYXYXYXYXYXYXYXYXYXYXYXYXYXYXYXYXYXYXYXYXYXYXYXYXYXYXYXYXYXYXYXYXYXYXYXYXYXYXYXYXYXYXYXYXYXYXYXYXYXYXYXYXYXYXYX",
"YXYXYXYXYXYXYXYXYXYXYXYXYXYXYXYXYXYXYXYXYXYXYXYXYXYXYXYXYXYXYXYXYXYXYXYXYXYXYXYXYXYXYXYXYXYXYXYXYXYXYXYXYXYXYXYXYXYXYXYXYXYXYXYXYXYXYXYXYXYXYXYXYXYXYXYXYXYXYXYXYXYXYXYXYXYXYXYXYXYXYXYXYXYXYXYXYXYXYXYXYXYXYXYXYXYXYXYXYXYXYXYXYXYXYXYXYXYXYXYXYXYXYXYXYXYXYXYX",
"YXYXYXYXYXYXYXYXYXYXYXYXYXYXYXYXYXYXYXYXYXYXYXYXYXYXYXYXYXYXYXYXYXYXYXYXYXYXYXYXYXYXYXYXYXYXYXYXYXYXYXYXYXYXYXYXYXYXYXYXYXYXYXYXYXYXYXYXYXYXYXYXYXYXYXYXYXYXYXYXYXYXYXYXYXYXYXYXYXYXYXYXYXYXYXYXYXYXYXYXYXYXYXYXYXYXYXYXYXYXYXYXYXYXYXYXYXYXYXYXYXYXYXYXYXYXYXYX",
"YXYXYXYXYXYXYXYXYXYXYXYXYXYXYXYXYXYXYXYXYXYXYXYXYXYXYXYXYXYXYXYXYXYXYXYXYXYXYXYXYXYXYXYXYXYXYXYXYXYXYXYXYXYXYXYXYXYXYXYXYXYXYXYXYXYXYXYXYXYXYXYXYXYXYXYXYXYXYXYXYXYXYXYXYXYXYXYXYXYXYXYXYXYXYXYXYXYXYXYXYXYXYXYXYXYXYXYXYXYXYXYXYXYXYXYXYXYXYXYXYXYXYXYXYXYXYXYX",
"YXYXYXYXYXYXYXYXYXYXYXYXYXYXYXYXYXYXYXYXYXYXYXYXYXYXYXYXYXYXYXYXYXYXYXYXYXYXYXYXYXYXYXYXYXYXYXYXYXYXYXYXYXYXYXYXYXYXYXYXYXYXYXYXYXYXYXYXYXYXYXYXYXYXYXYXYXYXYXYXYXYXYXYXYXYXYXYXYXYXYXYXYXYXYXYXYXYXYXYXYXYXYXYXYXYXYXYXYXYXYXYXYXYXYXYXYXYXYXYXYXYXYXYXYXYXYXYX",
"YXYXYXYXYXYXYXYXYXYXYXYXYXYXYXYXYXYXYXYXYXYXYXYXYXYXYXYXYXYXYXYXYXYXYXYXYXYXYXYXYXYXYXYXYXYXYXYXYXYXYXYXYXYXYXYXYXYXYXYXYXYXYXYXYXYXYXYXYXYXYXYXYXYXYXYXYXYXYXYXYXYXYXYXYXYXYXYXYXYXYXYXYXYXYXYXYXYXYXYXYXYXYXYXYXYXYXYXYXYXYXYXYXYXYXYXYXYXYXYXYXYXYXYXYXYXYXYX",
"YXYXYXYXYXYXYXYXYXYXYXYXYXYXYXYXYXYXYXYXYXYXYXYXYXYXYXYXYXYXYXYXYXYXYXYXYXYXYXYXYXYXYXYXYXYXYXYXYXYXYXYXYXYXYXYXYXYXYXYXYXYXYXYXYXYXYXYXYXYXYXYXYXYXYXYXYXYXYXYXYXYXYXYXYXYXYXYXYXYXYXYXYXYXYXYXYXYXYXYXYXYXYXYXYXYXYXYXYXYXYXYXYXYXYXYXYXYXYXYXYXYXYXYXYXYXYXYX",
"YXYXYXYXYXYXYXYXYXYXYXYXYXYXYXYXYXYXYXYXYXYXYXYXYXYXYXYXYXYXYXYXYXYXYXYXYXYXYXYXYXYXYXYXYXYXYXYXYXYXYXYXYXYXYXYXYXYXYXYXYXYXYXYXYXYXYXYXYXYXYXYXYXYXYXYXYXYXYXYXYXYXYXYXYXYXYXYXYXYXYXYXYXYXYXYXYXYXYXYXYXYXYXYXYXYXYXYXYXYXYXYXYXYXYXYXYXYXYXYXYXYXYXYXYXYXYXYX",
"8 ,Xt.{ O.W.@.o.+.+.+.+.+.+.+.+.+.+.+.+.+.+.+.+.+.o.8.b.| { (.|.; % % % % % % % % % % % % % % % % % % % % % % % % % % % % % % % % % % % % % % % % % % % % % % % % % % % % % % % % % % % % % % % % % % % % % % % % % % % % % % % % % % % % % % % % % % % % % % % ",
"5 n.5.6.7.r.+.+.+.+.+.+.+.+.+.+.+.+.+.+.+.+.+.+.+.+.@.y.5.6.7.f.- % % % % % % % % % % % % % % % % % % % % % % % % % % % % % % % % % % % % % % % % % % % % % % % % % % % % % % % % % % % % % % % % % % % % % % % % % % % % % % % % % % % % % % % % % % % % % % % ",
"4 %.9.I.t.5.+.+.+.+.+.+.+.+.+.+.+.+.+.+.+.+.+.+.+.+.+.8.v.b.5.C & % % % % % % % % % % % % % % % % % % % % % % % % % % % % % % % % % % % % % % % % % % % % % % % % % % % % % % % % % % % % % % % % % % % % % % % % % % % % % % % % % % % % % % % % % % % % % % % ",
"2 %.U.e.6.+.+.+.+.+.+.+.o.o.o.o.o.o.o.o.o.+.+.+.+.+.+.+.8.u.v.M & % % % % % % % % % % % % % % % % % % % % % % % % % % % % % % % % % % % % % % % % % % % % % % % % % % % % % % % % % % % % % % % % % % % % % % % % % % % % % % % % % % % % % % % % % % % % % % % ",
"X $.v.@.o.+.+.+.o.o.o.o.=.G.J.=.<.6.w.0.o.o.o.o.+.+.+.+.+.8.y.M * % % % % % % % % % % % % % % % % % % % % % % % % % % % % % % % % % % % % % % % % % % % % % % % % % % % % % % % % % % % % % % % % % % % % % % % % % % % % % % % % % % % % % % % % % % % % % % % ",
"X ,.r.o.+.+.+.o.3.p.=.J.hXhXfXE.9XE.R.T.U.6.&.0.O.o.+.+.+.@.y.M * % % % % % % % % % % % % % % % % % % % % % % % % % % % % % % % % % % % % % % % % % % % % % % % % % % % % % % % % % % % % % % % % % % % % % % % % % % % % % % % % % % % % % % % % % % % % % % % ",
"3 q.4.+.+.+.o.p.hXxXJ.{.FXKXkXu.x.D.%X=X(.e.I.Q.U.O.+.+.+.+.7.s.& % % % % % % % % % % % % % % % % % % % % % % % % % % % % % % % % % % % % % % % % % % % % % % % % % % % % % % % % % % % % % % % % % % % % % % % % % % % % % % % % % % % % % % % % % % % % % % % ",
"3 %.+.+.+.+.o.fXzXH.jX6X[.9Xp.+.@ < /  XN.^.~.r.).9.o.+.+.+.+.C & % % % % % % % % % % % % % % % % % % % % % % % % % % % % % % % % % % % % % % % % % % % % % % % % % % % % % % % % % % % % % % % % % % % % % % % % % % % % % % % % % % % % % % % % % % % % % % % ",
"> | +.+.+.o.3.fX{.vXE.2.G g O.+.s % + A F e oXW.n.v.O.+.+.+.+.z & % % % % % % % % % % % % % % % % % % % % % % % % % % % % % % % % % % % % % % % % % % % % % % % % % % % % % % % % % % % % % % % % % % % % % % % % % % % % % % % % % % % % % % % % % % % % % % % ",
"+  .+.+.+.#.hXjXH.[.i.o.d + g G.S.P f k + = D.m.i.`.w.o.o.+.+.z * % % % % % % % % % % % = 1 = % % % % % % % = % % % % % % % % % % % % % % % % % % % % % % % % % % % % % % % % % % % % % % % % % % % % % % % % % % % % % % % % % % % % % % % % % % % % % % % % % ",
"X | +.+.+.=.7X5X3Xj.M m z A D.a.-.p.D.+ + + 7 x.4X4Xm.o.+.+.+.z & % % % % % % % % % % = ~ sX! % % % % % % ; r : % % % % % % % % % % % % % % % % % % % % % % % % % % % % % % % % % % % % % % % % % % % % % % % % % % % % % % % % % % % % % % % % % % % % % % % % ",
"X | +.+.+.O.!.3X'.x.9 - > # h.G.a.S.E c } | 0.L.].9X{.o.+.+.+.m * % % % % % % % % % % % t aXr % % % % % % % r ] : % % % % % % % % % % % % % % % % % % % % % % % % % % % % % % % % % % % % % % % % % % % % % % % % % % % % % % % % % % % % % % % % % % % % % % % ",
"> | +.+.+.o.n.W.8.^.) - l b + e G.=.a > d o.].{.H.bXp.o.+.+.+.x * % % % % % % % % % % % ; : ; % % % % % % % % tX[ & % % % % % % % % % % % % % % % % % % % % % % % % % % % % % % % % % % % % % % % % % % % % % % % % % % % % % % % % % % % % % % % % % % % % % % ",
"3 ,.+.+.+.o.O.b.Y.~..XE j.E ; = B +.#.g.g.L.[.gXzXJ.o.+.+.+.+.S & % % % % % % % % % % % = % % % % < r ; % % % r SX) % % % % % % % % % % % % % % % % % % % % % % % % % % % % % % % % % % % % % % % % % % % % % % % % % % % % % % % % % % % % % % % % % % % % % % ",
"2 q.5.+.+.+.o.n.W.t.R.b.!.*X.X9 B i.jXFXfX{.gXP.bXp.o.+.+.+.8.s.* % % % % % % % % % % % = < % % = ] ZXr % % % : dXAX1 % % % % % % % % % % % % % % % % % % % % % % % % % % % % % % % % % % % % % % % % % % % % % % % % % % % % % % % % % % % % % % % % % % % % % ",
"X %.r.+.+.+.o.O.v.W.9.v._.(.R.P.A.m.xXbXDXH.P.zXJ.#.+.+.+.@.y.M * = % % % % % % % % % = ! uXr % % ! [ 1 % % % % tXPX[ % % % % % % % % % % % % % % % % % % % % % % % % % % % % % % % % % % % % % % % % % % % % % % % % % % % % % % % % % % % % % % % % % % % % % ",
"X %.v.4.+.+.+.o.o.O.| $.t.Y.U.E.].K.kXgXJ.=.#.#.| o.+.+.+.8.y.M * % % % % % < ) w = % % ! dXt % % = = % % % % % ) PXSX1 % % % % % % % % % % % % % % % % % % % % % % % % % % % % % % % % % % % % % % % % % % % % % % % % % % % % % % % % % % % % % % % % % % % % ",
"2 %.I.r.7.+.+.+.+.+.+.o.o.O.&.O.o.=.=.=.o.o.+.+.+.+.+.+.9.t.y.M & % % % % % r SX[ % % % : < : % % % % % % % % % ~ IXPX) % % % % % % % % % % % % % % % % % % % % % % % % % % % % % % % % % % % % % % % % % % % % % % % % % % % % % % % % % % % % % % % % % % % % ",
"4 %.9.I.t.5.+.+.+.+.+.+.+.+.+.+.+.o.+.+.+.+.+.+.+.+.+.8.n.I.4.;.- % % % % % < ! w % % % % % % % % % % % % % % % ! IXPXyX% % % % % % % % % % % % % % % % % % % % % % % % % % % % % % % % % % % % % % % % % % % % % % % % % % % % % % % % % % % % % % % % % % % % ",
"5 M.5.5.6.t.+.+.+.+.+.+.+.+.+.+.+.+.+.+.+.+.+.+.+.+.@.y.4.4.e.f.- % % % % % % % % % % % = ; % % % % % % % % % % _ PXPXaX= % % % % % % % % % % % % % % % % % % % % % % % % % % % % % % % % % % % % % % % % % % % % % % % % % % % % % % % % % % % % % % % % % % % ",
"5 w.5.r.e.9.+.+.+.+.+.+.+.+.+.+.+.+.+.+.+.+.+.+.+.+.@.r.9.r.5.>.- % % % % % % % % % % ; ) ] < % % % % % % % % % yXPXPXsX% % % % % % % % % % % % % % % % % % % % % % % % % % % % % % % % % % % % % % % % % % % % % % % % % % % % % % % % % % % % % % % % % % % % ",
"2 $.y.b.r.+.+.+.+.+.+.+.+.+.o.o.o.o.o.+.+.+.+.+.+.+.+.4.n.I.e.Z & % % % % % % % % % % ; iXsX< % % % % % % % % < ZXPXPXaX% % % % % % % % % % % % % % % % % % % % % % % % % % % % % % % % % % % % % % % % % % % % % % % % % % % % % % % % % % % % % % % % % % % % ",
"X %.I.6.@.+.+.+.+.+.+.o.+.o.0.t.w.n.*.o.+.+.+.+.+.+.+.+.@.e.v.M & % % % % % % % % % % % w w ; % % % % % % % % ) IXPXPX[ % % % % % % % % % % % % % % % % % % % % % % % % % % % % % % % % % % % % % % % % % % % % % % % % % % % % % % % % % % % % % % % % % % % % ",
"X $.y.+.+.+.+.+.+.+.o.k g d Z._.b.-XT d d b +.+.+.+.+.+.+.5.y.x & % % % % % % % % % % % % % % % % % % % % % w ZXPXPXJX! % % % % % % % % % % % % % % % % % % % % % % % % % % % % % % % % % % % % % % % % % % % % % % % % % % % % % % % % % % % % % % % % % % % % ",
"X 1.8.+.+.+.+.+.o.o.| # ) w l.Q.v.#XU ) r u o.o.o.+.+.+.+.+.r.C & % % % % % % % % % % % % % % % % % % % % < aXPXPXPXsX: % % % % % % % % % % % % % % % % % % % % % % % % % % % % % % % % % % % % % % % % % % % % % % % % % % % % % % % % % % % % % % % % % % % % ",
"4 w.+.+.+.+.| { *.t.n.G ( P 1.r.5.n.D ~ w T y.t.O.| | o.+.+.4.s.* % % % % % % % % % % % % % % % % % % % w aXPXPXPXUX! % % % % % % % % % % % % % % % % % % % % % % % % % % % % % % % % % % % % % % % % % % % % % % % % % % % % % % % % % % % % % % % % % % % % % ",
"2  .+.+.+.| @ 7 W W.(.U 2 d.r.n.b.r.r.T * l.T.C.G 7 d o.+.+.+.M * % % % % % % % % & & % % % % % % % < ] SXPXPXPXJX' % % % % % % % % % % % % % % % % % % % % % % % % % % % % % % % % % % % % % % % % % % % % % % % % % % % % % % % % % % % % % % % % % % % % % % ",
">  .+.+.+.} 4 ! K M.!.R m n.6.r.U.8.9.r.l k.T.Z.9 ! s o.+.+.+.z * % % % % % % % % < ) ) r w w r ) yXSXIXPXPXPXSX) % % % % % % % % % % % % % % % % % % % % % % % % % % % % % % % % % % % % % % % % % % % % % % % % % % % % % % % % % % % % % % % % % % % % % % % ",
"X  .+.+.+.| + u } *.*. .l ,.T.c.B M.U.N z $.*.*.b a a +.+.+.+.x & % % % % % % % % % w tXZXSXUXJXIXPXPXPXIXSXtXw % % % % % % % % % % % % % % % % % % % % % % % % % % % % % % % % % % % % % % % % % % % % % % % % % % % % % % % % % % % % % % % % % % % % % % % % ",
"2  .o.+.+.} + L V b.b.;.b w.t.n.1.n.y.,.c c.b.c.h 7 @ o.+.+.+.N & % % % % % % % % % % & w _ iXsXdXsXaXtX) w % % % % % % % % % % % % % % % % % % % % % % % % % % % % % % % % % % % % % % % % % % % % % % % % % % % % % % % % % % % % % % % % % % % % % % % % % % ",
"4 w.+.+.+.{ 4 ! U W.W.U g n.6.r.W.8.9.c.# l.T.Z.q ! s o.+.+.4.s.& % % % % % % % % % % % % % % & ; ; & % % % % % % % % % % % % % % % % % % % % % % % % % % % % % % % % % % % % % % % % % % % % % % % % % % % % % % % % % % % % % % % % % % % % % % % % % % % % % ",
"+ ,.9.+.+.o.z k >.W.T.U < R w.t.0.t.1.L : z.T.M.Z k c o.+.+.r.C & % % % % % % % % % % % % % % % % % % % % % % % % % % % % % % % % % % % % % % % % % % % % % % % % % % % % % % % % % % % % % % % % % % % % % % % % % % % % % % % % % % % % % % % % % % % % % % % ",
"> $.y.@.o.o.o.o.O.&.&.# _ ! s.U.w.W.J ) ( f &.O.o.+.o.+.+.4.y.M * % % % % % % % % % % % % % % % % % % % % % % % % % % % % % % % % % % % % % % % % % % % % % % % % % % % % % % % % % % % % % % % % % % % % % % % % % % % % % % % % % % % % % % % % % % % % % % % ",
"X %.U.7.@.o.+.+.+.o.o.a 0 9 l._.b.=XW 0 7 k o.o.+.+.+.+.@.9.I.M & % % % % % % % % % % % % % % % % % % % % % % % % % % % % % % % % % % % % % % % % % % % % % % % % % % % % % % % % % % % % % % % % % % % % % % % % % % % % % % % % % % % % % % % % % % % % % % % ",
"3 %.t.b.t.+.+.+.+.+.o.{ } } M.(.v.).1.v } | o.+.+.+.+.@.v.I.e.Z & % % % % % % % % % % % % % % % % % % % % % % % % % % % % % % % % % % % % % % % % % % % % % % % % % % % % % % % % % % % % % % % % % % % % % % % % % % % % % % % % % % % % % % % % % % % % % % % ",
"5 w.5.9.9.9.+.+.+.+.+.+.+.o.@.O.O.&.O.+.+.+.+.+.+.+.+.r.8.9.5.d., % % % % % % % % % % % % % % % % % % % % % % % % % % % % % % % % % % % % % % % % % % % % % % % % % % % % % % % % % % % % % % % % % % % % % % % % % % % % % % % % % % % % % % % % % % % % % % % ",
"5 M.5.5.6.t.+.+.+.+.+.+.o.o.o.o.o.o.o.+.+.+.+.+.+.+.@.y.5.5.8.f.- % % % % % % % % % % % % % % % % % % % % % % % % % % % % % % % % % % % % % % % % % % % % % % % % % % % % % % % % % % % % % % % % % % % % % % % % % % % % % % % % % % % % % % % % % % % % % % % ",
"4 $.9.I.t.4.+.+.+.| o.o.+.b d m d z d | +.o.o.o.+.+.+.6.n.I.5.;.- % % % % % % % % % % % % % % % % % % % % % % % % % % % % % % % % % % % % % % % % % % % % % % % % % % % % % % % % % % % % % % % % % % % % % % % % % % % % % % % % % % % % % % % % % % % % % % % ",
"2 %.U.e.6.o.+.+.o.j { { j k d u i u i j j | n n +.+.+.+.7.r.I.Z & % % % % % % % % % % % % % % % % % % % % % % % % % % % % % % % % % % % % % % % % % % % % % % % % % % % % % % % % % % % % % % % % % % % % % % % % % % % % % % % % % % % % % % % % % % % % % % % ",
"X $.v.@.o.+.o.| o.{ v p . O $ # @ G # O O j { | o.| +.+.+.6.y.M * % % % % % % % % % % % % % % % % % % % % % % % % % % % % % % % % % % % % % % % % % % % % % % % % % % % % % % % % % % % % % % % % % % % % % % % % % % % % % % % % % % % % % % % % % % % % % % % ",
"X ,.r.+.+.+.o.j { v y o k 7 h d 7 u $ s p o p { v c o.+.+.@.y.Z & % % % % % % % % % % % % % % % % % % % % % % % % % % % % % % % % % % % % % % % % % % % % % % % % % % % % % % % % % % % % % % % % % % % % % % % % % % % % % % % % % % % % % % % % % % % % % % % ",
"2 q.4.+.+.+.o.{ n @ o j o.} }  .b  .b } O.i o y { { o.o.+.+.7.s.& % % % % % % % % % % % % % % % % % % % % % % % % % % % % % % % % % % % % % % % % % % % % % % % % % % % % % % % % % % % % % % % % % % % % % % % % % % % % % % % % % % % % % % % % % % % % % % % ",
"3 %.+.+.+.b d z J G O i +.+.-.J.'.6.+.+.| @ @ H B u d O.+.+.+.;.& % % % % % % % % % % % % % % % % % % % % % % % % % % % % % % % % % % % % % % % % % % % % % % % % % % % % % % % % % % % % % % % % % % % % % % % % % % % % % % % % % % % % % % % % % % % % % % % ",
"X  .+.+.+.} f u s.d.a z +.-.{.fXR V.8.+.o.i g c.S u u o.+.+.+.z & % % % % % % % % % % % % % % % % % % % % % % % % % % % % % % % % % % % % % % % % % % % % % % % % % % % % % % % % % % % % % % % % % % % % % % % % % % % % % % % % % % % % % % % % % % % % % % % ",
"X | +.+.+.b a u d.1.@ i +.a.9XR a A.4X#.| @ g c.>.u a | +.+.+.z * % % % % % % % % % % % % % % % % % % % % % % % % % % % % % % % % % % % % % % % % % % % % % % % % % % % % % % % % % % % % % % % % % % % % % % % % % % % % % % % % % % % % % % % % % % % % % % % ",
"X  .+.+.+.} u u 1.1.@ z +.4.U.Q h.hXJ.+.o.i f c.C u l O.+.+.+.z & % % % % % % % % % % % % % % % % % % % % % % % % % % % % % % % % % % % % % % % % % % % % % % % % % % % % % % % % % % % % % % % % % % % % % % % % % % % % % % % % % % % % % % % % % % % % % % % ",
"3 ,.+.+.+.b a k J K O i +.+.@.n.8XH.+.o. .@ @ H V u a o.+.+.@.S & % % % % % % % % % % % % % % % % % % % % % % % % % % % % % % % % % % % % % % % % % % % % % % % % % % % % % % % % % % % % % % % % % % % % % % % % % % % % % % % % % % % % % % % % % % % % % % % ",
"2 q.5.+.+.o.| v j O o z o. .| O. .o.| | o.i o @ v v | +.+.+.9.>.& % % % % % % % % % % % % % % % % % % % % % % % % % % % % % % % % % % % % % % % % % % % % % % % % % % % % % % % % % % % % % % % % % % % % % % % % % % % % % % % % % % % % % % % % % % % % % % % ",
"X %.t.+.+.+.O.n { n y y c s g u $ j s g z @ p n v n o.+.+.@.y.x * % % % % % % % % % % % % % % % % % % % % % % % % % % % % % % % % % % % % % % % % % % % % % % % % % % % % % % % % % % % % % % % % % % % % % % % % % % % % % % % % % % % % % % % % % % % % % % % ",
"+ %.v.&.+.+.o.{ o.| n y . # G # # G $ O O p { | | | +.+.+.9.y.M & % % % % % % % % % % % % % % % % % % % % % % % % % % % % % % % % % % % % % % % % % % % % % % % % % % % % % % % % % % % % % % % % % % % % % % % % % % % % % % % % % % % % % % % % % % % % % % % ",
"> %.I.r.8.+.+.+.o.c { n p p d f i f i p p { n n +.+.+.+.e.y.y.M & % % % % % % % % % % % % % % % % % % % % % % % % % % % % % % % % % % % % % % % % % % % % % % % % % % % % % % % % % % % % % % % % % % % % % % % % % % % % % % % % % % % % % % % % % % % % % % % ",
"4 *.8.b.t.5.+.+.o.| o.o.o.c a z a k a | +.o.| | +.+.+.8.y.b.5.>.& % % % % % % % % % % % % % % % % % % % % % % % % % % % % % % % % % % % % % % % % % % % % % % % % % % % % % % % % % % % % % % % % % % % % % % % % % % % % % % % % % % % % % % % % % % % % % % % ",
"5 M.6.4.6.t.+.+.o.o.+.+.+.o.| o.| o.O.o.+.+.+.+.+.+.4.y.@.4.e.f.- % % % % % % % % % % % % % % % % % % % % % % % % % % % % % % % % % % % % % % % % % % % % % % % % % % % % % % % % % % % % % % % % % % % % % % % % % % % % % % % % % % % % % % % % % % % % % % % ",
"5 ,.6.t.r.8.o.+.+.+.+.o.o.o.o.o.o.o.o.o.o.o.o.+.+.+.@.r.e.t.4.>.- % % % % % % % % % % % % % % % % % % % % % % % % % % % % % % % % % % % % % % % % % % % % % % % % % % % % % % % % % % % % % % % % % % % % % % % % % % % % % % % % % % % % % % % % % % % % % % % ",
"3 %.v.v.r.+.+.+.+.+.o.o.| | | o.O.o.| | | o.+.+.+.+.+.@.n.v.r.M & % % % % % % % % % % % % % % % % % % % % % % % % % % % % % % % % % % % % % % % % % % % % % % % % % % % % % % % % % % % % % % % % % % % % % % % % % % % % % % % % % % % % % % % % % % % % % % % ",
"X %.I.5.+.+.+.o.o.o.o.| o.o.$.V J  .o.| o.o.+.+.+.+.+.+.+.9.v.M & % % % % % % % % % % % % % % % % % % % % % % % % % % % % % % % % % % % % % % % % % % % % % % % % % % % % % % % % % % % % % % % % % % % % % % % % % % % % % % % % % % % % % % % % % % % % % % % ",
"X %.y.+.+.+.+.o.O.;.C C C D G U W G D C C C D ;.+.+.+.+.+.5.y.x * % % % % % % % % % % % % % % % % % % % % % % % % % % % % % % % % % % % % % % % % % % % % % % % % % % % % % % % % % % % % % % % % % % % % % % % % % % % % % % % % % % % % % % % % % % % % % % % ",
"2 w.8.+.+.+.+.$.D 6 f b a = > :.,.4 = # m x > G C O.o.o.+.+.e.S % % % % % % % % % % % % % % % % % % % % % % % % % % % % % % % % % % % % % % % % % % % % % % % % % % % % % % % % % % % % % % % % % % % % % % % % % % % % % % % % % % % % % % % % % % % % % % % % ",
"4 1.+.+.+.O.;.Y , & z u X = > >.2.2 = > i b > = 5 D %.o.+.+.4.s.& % % % % % % % % % % % % % % % % % % % % % % % % % % % % % % % % % % % % % % % % % % % % % % % % % % % % % % % % % % % % % % % % % % % % % % % % % % % % % % % % % % % % % % % % % % % % % % % ",
"+  .o.+.+.O.G % % & + Y D , = 8 I % & Y T # & % = = V +.+.+.+.M & % % % % % % % % % % % % % % % % % % % % % % % % % % % % % % % % % % % % % % % % % % % % % % % % % % % % % % % % % % % % % % % % % % % % % % % % % % % % % % % % % % % % % % % % % % % % % % % ",
"X  .o.o.+.O.6 % % % q C.^.U % % % % 8 C.C.I % % = = V +.+.+.+.z * % % % % % % % % % % % % % % % % % % % % % % % % % % % % % % % % % % % % % % % % % % % % % % % % % % % % % % % % % % % % % % % % % % % % % % % % % % % % % % % % % % % % % % % % % % % % % % % ",
"2 $.+.+.+.O.G % % & + T s., = q I = - T T # & % % = V +.+.+.+.Z & % % % % % % % % % % % % % % % % % % % % % % % % % % % % % % % % % % % % % % % % % % % % % % % % % % % % % % % % % % % % % % % % % % % % % % % % % % % % % % % % % % % % % % % % % % % % % % % ",
"3 w.@.+.+.O.;.J - & z u X = > >.1.2 % > d b > % 5 D ..o.+.+.5.s.& % % % % % % % % % % % % % % % % % % % % % % % % % % % % % % % % % % % % % % % % % % % % % % % % % % % % % % % % % % % % % % % % % % % % % % % % % % % % % % % % % % % % % % % % % % % % % % % ",
"X ,.e.+.+.o.+.%.D 4 l b s % > :.,.4 = + N m > G S O.+.+.+.@.r.Z & % % % % % % % % % % % % % % % % % % % % % % % % % % % % % % % % % % % % % % % % % % % % % % % % % % % % % % % % % % % % % % % % % % % % % % % % % % % % % % % % % % % % % % % % % % % % % % % ",
"> $.y.@.+.+.+.o.O.C D C C V G U W 6 V Z C C V ;.o.o.+.+.+.5.y.m * % % % % % % % % % % % % % % % % % % % % % % % % % % % % % % % % % % % % % % % % % % % % % % % % % % % % % % % % % % % % % % % % % % % % % % % % % % % % % % % % % % % % % % % % % % % % % % % ",
"X %.U.8.@.+.+.+.o.o.o.| | | O.V J $.| | o.| o.o.+.+.+.+.4.e.I.M & % % % % % % % % % % % % % % % % % % % % % % % % % % % % % % % % % % % % % % % % % % % % % % % % % % % % % % % % % % % % % % % % % % % % % % % % % % % % % % % % % % % % % % % % % % % % % % % ",
"3 $.r.U.t.@.+.+.+.+.o.o.| o.| O.O.o.| o.o.o.+.+.+.+.+.5.I.I.7.Z & % % % % % % % % % % % % % % % % % % % % % % % % % % % % % % % % % % % % % % % % % % % % % % % % % % % % % % % % % % % % % % % % % % % % % % % % % % % % % % % % % % % % % % % % % % % % % % % ",
"5 q.5.9.8.9.+.+.+.+.+.o.o.o.o.o.+.o.o.o.o.o.+.+.+.+.@.r.7.8.7.s.- % % % % % % % % % % % % % % % % % % % % % % % % % % % % % % % % % % % % % % % % % % % % % % % % % % % % % % % % % % % % % % % % % % % % % % % % % % % % % % % % % % % % % % % % % % % % % % % ",
"5 n.5.6.7.r.+.+.+.+.+.+.o.| | | | | |  .o.o.+.+.+.+.@.y.5.7.8.f.- % % % % % % % % % % % % % % % % % % % % % % % % % % % % % % % % % % % % % % % % % % % % % % % % % % % % % % % % % % % % % % % % % % % % % % % % % % % % % % % % % % % % % % % % % % % % % % % ",
"4 %.e.I.y.4.+.+.o.o.| A F.pXOXD..XA.k.k.s.} o.+.+.+.+.6.v.I.7.Z & % % % % % % % % % % % % % % % % % % % % % % % % % % % % % % % % % % % % % % % % % % % % % % % % % % % % % % % % % % % % % % % % % % % % % % % % % % % % % % % % % % % % % % % % % % % % % % % ",
"+ %.I.9.5.+.+.+.o.X.D.mXFXKXLXNXrXqX=X$X@XV.>. .o.+.+.o.6.r.v.M & % % % % % % % % % % % % % % % % % % % % % % % % % % % % % % % % % % % % % % % % % % % % % % % % % % % % % % % % % % % % % % % % % % % % % % % % % % % % % % % % % % % % % % % % % % % % % % % ",
"> $.n.@.+.+.o...S.pXBXKXgXfXKXBX0X>X(.U.W.>X*XV.;. .+.o.+.6.y.z & % % % % % % % % % % % % % % % % % % % % % % % % % % % % % % % % % % % % % % % % % % % % % % % % % % % % % % % % % % % % % % % % % % % % % % % % % % % % % % % % % % % % % % % % % % % % % % % ",
"X ,.r.+.+.| h.pXnXqX2XKXbXbXKXNX8X<X_./.(.2XGXVXeXz.;.o.+.@.y.Z * % % % % % % % % % % % % % % % % % % % % % % % % % % % % % % % % % % % % % % % % % % % % % % % % % % % % % % % % % % % % % % % % % % % % % % % % % % % % % % % % % % % % % % % % % % % % % % % ",
"3 q.4.+.+.A ZXBXwXwXVXIXGXvX8X2.=.B.&X*X;X>XqXwXqX<Xz.} +.+.7.s.& % % % % % % % % % % % % % % % % % % % % % % % % % % % % % % % % % % % % % % % % % % % % % % % % % % % % % % % % % % % % % % % % % % % % % % % % % % % % % % % % % % % % % % % % % % % % % % % ",
"3 $.+.+.+.A SXKXgXgXIXPXcX,.u u m d A K.:X-X).b.R.-XV.} +.+.+.Z & % % % % % % % % % % % % % % % % % % % % % % % % % % % % % % % % % % % % % % % % % % % % % % % % % % % % % % % % % % % % % % % % % % % % % % % % % % % % % % % % % % % % % % % % % % % % % % % ",
"+  .+.+.+.:.AXGXkXkXGXLXlXN u u f l l j.*X>X%X^.^.>XV.} +.+.+.x & % % % % % % % % % % % % % % % % % % % % % % % % % % % % % % % % % % % % % % % % % % % % % % % % % % % % % % % % % % % % % % % % % % % % % % % % % % % % % % % % % % % % % % % % % % % % % % % ",
"X | +.+.+.Z *X1X&X&X1X1X5XA z u a x z 2.VXHXVXkXcXHXOX .+.+.+.x * % % % % % % % % % % % % % % % % % % % % % % % % % % % % % % % % % % % % % % % % % % % % % % % % % % % % % % % % % % % % % % % % % % % % % % % % % % % % % % % % % % % % % % % % % % % % % % % ",
"X | +.+.+.Z @X=XI.U.=X-X&X3.d u m d u 2.HXPXFXfXhXPXpX} +.+.+.x & % % % % % % % % % % % % % % % % % % % % % % % % % % % % % % % % % % % % % % % % % % % % % % % % % % % % % % % % % % % % % % % % % % % % % % % % % % % % % % % % % % % % % % % % % % % % % % % ",
"X  .+.r.e.Z @X:X&X&X<X-X<X5XA.:.b S L.9XJXIXVXcXvXLXpX} 9.6.+.x * % % % % % % % % % % % % % % % % % % % % % % % % % % % % % % % % % % % % % % % % % % % % % % % % % % % % % % % % % % % % % % % % % % % % % % % % % % % % % % % % % % % % % % % % % % % % % % % ",
"X | +.b.(...g.&XNXGXCX;X_._.;X5X].VXFXDXFXHX<X2XMXpXh.$.(.9.o.z & % % % % % % % % % % % % % % % % % % % % % % % % % % % % % % % % % % % % % % % % % % % % % % % % % % % % % % % % % % % % % % % % % % % % % % % % % % % % % % % % % % % % % % % % % % % % % % % ",
"X  .o.t.$X8.| ;.k.*XqX;XU.I.#X2XnXLXxX{.gXGXNXlXD.X.o.9.$X8.+.z * % % % % % % % % % % % % % % % % % % % % % % % % % % % % % % % % % % % % % % % % % % % % % % % % % % % % % % % % % % % % % % % % % % % % % % % % % % % % % % % % % % % % % % % % % % % % % % % ",
"X  .@.r.#XW.6.o.| ;.k.@X(.).=XqXMXHXFXDXDXAXF.:.o.o.8.T.#X6.+.z * % % % % % % % % % % % % % % % % % % % % % % % % % % % % % % % % % % % % % % % % % % % % % % % % % % % % % % % % % % % % % % % % % % % % % % % % % % % % % % % % % % % % % % % % % % % % % % % ",
"X | 8./.W._.9.+.+.+.} >.V.}.}.+X+X+XmXmXXX:.| +.+.o.t._.Q.Y.4.z & % % % % % % % % % % % % % % % % % % % % % % % % % % % % % % % % % % % % % % % % % % % % % % % % % % % % % % % % % % % % % % % % % % % % % % % % % % % % % % % % % % % % % % % % % % % % % % % ",
"X  .+.U.#X=Xb.+.+.+.+.O.} ......X.X.X.X.| +.+.+.+.+.Y.#X).U.+.z * % % % % % % % % % % % % % % % % % % % % % % % % % % % % % % % % % % % % % % % % % % % % % % % % % % % % % % % % % % % % % % % % % % % % % % % % % % % % % % % % % % % % % % % % % % % % % % % ",
"X | o.9.#X=X/.+.+.+.+.+.+.+.+.+.+.+.+.+.+.+.+.+.+.4._.-X(.6.+.z & % % % % % % % % % % % % % % % % % % % % % % % % % % % % % % % % % % % % % % % % % % % % % % % % % % % % % % % % % % % % % % % % % % % % % % % % % % % % % % % % % % % % % % % % % % % % % % % ",
"X  .+.t.#X(.#X8.+.+.+.+.+.+.+.+.+.+.+.+.+.+.+.+.o.9.#X).#X9.+.z * % % % % % % % % % % % % % % % % % % % % % % % % % % % % % % % % % % % % % % % % % % % % % % % % % % % % % % % % % % % % % % % % % % % % % % % % % % % % % % % % % % % % % % % % % % % % % % % ",
"X  .+.+.U.$X=XW.+.+.+.+.+.+.+.+.+.+.+.+.+.+.+.+.@.Q.=X#XU.@.+.z & % % % % % % % % % % % % % % % % % % % % % % % % % % % % % % % % % % % % % % % % % % % % % % % % % % % % % % % % % % % % % % % % % % % % % % % % % % % % % % % % % % % % % % % % % % % % % % % ",
"+  .+.+.r._.Q.).8.+.+.+.+.+.+.+.+.+.+.+.+.+.+.+.8.).).(.7.+.+.m * % % % % % % % % % % % % % % % % % % % % % % % % % % % % % % % % % % % % % % % % % % % % % % % % % % % % % % % % % % % % % % % % % % % % % % % % % % % % % % % % % % % % % % % % % % % % % % % ",
"X } +.o.8.).#X#XQ.5.+.+.+.+.+.+.+.+.+.+.+.+.o.5.Q.#X)._.8.+.+.z & % % % % % % % % % % % % % % % % % % % % % % % % % % % % % % % % % % % % % % % % % % % % % % % % % % % % % % % % % % % % % % % % % % % % % % % % % % % % % % % % % % % % % % % % % % % % % % % ",
"X  .o.+.+.8.(.(.).y.+.+.+.+.+.+.+.+.+.+.+.+.+.n.).#X(.8.+.+.+.z * % % % % % % % % % % % % % % % % % % % % % % % % % % % % % % % % % % % % % % % % % % % % % % % % % % % % % % % % % % % % % % % % % % % % % % % % % % % % % % % % % % % % % % % % % % % % % % % ",
"X | +.+.+.6.(.(.#X#Xt.+.+.+.+.+.+.+.+.+.+.+.t._.(.(.W.@.+.+.+.z & % % % % % % % % % % % % % % % % % % % % % % % % % % % % % % % % % % % % % % % % % % % % % % % % % % % % % % % % % % % % % % % % % % % % % % % % % % % % % % % % % % % % % % % % % % % % % % % ",
"X  .+.+.+.+.8.W.#XW./.@.+.+.+.+.+.+.+.+.o.5.(.(.=X/.r.+.+.+.+.m * % % % % % % % % % % % % % % % % % % % % % % % % % % % % % % % % % % % % % % % % % % % % % % % % % % % % % % % % % % % % % % % % % % % % % % % % % % % % % % % % % % % % % % % % % % % % % % % ",
"X | +.+.+.+.o.8.Q.Q.#X7.+.+.+.+.o.+.@.+.o.9.#XY.Y.5.o.+.+.+.+.z & % % % % % % % % % % % % % % % % % % % % % % % % % % % % % % % % % % % % % % % % % % % % % % % % % % % % % % % % % % % % % % % % % % % % % % % % % % % % % % % % % % % % % % % % % % % % % % % ",
"X | +.+.+.+.5.r.W.(.(.8.r.W./.Y.v.T./.W.r.t.$X#X(.r.4.+.+.+.+.m * % % % % % % % % % % % % % % % % % % % % % % % % % % % % % % % % % % % % % % % % % % % % % % % % % % % % % % % % % % % % % % % % % % % % % % % % % % % % % % % % % % % % % % % % % % % % % % % ",
"X  .+.+.+.+.+.9.Y.U.U./.=X_._.=X).=X).#X=X(.W.Q.T.e.+.+.+.+.+.x & % % % % % % % % % % % % % % % % % % % % % % % % % % % % % % % % % % % % % % % % % % % % % % % % % % % % % % % % % % % % % % % % % % % % % % % % % % % % % % % % % % % % % % % % % % % % % % % ",
"X  .o.+.+.+.+.+.6.b.W.T.r.5.r.8.&.8.9.5.t.T.W.v.5.+.+.+.+.+.+.z & % % % % % % % % % % % % % % % % % % % % % % % % % % % % % % % % % % % % % % % % % % % % % % % % % % % % % % % % % % % % % % % % % % % % % % % % % % % % % % % % % % % % % % % % % % % % % % % ",
"X | +.+.+.+.+.+.o.o.+.+.+.+.+.o.+.+.+.+.+.+.+.+.+.+.+.+.+.+.+.z & % % % % % % % % % % % % % % % % % % % % % % % % % % % % % % % % % % % % % % % % % % % % % % % % % % % % % % % % % % % % % % % % % % % % % % % % % % % % % % % % % % % % % % % % % % % % % % % ",
"X  .+.+.+.+.+.+.+.+.+.+.+.+.+.+.+.+.+.+.+.+.+.+.+.+.+.+.+.+.+.z & % % % % % % % % % % % % % % % % % % % % % % % % % % % % % % % % % % % % % % % % % % % % % % % % % % % % % % % % % % % % % % % % % % % % % % % % % % % % % % % % % % % % % % % % % % % % % % % ",
"YXYXYXYXYXYXYXYXYXYXYXYXYXYXYXYXYXYXYXYXYXYXYXYXYXYXYXYXYXYXYXYXYXYXYXYXYXYXYXYXYXYXYXYXYXYXYXYXYXYXYXYXYXYXYXYXYXYXYXYXYXYXYXYXYXYXYXYXYXYXYXYXYXYXYXYXYXYXYXYXYXYXYXYXYXYXYXYXYXYXYXYXYXYXYXYXYXYXYXYXYXYXYXYXYXYXYXYXYXYXYXYXYXYXYXYXYXYXYXYXYXYXYXYXYXYXYXYX",
"YXYXYXYXYXYXYXYXYXYXYXYXYXYXYXYXYXYXYXYXYXYXYXYXYXYXYXYXYXYXYXYXYXYXYXYXYXYXYXYXYXYXYXYXYXYXYXYXYXYXYXYXYXYXYXYXYXYXYXYXYXYXYXYXYXYXYXYXYXYXYXYXYXYXYXYXYXYXYXYXYXYXYXYXYXYXYXYXYXYXYXYXYXYXYXYXYXYXYXYXYXYXYXYXYXYXYXYXYXYXYXYXYXYXYXYXYXYXYXYXYXYXYXYXYXYXYXYX",
"YXYXYXYXYXYXYXYXYXYXYXYXYXYXYXYXYXYXYXYXYXYXYXYXYXYXYXYXYXYXYXYXYXYXYXYXYXYXYXYXYXYXYXYXYXYXYXYXYXYXYXYXYXYXYXYXYXYXYXYXYXYXYXYXYXYXYXYXYXYXYXYXYXYXYXYXYXYXYXYXYXYXYXYXYXYXYXYXYXYXYXYXYXYXYXYXYXYXYXYXYXYXYXYXYXYXYXYXYXYXYXYXYXYXYXYXYXYXYXYXYXYXYXYXYXYXYXYX",
"YXYXYXYXYXYXYXYXYXYXYXYXYXYXYXYXYXYXYXYXYXYXYXYXYXYXYXYXYXYXYXYXYXYXYXYXYXYXYXYXYXYXYXYXYXYXYXYXYXYXYXYXYXYXYXYXYXYXYXYXYXYXYXYXYXYXYXYXYXYXYXYXYXYXYXYXYXYXYXYXYXYXYXYXYXYXYXYXYXYXYXYXYXYXYXYXYXYXYXYXYXYXYXYXYXYXYXYXYXYXYXYXYXYXYXYXYXYXYXYXYXYXYXYXYXYXYXYX",
"YXYXYXYXYXYXYXYXYXYXYXYXYXYXYXYXYXYXYXYXYXYXYXYXYXYXYXYXYXYXYXYXYXYXYXYXYXYXYXYXYXYXYXYXYXYXYXYXYXYXYXYXYXYXYXYXYXYXYXYXYXYXYXYXYXYXYXYXYXYXYXYXYXYXYXYXYXYXYXYXYXYXYXYXYXYXYXYXYXYXYXYXYXYXYXYXYXYXYXYXYXYXYXYXYXYXYXYXYXYXYXYXYXYXYXYXYXYXYXYXYXYXYXYXYXYXYXYX",
"YXYXYXYXYXYXYXYXYXYXYXYXYXYXYXYXYXYXYXYXYXYXYXYXYXYXYXYXYXYXYXYXYXYXYXYXYXYXYXYXYXYXYXYXYXYXYXYXYXYXYXYXYXYXYXYXYXYXYXYXYXYXYXYXYXYXYXYXYXYXYXYXYXYXYXYXYXYXYXYXYXYXYXYXYXYXYXYXYXYXYXYXYXYXYXYXYXYXYXYXYXYXYXYXYXYXYXYXYXYXYXYXYXYXYXYXYXYXYXYXYXYXYXYXYXYXYXYX",
"YXYXYXYXYXYXYXYXYXYXYXYXYXYXYXYXYXYXYXYXYXYXYXYXYXYXYXYXYXYXYXYXYXYXYXYXYXYXYXYXYXYXYXYXYXYXYXYXYXYXYXYXYXYXYXYXYXYXYXYXYXYXYXYXYXYXYXYXYXYXYXYXYXYXYXYXYXYXYXYXYXYXYXYXYXYXYXYXYXYXYXYXYXYXYXYXYXYXYXYXYXYXYXYXYXYXYXYXYXYXYXYXYXYXYXYXYXYXYXYXYXYXYXYXYXYXYXYX",
"YXYXYXYXYXYXYXYXYXYXYXYXYXYXYXYXYXYXYXYXYXYXYXYXYXYXYXYXYXYXYXYXYXYXYXYXYXYXYXYXYXYXYXYXYXYXYXYXYXYXYXYXYXYXYXYXYXYXYXYXYXYXYXYXYXYXYXYXYXYXYXYXYXYXYXYXYXYXYXYXYXYXYXYXYXYXYXYXYXYXYXYXYXYXYXYXYXYXYXYXYXYXYXYXYXYXYXYXYXYXYXYXYXYXYXYXYXYXYXYXYXYXYXYXYXYXYXYX",
"YXYXYXYXYXYXYXYXYXYXYXYXYXYXYXYXYXYXYXYXYXYXYXYXYXYXYXYXYXYXYXYXYXYXYXYXYXYXYXYXYXYXYXYXYXYXYXYXYXYXYXYXYXYXYXYXYXYXYXYXYXYXYXYXYXYXYXYXYXYXYXYXYXYXYXYXYXYXYXYXYXYXYXYXYXYXYXYXYXYXYXYXYXYXYXYXYXYXYXYXYXYXYXYXYXYXYXYXYXYXYXYXYXYXYXYXYXYXYXYXYXYXYXYXYXYXYXYX",
"YXYXYXYXYXYXYXYXYXYXYXYXYXYXYXYXYXYXYXYXYXYXYXYXYXYXYXYXYXYXYXYXYXYXYXYXYXYXYXYXYXYXYXYXYXYXYXYXYXYXYXYXYXYXYXYXYXYXYXYXYXYXYXYXYXYXYXYXYXYXYXYXYXYXYXYXYXYXYXYXYXYXYXYXYXYXYXYXYXYXYXYXYXYXYXYXYXYXYXYXYXYXYXYXYXYXYXYXYXYXYXYXYXYXYXYXYXYXYXYXYXYXYXYXYXYXYXYX",
"YXYXYXYXYXYXYXYXYXYXYXYXYXYXYXYXYXYXYXYXYXYXYXYXYXYXYXYXYXYXYXYXYXYXYXYXYXYXYXYXYXYXYXYXYXYXYXYXYXYXYXYXYXYXYXYXYXYXYXYXYXYXYXYXYXYXYXYXYXYXYXYXYXYXYXYXYXYXYXYXYXYXYXYXYXYXYXYXYXYXYXYXYXYXYXYXYXYXYXYXYXYXYXYXYXYXYXYXYXYXYXYXYXYXYXYXYXYXYXYXYXYXYXYXYXYXYXYX",
"YXYXYXYXYXYXYXYXYXYXYXYXYXYXYXYXYXYXYXYXYXYXYXYXYXYXYXYXYXYXYXYXYXYXYXYXYXYXYXYXYXYXYXYXYXYXYXYXYXYXYXYXYXYXYXYXYXYXYXYXYXYXYXYXYXYXYXYXYXYXYXYXYXYXYXYXYXYXYXYXYXYXYXYXYXYXYXYXYXYXYXYXYXYXYXYXYXYXYXYXYXYXYXYXYXYXYXYXYXYXYXYXYXYXYXYXYXYXYXYXYXYXYXYXYXYXYXYX",
"YXYXYXYXYXYXYXYXYXYXYXYXYXYXYXYXYXYXYXYXYXYXYXYXYXYXYXYXYXYXYXYXYXYXYXYXYXYXYXYXYXYXYXYXYXYXYXYXYXYXYXYXYXYXYXYXYXYXYXYXYXYXYXYXYXYXYXYXYXYXYXYXYXYXYXYXYXYXYXYXYXYXYXYXYXYXYXYXYXYXYXYXYXYXYXYXYXYXYXYXYXYXYXYXYXYXYXYXYXYXYXYXYXYXYXYXYXYXYXYXYXYXYXYXYXYXYXYX",
"YXYXYXYXYXYXYXYXYXYXYXYXYXYXYXYXYXYXYXYXYXYXYXYXYXYXYXYXYXYXYXYXYXYXYXYXYXYXYXYXYXYXYXYXYXYXYXYXYXYXYXYXYXYXYXYXYXYXYXYXYXYXYXYXYXYXYXYXYXYXYXYXYXYXYXYXYXYXYXYXYXYXYXYXYXYXYXYXYXYXYXYXYXYXYXYXYXYXYXYXYXYXYXYXYXYXYXYXYXYXYXYXYXYXYXYXYXYXYXYXYXYXYXYXYXYXYXYX",
"YXYXYXYXYXYXYXYXYXYXYXYXYXYXYXYXYXYXYXYXYXYXYXYXYXYXYXYXYXYXYXYXYXYXYXYXYXYXYXYXYXYXYXYXYXYXYXYXYXYXYXYXYXYXYXYXYXYXYXYXYXYXYXYXYXYXYXYXYXYXYXYXYXYXYXYXYXYXYXYXYXYXYXYXYXYXYXYXYXYXYXYXYXYXYXYXYXYXYXYXYXYXYXYXYXYXYXYXYXYXYXYXYXYXYXYXYXYXYXYXYXYXYXYXYXYXYXYX"
};
