/* XPM */
static char *ad[] = {
/* columns rows colors chars-per-pixel */
"24 24 170 2",
"   c black",
".  c #4B3C75",
"X  c #4B3C79",
"o  c #4F4072",
"O  c #5A486F",
"+  c #6E5955",
"@  c #745D58",
"#  c #755D59",
"$  c #7E684A",
"%  c #0303BA",
"&  c #0000BC",
"*  c #0000BD",
"=  c #0101BC",
"-  c #0000BE",
";  c #0000BF",
":  c #110DAD",
">  c #1713A7",
",  c #1A19AA",
"<  c #1A19AB",
"1  c #2B2699",
"2  c #372C88",
"3  c #342C90",
"4  c #BF3D0A",
"5  c #BB4D0E",
"6  c #BC480D",
"7  c #BF4B0D",
"8  c #BE5F12",
"9  c #B66213",
"0  c #BF6714",
"q  c #BA7113",
"w  c #BB7815",
"e  c #846345",
"r  c #CC1700",
"t  c #CB1800",
"y  c #CB1900",
"u  c #CB1A01",
"i  c #CC1800",
"p  c #CC1900",
"a  c #C72704",
"s  c #C82403",
"d  c #C8320A",
"f  c #C83E07",
"g  c #CC3903",
"h  c #D12F00",
"j  c #C64008",
"k  c #C24E0E",
"l  c #CD4C09",
"z  c #CD4E1E",
"x  c #C9500E",
"c  c #CA540F",
"v  c #CE4F20",
"b  c #D35C26",
"n  c #CB620A",
"m  c #C76611",
"M  c #C76911",
"N  c #D46522",
"B  c #E07040",
"V  c #A3841B",
"C  c #A28618",
"Z  c #A8861D",
"A  c #A9871E",
"S  c #A98919",
"D  c #AA8D19",
"F  c #AA8C1C",
"G  c #AD8D1D",
"H  c #B6831B",
"J  c #B4871D",
"K  c #B28B1C",
"L  c #B88A1A",
"P  c #B8891E",
"I  c #B88C1A",
"U  c #BA8E1A",
"Y  c #B1911C",
"T  c #B5931D",
"R  c #B6951E",
"E  c #BA921E",
"W  c #B8941D",
"Q  c #B9991D",
"!  c #B99D1D",
"~  c #BD9B1D",
"^  c #BC9F1A",
"/  c #BE9C1C",
"(  c #A7872F",
")  c #A6892A",
"_  c #B18922",
"`  c #B59420",
"'  c #BFA622",
"]  c #C49716",
"[  c #C2921C",
"{  c #C1941C",
"}  c #C0971C",
"|  c #C59914",
" . c #C09A1D",
".. c #DD8705",
"X. c #DD8805",
"o. c #D69309",
"O. c #D6920C",
"+. c #D7990B",
"@. c #DA9F03",
"#. c #DC9906",
"$. c #DF9806",
"%. c #DE9A06",
"&. c #DE9B07",
"*. c #DF9E07",
"=. c #DA9A09",
"-. c #D99C0A",
";. c #DB9D09",
":. c #DB9E09",
">. c #C19B20",
",. c #C7A217",
"<. c #C3A21D",
"1. c #C3A51B",
"2. c #C6A919",
"3. c #C7A919",
"4. c #C8A615",
"5. c #CDA715",
"6. c #CDB215",
"7. c #CEB315",
"8. c #D4A20E",
"9. c #D5A40D",
"0. c #E68600",
"q. c #E68700",
"w. c #E18803",
"e. c #E18903",
"r. c #E68800",
"t. c #E39A03",
"y. c #E09B06",
"u. c #E09D06",
"i. c #E0AC00",
"p. c #E4AB03",
"a. c #EAAC00",
"s. c #E2BA03",
"d. c #EEAC33",
"f. c #EFAE30",
"g. c #E68743",
"h. c #DCC80C",
"j. c #DDC90D",
"k. c #DCC90E",
"l. c #DFCC0B",
"z. c #D4C81B",
"x. c #D9D21B",
"c. c #DBD31B",
"v. c #DBD41B",
"b. c #E2C50C",
"n. c #E6CD09",
"m. c #ECCB05",
"M. c #E7D409",
"N. c #EDD606",
"B. c #ECDC07",
"V. c #EDDE07",
"C. c #E8D809",
"Z. c #EBDB08",
"A. c #EBDC08",
"S. c #ECDC08",
"D. c #F6D500",
"F. c #F8D700",
"G. c #F8D800",
"H. c #F3E804",
"J. c #F5E803",
"K. c #F8ED02",
"L. c #F8EE02",
"P. c #FCF301",
"I. c #FDF300",
"U. c #FEF500",
"Y. c #FEF600",
"T. c #FFF600",
"R. c #FFF700",
"E. c #FFF800",
"W. c #FFF900",
"Q. c None",
/* pixels */
"Q.Q.Q.Q.Q.Q.Q.Q.Q.Q.Q.Q.Q.Q.Q.Q.Q.Q.Q.Q.Q.Q.Q.Q.",
"Q.Q.Q.Q.Q.Q.Q.Q.Q.Q.Q.Q.Q.Q.Q.Q.Q.Q.Q.Q.Q.Q.Q.Q.",
"* * * * * * * < c.E.T.T.T.T.E.F.h r p p p p p p ",
"* * * * * * * < c.E.T.T.T.T.E.F.h r p p p p p p ",
"* * * * * * * < c.E.E.T.T.E.E.F.h r p p p p p p ",
"* * * * * * * < c.P.Z.L.L.A.P.D.h r p p p p p p ",
"* * * * * * * 3 ' k.6.3.3.6.k.5.f r p p p p p p ",
"* * * * * * * # [ ] | P E 4.,.>.0 u p p p p p p ",
"* * * * * * > e j b N n +.X.X.-.w a u u p p p p ",
"* * * * * * o J d d.d.l &.r.r.u.Q 5 r u p p p p ",
"* * * * * * + L v g.B z %.q.q.y.! 9 u p p p p p ",
"* * * * * ; X _ m c x M 8.o.=.9.E 7 r p p p p p ",
"* * * * * * : $ %.e.e.-.M.@.t.n.q s p p p p p p ",
"* * * * * * 2 ) %.r.r.&.B.i.a.N.L 4 p p p p p p ",
"* * * * * * . T O.e.w.=.Z.s.p.b.R 6 r p p p p p ",
"* * * * * * #  .K U [ ~ <.1.^ Y ` 8 u p p p p p ",
"* * * * * * O ( F D G Z Z V V S H k p p p p p p ",
"* * * * * * % 1 z.J.k.~ / l.H.m.g u p p p p p p ",
"* * * * * * ; < v.E.T.S.B.T.E.G.h p p p p p p p ",
"* * * * * * * < c.E.T.T.E.T.E.F.h p p p p p p p ",
"* * * * * * * < c.E.T.T.T.T.E.F.h p p p p p p p ",
"* * * * * * * < c.E.T.T.T.T.E.F.h p p p p p p p ",
"Q.Q.Q.Q.Q.Q.Q.Q.Q.Q.Q.Q.Q.Q.Q.Q.Q.Q.Q.Q.Q.Q.Q.Q.",
"Q.Q.Q.Q.Q.Q.Q.Q.Q.Q.Q.Q.Q.Q.Q.Q.Q.Q.Q.Q.Q.Q.Q.Q."
};
