/* XPM */
static char *bg[] = {
/* columns rows colors chars-per-pixel */
"24 24 10 1",
"  c black",
". c #7E5438",
"X c #00956D",
"o c #00966E",
"O c #00976F",
"+ c #D62612",
"@ c #DA2410",
"# c #96D4C3",
"$ c gray100",
"% c None",
/* pixels */
"%%%%%%%%%%%%%%%%%%%%%%%%",
"%%%%%%%%%%%%%%%%%%%%%%%%",
"%%%%%%%%%%%%%%%%%%%%%%%%",
"%%%%%%%%%%%%%%%%%%%%%%%%",
"$$$$$$$$$$$$$$$$$$$$$$$$",
"$$$$$$$$$$$$$$$$$$$$$$$$",
"$$$$$$$$$$$$$$$$$$$$$$$$",
"$$$$$$$$$$$$$$$$$$$$$$$$",
"$$$$$$$$$$$$$$$$$$$$$$$$",
"########################",
"XXXXXXXXXXXXXXXXXXXXXXXX",
"XXXXXXXOXXXXXXXXXOOXXXXX",
"XXXOOOXOXXOOXOOXXXOXOOXX",
"OOOOOOOOOOOOOOOOOOOOOOOO",
"........................",
"@@@@@@@@@@@@@@@@@@@@@@@@",
"++++++++++++++++++++++++",
"++++++++++++++++++++++++",
"++++++++++++++++++++++++",
"++++++++++++++++++++++++",
"%%%%%%%%%%%%%%%%%%%%%%%%",
"%%%%%%%%%%%%%%%%%%%%%%%%",
"%%%%%%%%%%%%%%%%%%%%%%%%",
"%%%%%%%%%%%%%%%%%%%%%%%%"
};
