/* XPM */
static char *br[] = {
/* columns rows colors chars-per-pixel */
"24 24 94 2",
"   c black",
".  c #25126E",
"X  c #28166F",
"o  c #241270",
"O  c #261571",
"+  c #291770",
"@  c #2B1971",
"#  c #2B1972",
"$  c #2B1A72",
"%  c #2A1974",
"&  c #2B1A75",
"*  c #2B1B75",
"=  c #2C1A71",
"-  c #2C1A72",
";  c #2E1D73",
":  c #2F1E74",
">  c #2F1E77",
",  c #301D6B",
"<  c #331F69",
"1  c #301F78",
"2  c #33206D",
"3  c #34206A",
"4  c #35216B",
"5  c #312275",
"6  c #352778",
"7  c #382770",
"8  c #3C2A73",
"9  c #4E3559",
"0  c #4F365A",
"q  c #50375A",
"w  c #533A5C",
"e  c #553C5E",
"r  c #433374",
"t  c #41347F",
"y  c #463975",
"u  c #665069",
"i  c #463C82",
"p  c #4D4987",
"a  c #58558E",
"s  c #606293",
"d  c #687198",
"f  c #6E7A9E",
"g  c #757EA0",
"h  c #7C7DA5",
"j  c #00923F",
"k  c #01923F",
"l  c #02923F",
"z  c #04923E",
"x  c #0E953C",
"c  c #15963A",
"v  c #1D9838",
"b  c #289A35",
"n  c #389D31",
"m  c #009140",
"M  c #009240",
"N  c #019240",
"B  c #45A02D",
"V  c #4EA12B",
"C  c #6AA824",
"Z  c #7AAA20",
"A  c #8AAD1C",
"S  c #AA812A",
"D  c #AB822A",
"F  c #AC8229",
"G  c #AE842B",
"H  c #AD842C",
"J  c #AF872D",
"K  c #BCB70F",
"L  c #BDB70F",
"P  c #B0B612",
"I  c #CD9E17",
"U  c #CB9D18",
"Y  c #CEA11A",
"T  c #CCBA0B",
"R  c #DBBF07",
"E  c #DEBC07",
"W  c #DEBC08",
"Q  c #DDB324",
"!  c #E3B40A",
"~  c #E7B409",
"^  c #E7B40A",
"/  c #EEBD0F",
"(  c #F0BF10",
")  c #E9C004",
"_  c #F9C300",
"`  c #FAC300",
"'  c #F9C400",
"]  c #FAC400",
"[  c #FBC500",
"{  c #FCC400",
"}  c #FCC500",
"|  c #80879B",
" . c #929085",
".. c None",
/* pixels */
"................................................",
"................................................",
"................................................",
"j j j j j j j j j j j j j j j j j j j j j j j j ",
"j j j j j j j j j j j N N j j j j j j j j j j j ",
"j j j j j j j j j j N b b N j j j j j j j j j j ",
"j j j j j j j j N x C R R C x N j j j j j j j j ",
"j j j j j j j j n P ! I I ! P n j j j j j j j j ",
"j j j j j N c Z R F q < < q F ! Z c N j j j j j ",
"j j j N z B K ' J 7 & + . o , D ' K B z N j j j ",
"j j N v A ) } (  .f g h s i O 9 ! } ) A v N j j ",
"j j V T ` ` } Y r 5 6 t a g d y U } ` ` T V j j ",
"j j V T ` ` ' U 3 @ @ @ @ = p | Q } ` ` T V j j ",
"j j N v A ) } ! e > = : : X * u / } ) A v N j j ",
"j j j N z B K ' D 2 @ + = 1 8 G ' K B z N j j j ",
"j j j j j N c Z W F q < 3 w G R Z c N j j j j j ",
"j j j j j j j j n P ! U U ! P n j j j j j j j j ",
"j j j j j j j j N c C R R C x N j j j j j j j j ",
"j j j j j j j j j j N b b N j j j j j j j j j j ",
"j j j j j j j j j j j N N j j j j j j j j j j j ",
"j j j j j j j j j j j j j j j j j j j j j j j j ",
"................................................",
"................................................",
"................................................"
};
