/* XPM */
static char *ca[] = {
/* columns rows colors chars-per-pixel */
"24 24 49 1",
"  c black",
". c red",
"X c #FF0101",
"o c #FF0E0E",
"O c #FF1717",
"+ c #FF1919",
"@ c #FF1F1F",
"# c #FF2222",
"$ c #FF2929",
"% c #FF2B2B",
"& c #FF3030",
"* c #FF3131",
"= c #FF3535",
"- c #FF3838",
"; c #FF3939",
": c #FF4040",
"> c #FF4343",
", c #FF5E5E",
"< c #FF5F5F",
"1 c #FF6D6D",
"2 c #FF6E6E",
"3 c #FF6F6F",
"4 c #FF7171",
"5 c #FF7272",
"6 c #FFACAC",
"7 c #FFAFAF",
"8 c #FFB7B7",
"9 c #FFB9B9",
"0 c #FFC2C2",
"q c #FFC4C4",
"w c #FFC8C8",
"e c #FFCACA",
"r c #FFD3D3",
"t c #FFD4D4",
"y c #FFD5D5",
"u c #FFD6D6",
"i c #FFD7D7",
"p c #FFD9D9",
"a c #FFE0E0",
"s c #FFE3E3",
"d c #FFE5E5",
"f c #FFEEEE",
"g c #FFF3F3",
"h c #FFF4F4",
"j c #FFFCFC",
"k c #FFFDFD",
"l c #FFFEFE",
"z c gray100",
"x c None",
/* pixels */
"xxxxxxxxxxxxxxxxxxxxxxxx",
"xxxxxxxxxxxxxxxxxxxxxxxx",
"xxxxxxxxxxxxxxxxxxxxxxxx",
"xxxxxxxxxxxxxxxxxxxxxxxx",
"xxxxxxxxxxxxxxxxxxxxxxxx",
".....@azzzzzzzzzzd#.....",
".....@azzzzzzzzzza#.....",
".....@azzzzq0zzzzd#.....",
".....@azzz9>>8jzza#.....",
".....@azzg4..2gzzd#.....",
".....@dp4,2..2,4td#.....",
".....@ap+.o..o.Ord#.....",
".....@at$......$rd#.....",
".....@azw;....=wzd#.....",
".....@pzz8&;;&6zza#.....",
".....#azzgftrfhzzd#.....",
".....@azzzzttzzzza#.....",
".....@azzzzffzzzzd#.....",
".....@azzzzzzzzzza#.....",
"xxxxxxxxxxxxxxxxxxxxxxxx",
"xxxxxxxxxxxxxxxxxxxxxxxx",
"xxxxxxxxxxxxxxxxxxxxxxxx",
"xxxxxxxxxxxxxxxxxxxxxxxx",
"xxxxxxxxxxxxxxxxxxxxxxxx"
};
