/* XPM */
static char *cn[] = {
/* columns rows colors chars-per-pixel */
"24 24 79 1",
"  c black",
". c #FF2A00",
"X c #FF2C00",
"o c #FF2E00",
"O c #FF2F00",
"+ c #FF3000",
"@ c #FF3100",
"# c #FF3200",
"$ c #FF3300",
"% c #FF3400",
"& c #FF3500",
"* c #FF3600",
"= c #FF3700",
"- c #FF3800",
"; c #FF3900",
": c #FF3A00",
"> c #FF3B00",
", c #FF3C00",
"< c #FF3E00",
"1 c #FF3F00",
"2 c #FF4000",
"3 c #FF4100",
"4 c #FF4200",
"5 c #FF4400",
"6 c OrangeRed",
"7 c #FF4800",
"8 c #FF4900",
"9 c #FF4A00",
"0 c #FF4B00",
"q c #FF4D00",
"w c #FF5000",
"e c #FF5300",
"r c #FF5400",
"t c #FF5500",
"y c #FF5600",
"u c #FF5800",
"i c #FF5A00",
"p c #FF5C00",
"a c #FF5F00",
"s c #FF6000",
"d c #FF6200",
"f c #FF6300",
"g c #FF6B00",
"h c #FF6E00",
"j c #FF7500",
"k c #FF7700",
"l c #FF7D00",
"z c #FF7E00",
"x c #FF8300",
"c c #FF8600",
"v c #FF8700",
"b c #FF8800",
"n c #FF9000",
"m c #FF9700",
"M c #FF9A00",
"N c #FF9C00",
"B c #FFA200",
"V c orange",
"C c #FFA700",
"Z c #FFA800",
"A c #FFAC00",
"S c #FFB700",
"D c #FFBB00",
"F c #FFBD00",
"G c #FFC900",
"H c #FFD100",
"J c #FFD900",
"K c #FFDB00",
"L c #FFDD00",
"P c #FFE000",
"I c #FFE900",
"U c #FFF100",
"Y c #FFF600",
"T c #FFFA00",
"R c #FFFC00",
"E c #FFFD00",
"W c #FFFE00",
"Q c yellow",
"! c None",
/* pixels */
"!!!!!!!!!!!!!!!!!!!!!!!!",
"!!!!!!!!!!!!!!!!!!!!!!!!",
"$$$$$$$$$$$$$$$.$$$$$$$$",
"$$$$$$$$$$$$$$=3=$$$$$$$",
"$$$$$=3=$$$$$$dFu$$$$$$$",
"$$$$$qb=$$$$$$uBe$$$$$$$",
"$$$$XjK7$$$$$$$=$$$$$$$$",
"$=qyySEvey7$$$$$$$$$$$$$",
"$=xLUTEYUGp$$$$$$<3=$$$$",
"$$=hLEEEDq$$$$$$=MV;$$$$",
"$$$$AEEEjX=$$$$$=lv;$$$$",
"$$$6KHMIA$$$$$$$$==$$$$$",
"$$$dB7$pV3$$$$$$=$$$$$$$",
"$$$<;$$$<;$$$$$$37=$$$$$",
"$$$$$$$$$$$$$$$=mD6$$$$$",
"$$$$$$$$$$$$$$$$gl;$$$$$",
"$$$$$$$$$$$$$$$$$$$$$$$$",
"$$$$$$$$$$$$$=$$$$$$$$$$",
"$$$$$$$$$$$=lb;$$$$$$$$$",
"$$$$$$$$$$$=MV<$$$$$$$$$",
"$$$$$$$$$$$=<6$$$$$$$$$$",
"$$$$$$$$$=$$XX$$$$$$$$$$",
"!!!!!!!!!!!!!!!!!!!!!!!!",
"!!!!!!!!!!!!!!!!!!!!!!!!"
};
