/* XPM */
static char *cu[] = {
/* columns rows colors chars-per-pixel */
"24 24 59 1",
"  c black",
". c #2A277F",
"X c #362475",
"o c #701E59",
"O c #732660",
"+ c #00298E",
"@ c #002A8F",
"# c #032A8F",
"$ c #002A90",
"% c #002C91",
"& c #002C98",
"* c #083193",
"= c #093193",
"- c #1C2782",
"; c #17308C",
": c #AE173A",
"> c #BC1634",
", c #951A47",
"< c #87487A",
"1 c #CE1027",
"2 c #CE1128",
"3 c #CF1229",
"4 c #CF132A",
"5 c #CF142B",
"6 c #C21B37",
"7 c #D11228",
"8 c #D11329",
"9 c #D0142A",
"0 c #D1142A",
"q c #D0172D",
"w c #D0192F",
"e c #D4192E",
"r c #D41A2F",
"t c #D01A31",
"y c #D11D33",
"u c #D11E34",
"i c #D42A3F",
"p c #D42C40",
"a c #D42D41",
"s c #D84154",
"d c #DF6170",
"f c #E05362",
"g c #E16A78",
"h c #E16C7A",
"j c #E37582",
"k c #9397C3",
"l c #96A7D1",
"z c #96A8D1",
"x c #97ABD4",
"c c #BFCAE4",
"v c #DFBECB",
"b c #F5BCC1",
"n c #C0CAE3",
"m c #C0CAE4",
"M c #F5CDD2",
"N c #F6D2D7",
"B c snow",
"V c gray100",
"C c None",
/* pixels */
"CCCCCCCCCCCCCCCCCCCCCCCC",
"CCCCCCCCCCCCCCCCCCCCCCCC",
"CCCCCCCCCCCCCCCCCCCCCCCC",
"CCCCCCCCCCCCCCCCCCCCCCCC",
"CCCCCCCCCCCCCCCCCCCCCCCC",
".&$#####################",
",X#$####################",
"9>o-%#####+#####+#######",
"599:<kxzllllllllllllllll",
"5557efbBVVVVVVVVVVVVVVVV",
"55wsw3ugvcccnnccnnnnnnnn",
"3yjMht53>O;*============",
"53hNd3536O;=============",
"55ipi1ugvncnnnnnnnnnnnnn",
"5557efbBVVVVVVVVVVVVVVVV",
"599:<kzzllllllllllllllll",
"9>o-%########+#########+",
",X#$####################",
".&$#####################",
"CCCCCCCCCCCCCCCCCCCCCCCC",
"CCCCCCCCCCCCCCCCCCCCCCCC",
"CCCCCCCCCCCCCCCCCCCCCCCC",
"CCCCCCCCCCCCCCCCCCCCCCCC",
"CCCCCCCCCCCCCCCCCCCCCCCC"
};
