/* XPM */
static char *ee[] = {
/* columns rows colors chars-per-pixel */
"24 24 7 1",
"  c black",
". c #1D3A61",
"X c #6C6C6C",
"o c #3A75C4",
"O c #3B77C7",
"+ c gray100",
"@ c None",
/* pixels */
"@@@@@@@@@@@@@@@@@@@@@@@@",
"@@@@@@@@@@@@@@@@@@@@@@@@",
"@@@@@@@@@@@@@@@@@@@@@@@@",
"@@@@@@@@@@@@@@@@@@@@@@@@",
"oooooooooooooooooooooooo",
"oooooooooooooooooooooooo",
"oooooooooooooooooooooooo",
"oooooooooooooooooooooooo",
"OOOOOOOooOOOOOOOoOOOOOOO",
"........................",
"                        ",
"                        ",
"                        ",
"                        ",
"XXXXXXXXXXXXXXXXXXXXXXXX",
"++++++++++++++++++++++++",
"++++++++++++++++++++++++",
"++++++++++++++++++++++++",
"++++++++++++++++++++++++",
"++++++++++++++++++++++++",
"++++++++++++++++++++++++",
"@@@@@@@@@@@@@@@@@@@@@@@@",
"@@@@@@@@@@@@@@@@@@@@@@@@",
"@@@@@@@@@@@@@@@@@@@@@@@@"
};
