/* XPM */
static char *es[] = {
/* columns rows colors chars-per-pixel */
"24 24 60 1",
"  c black",
". c #7D4530",
"X c #924D1A",
"o c #98471F",
"O c #9B5227",
"+ c #A15710",
"@ c #A25C14",
"# c #AC541A",
"$ c #BF7C11",
"% c #B96E25",
"& c #B37821",
"* c #C60A1E",
"= c #C60B1E",
"- c #CD211A",
"; c #CD2219",
": c #CD221A",
"> c #CE221A",
", c #C2720E",
"< c #C67822",
"1 c #A37786",
"2 c #BEA734",
"3 c #BFA834",
"4 c #B38275",
"5 c #CF8B12",
"6 c #CB9710",
"7 c #D29008",
"8 c #D2930B",
"9 c #D79E0C",
"0 c #CB8B3B",
"q c #CA8C3B",
"w c #CF973F",
"e c #D0993F",
"r c #D2A71C",
"t c #D3A71C",
"y c #EAA70E",
"u c #EDA80F",
"i c #EDA710",
"p c #EEB505",
"a c #F3AA07",
"s c #F6AD05",
"d c #F7AD05",
"f c #F7AE04",
"g c #F9AF03",
"h c #F8AE04",
"j c #F1B700",
"k c #F1B800",
"l c #F9BC03",
"z c #FABC03",
"x c #FABD02",
"c c #C7956F",
"v c #D2AB54",
"b c #FAC203",
"n c #F9C204",
"m c #FDC201",
"M c #FDC301",
"N c #FEC300",
"B c #FFC400",
"V c #FFC500",
"C c #FFC600",
"Z c None",
/* pixels */
"ZZZZZZZZZZZZZZZZZZZZZZZZ",
"ZZZZZZZZZZZZZZZZZZZZZZZZ",
"ZZZZZZZZZZZZZZZZZZZZZZZZ",
"========================",
"================***====*",
"================**=====*",
"================********",
"----------------::::::::",
"ggddhhhddhhhhhhhggjhhhhh",
"BBBBBBp99pBBBBBBBBBBBBBB",
"BBBBBk7+@7jmBBBBBBBBBBBB",
"BBBBBt,o4vrmBBBBBBBBBBBB",
"BBBBl0#.1cqlBBBBBBBBBBBB",
"BBBBze$XO<wlBBBBBBBBBBBB",
"BBBBn36&%52nBBBBBBBBBBBB",
"hhhjdyauiaidhjgghhghhghh",
"------------------------",
"====================****",
"========================",
"========================",
"========================",
"ZZZZZZZZZZZZZZZZZZZZZZZZ",
"ZZZZZZZZZZZZZZZZZZZZZZZZ",
"ZZZZZZZZZZZZZZZZZZZZZZZZ"
};
