/* XPM */
static char *fr[] = {
/* columns rows colors chars-per-pixel */
"24 24 11 1",
"  c black",
". c #001E9E",
"X c #00209F",
"o c #1F3BAB",
"O c #F42840",
"+ c #F42A41",
"@ c #F54458",
"# c #E0E4F3",
"$ c #FEE5E8",
"% c gray100",
"& c None",
/* pixels */
"&&&&&&&&&&&&&&&&&&&&&&&&",
"&&&&&&&&&&&&&&&&&&&&&&&&",
"&&&&&&&&&&&&&&&&&&&&&&&&",
"XXXXXX.o#%%%%%%$@O++++++",
"XXXXXX.o#%%%%%%$@O++++++",
"XXXXXX.o#%%%%%%$@O++++++",
"XXXXXX.o#%%%%%%$@O++++++",
"XXXXXX.o#%%%%%%$@O++++++",
"XXXXXX.o#%%%%%%$@O++++++",
"XXXXXX.o#%%%%%%$@O++++++",
"XXXXXX.o#%%%%%%$@O++++++",
"XXXXXX.o#%%%%%%$@O++++++",
"XXXXXX.o#%%%%%%$@O++++++",
"XXXXXX.o#%%%%%%$@O++++++",
"XXXXXX.o#%%%%%%$@O++++++",
"XXXXXX.o#%%%%%%$@O++++++",
"XXXXXX.o#%%%%%%$@O++++++",
"XXXXXX.o#%%%%%%$@O++++++",
"XXXXXX.o#%%%%%%$@OO+++++",
"XXXXXX.o#%%%%%%$@OOO++++",
"XXXXXX.o#%%%%%%$@O++++++",
"&&&&&&&&&&&&&&&&&&&&&&&&",
"&&&&&&&&&&&&&&&&&&&&&&&&",
"&&&&&&&&&&&&&&&&&&&&&&&&"
};
