/* XPM */
static char *gb[] = {
/* columns rows colors chars-per-pixel */
"24 24 20 1",
"X c #00227C",
"$ c #1E418F",
"3 c #526EAA",
"8 c #D21D32",
"q c #DB505F",
"r c #CB6379",
"i c #E36F7C",
"p c #856894",
"f c #9E7498",
"l c #A889A9",
"x c #94A6CB",
"m c #A8B9D8",
"Z c #D5A9B9",
"S c #E7818D",
"D c #EA96A0",
"R c #F3BBC0",
"` c #FADBDE",
"' c #E3DFE9",
"{ c #F8F4F7",
"| c None",
/* pixels */
"||||||||||||||||||||||||",
"||||||||||||||||||||||||",
"||||||||||||||||||||||||",
"||||||||||||||||||||||||",
"||||||||||||||||||||||||",
"R{'$XXXXX$Z88Z$XXXXX$Z8q",
"iR{m$XXXX$Z88Z$XXXX$fiiR",
"priR'x$XX$Z88Z$XX$priR'x",
"X$priR'x$$Z88Z$$priR'x$X",
"$$$3liS`{mZ88ZxSiR{m3$$$",
"ZZZZZRRRRRD88DRRRRRZZZZZ",
"888888888888888888888888",
"888888888888888888888888",
"ZZZZZRRRRRD88DRRRRRZZZZZ",
"$$$3m{RiSxZ88Zm{`Sil3$$$",
"X$x'Rirp$$Z88Z$$x'Rirp$X",
"x'Rirp$XX$Z88Z$XX$x'Rirp",
"Riif$XXXX$Z88Z$XXXX$m{Ri",
"q8Z$XXXXX$Z88Z$XXXXX$'{R",
"||||||||||||||||||||||||",
"||||||||||||||||||||||||",
"||||||||||||||||||||||||",
"||||||||||||||||||||||||",
"||||||||||||||||||||||||"
};
