/* XPM */
static char *jp[] = {
/* columns rows colors chars-per-pixel */
"24 24 43 1",
"  c black",
". c #BD0022",
"X c #BD0023",
"o c #BE0026",
"O c #C4193B",
"+ c #C41B3B",
"@ c #C51B3D",
"# c #C51D3D",
"$ c #C51C3E",
"% c #C51D3E",
"& c #C61E40",
"* c #C62040",
"= c #CF425E",
"- c #CF435E",
"; c #CF435F",
": c #CF445F",
"> c #D04763",
", c #D04863",
"< c #D04963",
"1 c #DB7085",
"2 c #DB7185",
"3 c #DB7287",
"4 c #DB7387",
"5 c #DC768A",
"6 c #DC778A",
"7 c #DC798C",
"8 c #DD788C",
"9 c #E7A2B0",
"0 c #E8A6B3",
"q c #E9AAB7",
"w c #F1C9D1",
"e c #F2CCD3",
"r c #F2CDD5",
"t c #F2CED5",
"y c #F3CFD7",
"u c #F3D0D7",
"i c #FDF7F8",
"p c #FDF9FA",
"a c #FFFDFE",
"s c #FFFEFE",
"d c #FFFEFF",
"f c gray100",
"g c None",
/* pixels */
"gggggggggggggggggggggggg",
"gggggggggggggggggggggggg",
"gggggggggggggggggggggggg",
"ffffffffffffffffffffffff",
"ffffffffffffffffffffffff",
"ffffffffffffffffffffffff",
"fffffffffffppfffffffffff",
"fffffffffu8,>5tfffffffff",
"ffffffffq&XXXX$0ffffffff",
"ffffffft*XooooX$efffffff",
"fffffff8XooooooX3fffffff",
"ffffffp,XooooooX:iffffff",
"ffffffp,XooooooX;iffffff",
"fffffff5XooooooX3fffffff",
"ffffffft$XooooX+wfffffff",
"ffffffff0@XXXX+9ffffffff",
"fffffffffe3;;3wfffffffff",
"fffffffffffiifffffffffff",
"ffffffffffffffffffffffff",
"ffffffffffffffffffffffff",
"ffffffffffffffffffffffff",
"gggggggggggggggggggggggg",
"gggggggggggggggggggggggg",
"gggggggggggggggggggggggg"
};
