/* XPM */
static char *km[] = {
/* columns rows colors chars-per-pixel */
"24 24 121 2",
"   c black",
".  c #53782E",
"X  c #7F552D",
"o  c #6B672C",
"O  c #5B696A",
"+  c #3B7F89",
"@  c #3B7F8C",
"#  c #3B7BA1",
"$  c #3A76BD",
"%  c #3A78B2",
"&  c #3A75C3",
"*  c #3976C5",
"=  c #3A75C4",
"-  c #3A75C5",
";  c #3B74C5",
":  c #3A75C6",
">  c #3A74C9",
",  c #398C2F",
"<  c #3B8C30",
"1  c #3B8D31",
"2  c #3A8D33",
"3  c #3B8D33",
"4  c #3C8D31",
"5  c #3C8D32",
"6  c #3C8E30",
"7  c #3C8E32",
"8  c #3C8F33",
"9  c #3D8E32",
"0  c #3D8E33",
"q  c #3D8D36",
"w  c #3A8B3B",
"e  c #3B9033",
"r  c #3D8A4B",
"t  c #3D8A4C",
"y  c #3C875F",
"u  c #3B8274",
"i  c #41892F",
"p  c #488532",
"a  c #4D922F",
"s  c #439032",
"d  c #419037",
"f  c #41923B",
"g  c #429139",
"h  c #46933C",
"j  c #47943E",
"k  c #48943F",
"l  c #63992F",
"z  c #649A30",
"x  c #7EA12C",
"c  c #4B9642",
"v  c #4E9845",
"b  c #4F9845",
"n  c #4F9946",
"m  c #529A4A",
"M  c #539B4A",
"N  c #529B4C",
"B  c #559C4B",
"V  c #549C4C",
"C  c #5DA054",
"Z  c #5DA155",
"A  c #62A35A",
"S  c #63A45B",
"D  c #62A65C",
"F  c #64A55C",
"G  c #65A55E",
"H  c #67A760",
"J  c #69A862",
"K  c #6BA963",
"L  c #78B071",
"P  c #79B172",
"I  c #7EB57B",
"U  c #AE2D26",
"Y  c #BC2128",
"T  c #913A67",
"R  c #933967",
"E  c #9B4531",
"W  c #8A4068",
"Q  c #CE0F24",
"!  c #CF0F25",
"~  c #D10F23",
"^  c #D20E23",
"/  c #D01023",
"(  c #D22E3F",
")  c #D42E40",
"_  c #9BA927",
"`  c #B8B126",
"'  c #84B77E",
"]  c #86B87F",
"[  c #BBC05D",
"{  c #C1B524",
"}  c #D6BA22",
"|  c #F7C41F",
" . c #FFC61D",
".. c #FEC61E",
"X. c #FFC61E",
"o. c #FFC71E",
"O. c #FFC71F",
"+. c #FEC81D",
"@. c #EBC020",
"#. c #94C18F",
"$. c #98C393",
"%. c #9DC697",
"&. c #BED5B7",
"*. c #BCD8B9",
"=. c #C0DABD",
"-. c #C2DBBF",
";. c #F7E49B",
":. c #FFE8A2",
">. c #FFE9A5",
",. c #C4DDC1",
"<. c #C7DEC4",
"1. c #C8DFC5",
"2. c #D6E8D8",
"3. c #EBF3EA",
"4. c #EDF5EC",
"5. c #EEF5ED",
"6. c #F7E3E5",
"7. c #F9E2E5",
"8. c #FDFEFE",
"9. c gray100",
"0. c None",
/* pixels */
"0.0.0.0.0.0.0.0.0.0.0.0.0.0.0.0.0.0.0.0.0.0.0.0.",
"0.0.0.0.0.0.0.0.0.0.0.0.0.0.0.0.0.0.0.0.0.0.0.0.",
"0.0.0.0.0.0.0.0.0.0.0.0.0.0.0.0.0.0.0.0.0.0.0.0.",
"0.0.0.0.0.0.0.0.0.0.0.0.0.0.0.0.0.0.0.0.0.0.0.0.",
"{ +.o.o.o.o. . .X.X.X.X.O.o.o.o.X.X.X.X. . .o.o.",
"l ` | o.o.o. . .X.X.X.X.O.o.o.o.X.X.X.X. . .o.o.",
"3 s x } o.o.o. .X.X.X.X.X.X. . .X.X. . . . .o.o.",
"0 0 3 a _ @.o. . . . . . . . . . . . . . . .o.o.",
"0 0 k G m l [ ;.>.>.:.:.:.:.:.:.:.:.:.:.:.:.:.:.",
"3 C =.$.L m g I 2.8.9.9.9.9.9.9.9.9.9.9.9.9.9.9.",
"h ,.=.g C b 0 , b %.3.9.9.9.9.9.9.9.9.9.9.9.9.9.",
"S 4.] , J V 0 0 3 3 S &.6.7.7.7.7.7.7.7.7.7.7.7.",
"G 4.' , H M 0 0 3 3 . E ( ) ) ) ) ) ) ) ) ) ) ) ",
"j 1.*.d C b 0 e p X Y Q Q Q Q Q Q Q Q Q ! ! ! ! ",
"3 A ,.#.L B i o U / ^ ^ ^ ^ ^ ^ ~ ~ ~ ~ / / / / ",
"0 0 c K B t O W T T T T T T T T T T T T T T T T ",
"0 0 0 w u % = = = = = = = * * * * * * * * * * * ",
"0 q y # & = = = = = = = = = = = = = = = = = = = ",
"r @ $ = = = = = = = = = = = = = = = = = = = = = ",
"@ > = & = = = = = = = = = = = = = = = = = = = = ",
"0.0.0.0.0.0.0.0.0.0.0.0.0.0.0.0.0.0.0.0.0.0.0.0.",
"0.0.0.0.0.0.0.0.0.0.0.0.0.0.0.0.0.0.0.0.0.0.0.0.",
"0.0.0.0.0.0.0.0.0.0.0.0.0.0.0.0.0.0.0.0.0.0.0.0.",
"0.0.0.0.0.0.0.0.0.0.0.0.0.0.0.0.0.0.0.0.0.0.0.0."
};
