/* XPM */
static char *kz[] = {
/* columns rows colors chars-per-pixel */
"24 24 166 2",
"   c black",
".  c #6DDCFF",
"X  c #6FDCFD",
"o  c #6EDCFF",
"O  c #6FDCFE",
"+  c #6FDCFF",
"@  c #7FDDE1",
"#  c #7DDDE5",
"$  c #7CDDE7",
"%  c #7DDDE6",
"&  c #7DDDE7",
"*  c #7EDDE4",
"=  c #7BDDE8",
"-  c #7ADDEA",
";  c #7ADDEB",
":  c #79DDEC",
">  c #79DDED",
",  c #78DCEF",
"<  c #78DDEF",
"1  c #79DCEE",
"2  c #7ADDEC",
"3  c #77DCF0",
"4  c #77DCF1",
"5  c #77DCF2",
"6  c #74DCF4",
"7  c #74DCF5",
"8  c #75DCF4",
"9  c #74DCF6",
"0  c #71DCFA",
"q  c #72DCF8",
"w  c #72DCF9",
"e  c #73DCF8",
"r  c #73DCF9",
"t  c #72DCFA",
"y  c #70DCFD",
"u  c #70DCFE",
"i  c #B7E07F",
"p  c #BFE171",
"a  c #BDE076",
"s  c #BBE078",
"d  c #BAE07A",
"f  c #BAE07B",
"g  c #B8E07D",
"h  c #B9E07C",
"j  c #DCE23D",
"k  c #DCE23E",
"l  c #DCE23F",
"z  c #EEE31F",
"x  c #F7E40E",
"c  c #FDE403",
"v  c #FEE401",
"b  c #FFE400",
"n  c #FFE401",
"m  c #F9E40B",
"M  c #FAE409",
"N  c #F5E311",
"B  c #F0E31B",
"V  c #EBE323",
"C  c #EAE325",
"Z  c #EAE326",
"A  c #CEE157",
"S  c #C9E15F",
"D  c #CBE15C",
"F  c #CAE15E",
"G  c #CDE158",
"H  c #D4E24C",
"J  c #D8E244",
"K  c #D0E153",
"L  c #D1E152",
"P  c #D0E154",
"I  c #C7E162",
"U  c #C5E167",
"Y  c #C6E165",
"T  c #C2E16B",
"R  c #C1E16D",
"E  c #C1E06E",
"W  c #C2E16C",
"Q  c #C4E168",
"!  c #C4E169",
"~  c #C8E161",
"^  c #9FDFAB",
"/  c #9DDFAD",
"(  c #9EDFAC",
")  c #97DEB7",
"_  c #93DEBF",
"`  c #95DEBB",
"'  c #96DEB9",
"]  c #97DEB8",
"[  c #97DEB9",
"{  c #96DEBA",
"}  c #96DEBB",
"|  c #94DEBC",
" . c #94DEBD",
".. c #94DEBE",
"X. c #9BDFB1",
"o. c #9ADEB3",
"O. c #9ADFB2",
"+. c #9BDEB2",
"@. c #99DEB4",
"#. c #98DEB6",
"$. c #99DEB6",
"%. c #9CDEB0",
"&. c #A7DF9B",
"*. c #A5DF9F",
"=. c #A6DF9D",
"-. c #A7DF9C",
";. c #A6DF9E",
":. c #ADDF91",
">. c #ACDF92",
",. c #ADDF92",
"<. c #A8DF99",
"1. c #A9DF99",
"2. c #A8DF9A",
"3. c #A3DFA2",
"4. c #A3DFA3",
"5. c #A1DFA6",
"6. c #A1DFA7",
"7. c #A2DFA4",
"8. c #A2DFA5",
"9. c #A3DFA4",
"0. c #A5DFA0",
"q. c #A4DFA2",
"w. c #A0DFA8",
"e. c #A0DFA9",
"r. c #AFE08D",
"t. c #AEE08E",
"y. c #B3E087",
"u. c #B5E083",
"i. c #B6E081",
"p. c #B7E080",
"a. c #B4E085",
"s. c #B1E08A",
"d. c #B1E08B",
"f. c #B2E088",
"g. c #B0E08C",
"h. c #8FDEC7",
"j. c #8BDECD",
"k. c #8ADECE",
"l. c #8BDECE",
"z. c #8DDEC8",
"x. c #8DDECA",
"c. c #8EDEC8",
"v. c #8CDECC",
"b. c #85DDD7",
"n. c #86DDD6",
"m. c #86DDD7",
"M. c #83DDDB",
"N. c #81DDDF",
"B. c #82DDDC",
"V. c #82DDDD",
"C. c #83DDDC",
"Z. c #84DDD9",
"A. c #85DDD8",
"S. c #85DDD9",
"D. c #84DDDA",
"F. c #89DDD1",
"G. c #88DDD3",
"H. c #89DDD2",
"J. c #8ADDD0",
"K. c #91DEC2",
"L. c #91DEC3",
"P. c #92DEC1",
"I. c #93DEC0",
"U. c #90DEC5",
"Y. c #80DDE1",
"T. c None",
/* pixels */
"T.T.T.T.T.T.T.T.T.T.T.T.T.T.T.T.T.T.T.T.T.T.T.T.",
"T.T.T.T.T.T.T.T.T.T.T.T.T.T.T.T.T.T.T.T.T.T.T.T.",
"+ Z.z.7 + + + + + + + + + + + + + + + + + + + + ",
"w { w.Y.+ + + + + + + + + + + + + + + + + + + + ",
"w w.:.Z.+ + + + + + + + + + + + + + + + + + + + ",
"w 2.s Z.+ + + + + + + w 7 5 5 + + + + + + + + + ",
"y v.{ : + + + + + w m.o.*.r.>.h.5 + + + + + + + ",
"5 #.^ m.+ + + + 9 | a I A H A T / 5 + + + + + + ",
"= >.u.| + + + + F.U D B b b x H s K.w + + + + + ",
": ^ &.k.+ + + w 3.A C b b b b m ! 2.: + + + + + ",
"+ k.h.- + + + w 5.L M b b b b b L s m.+ w + + + ",
"w 5.y.C.+ + w = 5.U N b b b b b L s @ : U.w + + ",
"w *.i M.+ + # ^ { i J b b b b C D i.z.3.*.: + + ",
"+ k.K.- + + F.I  .*.p H C z j T E 5.I k y.Y.+ + ",
": o.3.F.+ + { 0.{ C.*.! ! h i.i.5.2.{ D s.7 + + ",
"$ :.i.| + + Z.{ m.K.M.z.{  .{ 5.0.C.g.! # y + + ",
", o.5.F.+ + + m.#.K.{ v.F.o.o.Z.k.U a.C.+ + + + ",
"y k.I.: + + + + : z.# | 5.h.# k.5.#.w + + + + + ",
"w *.h Z.+ + + + + + # ) r.E H k y.C.+ + + + + + ",
"w 5.s.Z.+ + + + + + + + - m.Z.# w y + + + + + + ",
"w { 5.Y.+ + + + + + + + + + + + + + + + + + + + ",
"y z.#.: + + + + + + + + + + + + + + + + + + + + ",
"T.T.T.T.T.T.T.T.T.T.T.T.T.T.T.T.T.T.T.T.T.T.T.T.",
"T.T.T.T.T.T.T.T.T.T.T.T.T.T.T.T.T.T.T.T.T.T.T.T."
};
