/* XPM */
static char *mm[] = {
/* columns rows colors chars-per-pixel */
"24 24 62 1",
"  c black",
". c #373E90",
"X c #373F90",
"o c #373F91",
"O c #383F90",
"+ c #1D41A2",
"@ c #1D42A2",
"# c #1D42A3",
"$ c #1F41A1",
"% c #1E42A2",
"& c #1F42A2",
"* c #2042A1",
"= c #2345A2",
"- c #2445A3",
"; c #2446A3",
": c #2547A3",
"> c #2649A5",
", c #294AA5",
"< c #2A4AA5",
"1 c #2E4EA7",
"2 c #3757AC",
"3 c #3A58AC",
"4 c #3D5BAD",
"5 c #404693",
"6 c #4A4F98",
"7 c #51559B",
"8 c #55589C",
"9 c #415EAF",
"0 c #4763B2",
"q c #4965B2",
"w c #506AB5",
"e c #516CB6",
"r c #516DB7",
"t c #5A73B9",
"y c #5B74BA",
"u c #5D76BB",
"i c #5E78BD",
"p c #687FBF",
"a c #7A8EC7",
"s c #7B91C9",
"d c #7F93C9",
"f c #8E3652",
"g c #98344B",
"h c #DB2D1B",
"j c #DA2D1C",
"k c #DD2D1A",
"l c #C32E2B",
"z c #C42E2B",
"x c #C42F2B",
"c c #C52F2B",
"v c #D12E22",
"b c #8297CC",
"n c #8799CC",
"m c #9DACD6",
"M c #AEBBDD",
"N c #B0BCDE",
"B c #C0CAE4",
"V c #C3CCE6",
"C c #CDD5EA",
"Z c #D8DEEF",
"A c #E2E6F2",
"S c None",
/* pixels */
"SSSSSSSSSSSSSSSSSSSSSSSS",
"SSSSSSSSSSSSSSSSSSSSSSSS",
"SSSSSSSSSSSSSSSSSSSSSSSS",
"SSSSSSSSSSSSSSSSSSSSSSSS",
"SSSSSSSSSSSSSSSSSSSSSSSS",
"**$*,1=$*$fkjjjjjjjjjjjj",
"**-9tyw,$$fkjjjjjjjjjjjj",
"*$3pMBdq*$fkjjjjjjjjjjjj",
"*$0nVZNu>$fkjjjjjjjjjjjj",
"*$4aCAme;$fkjjjjjjjjjjjj",
"$$>esbi2$#fkjjjjjjjjjjjj",
"ooX5786Xoogkjjjjjjjjjjjj",
"ccccxxxxccvjjjjjjjjjjjjj",
"hhhhjjhhjjjjjjjjjjjjjjjj",
"jjjjjjjjjjjjjjjjjjjjjjjj",
"jjjjjjjjjjjjjjjjjjjjjjjj",
"jjjjjjjjjjjjjjjjjjjjjjjj",
"jjjjjjjjjjjjjjjjjjjjjjjj",
"jjjjjjjjjjjjjjjjjjjjjjjj",
"jjjjjjjjjjjjjjjjjjjjjjjj",
"SSSSSSSSSSSSSSSSSSSSSSSS",
"SSSSSSSSSSSSSSSSSSSSSSSS",
"SSSSSSSSSSSSSSSSSSSSSSSS",
"SSSSSSSSSSSSSSSSSSSSSSSS"
};
