/* XPM */
static char *nl[] = {
/* columns rows colors chars-per-pixel */
"24 24 9 1",
"  c black",
". c #21468B",
"X c #22478C",
"o c #AE1C28",
"O c #AE1D29",
"+ c #B0BDD6",
"@ c #E2AEB3",
"# c gray100",
"$ c None",
/* pixels */
"$$$$$$$$$$$$$$$$$$$$$$$$",
"$$$$$$$$$$$$$$$$$$$$$$$$",
"$$$$$$$$$$$$$$$$$$$$$$$$",
"oooooooooooooooooooooooo",
"oooooooooooooooooooooooo",
"oooooooooooooooooooooooo",
"oooooooooooooooooooooooo",
"oooooooooooooooooooooooo",
"oooooooooooooooooooooooo",
"@@@@@@@@@@@@@@@@@@@@@@@@",
"########################",
"########################",
"########################",
"########################",
"++++++++++++++++++++++++",
"XXXXXXXXXXXXXXXXXXXXXXXX",
"........................",
"........................",
"........................",
"........................",
"........................",
"$$$$$$$$$$$$$$$$$$$$$$$$",
"$$$$$$$$$$$$$$$$$$$$$$$$",
"$$$$$$$$$$$$$$$$$$$$$$$$"
};
