/* XPM */
static char *qa[] = {
/* columns rows colors chars-per-pixel */
"24 24 22 1",
"  c black",
". c #49091C",
"X c #4E081C",
"o c #412127",
"O c #5E343C",
"+ c #6F183C",
"@ c #70193D",
"# c #71193E",
"$ c #833756",
"% c #843857",
"& c #843A59",
"* c #CDAFBB",
"= c #CDAFBC",
"- c #CEB0BD",
"; c #D2B6C1",
": c #EBE1E4",
"> c #F5EEF1",
", c #FDFCFC",
"< c #FDFCFD",
"1 c #FEFDFD",
"2 c gray100",
"3 c None",
/* pixels */
"333333333333333333333333",
"333333333333333333333333",
"333333333333333333333333",
"333333333333333333333333",
"333333333333333333333333",
"333333333333333333333333",
"222222:o.@@@@@@@@@@@@@@@",
"2222222=%+@@@@@@@@@@@@@@",
"222222,*$+@@@@@@@@@@@@@@",
"222222,*$+@@@@@@@@@@@@@@",
"222222,*$+@@@@@@@@@@@@@@",
"222222,*$+@@@@@@@@@@@@@@",
"222222,*$+@@@@@@@@@@@@@@",
"222222,*$+@@@@@@@@@@@@@@",
"2222222*$+@@@@@@@@@@@@@@",
"222222,*$+@@@@@@@@@@@@@@",
"2222222;&+@@@@@@@@@@@@@@",
"222222>OX@@@@@@@@@@@@@@@",
"333333333333333333333333",
"333333333333333333333333",
"333333333333333333333333",
"333333333333333333333333",
"333333333333333333333333",
"333333333333333333333333"
};
