/* XPM */
static char *tj[] = {
/* columns rows colors chars-per-pixel */
"24 24 35 1",
"  c black",
". c #006600",
"X c #046804",
"o c #046805",
"O c #CC0000",
"+ c #CD0404",
"@ c #B0CDA5",
"# c #B0CFAC",
"$ c #B0CFAD",
"% c #B0D0B0",
"& c #B0D0B1",
"* c #EFAFAD",
"= c #EFB0AE",
"- c #EFB0B0",
"; c #FFE885",
": c #FFE988",
"> c #FFF1BA",
", c #FFF2BE",
"< c #FFF2BF",
"1 c #FFF3C3",
"2 c #FFFAE1",
"3 c #FFFBE6",
"4 c #FFFCE4",
"5 c #FFFBEA",
"6 c #FFFBEB",
"7 c #FFFCEF",
"8 c #FFFDEF",
"9 c #FFFCF0",
"0 c #FFFCF1",
"q c #FFFDF0",
"w c #FFFEF8",
"e c #FFFFFC",
"r c #FFFFFD",
"t c gray100",
"y c None",
/* pixels */
"yyyyyyyyyyyyyyyyyyyyyyyy",
"yyyyyyyyyyyyyyyyyyyyyyyy",
"yyyyyyyyyyyyyyyyyyyyyyyy",
"yyyyyyyyyyyyyyyyyyyyyyyy",
"yyyyyyyyyyyyyyyyyyyyyyyy",
"OOOOOOOOOOOOOOOOOOOOOOOO",
"OOOOOOOOOOOOOOOOOOOOOOOO",
"OOOOOOOOOOOOOOOOOOOOOOOO",
"++++++++++++++++++++++++",
"-------=---*=-----------",
"tttttttttt7440tttttttttt",
"ttttttttt70>,00ttttttttt",
"ttttttttt6w,1w6ttttttttt",
"tttttttttt2;:3tttttttttt",
"%%%%%%%%%%$@@$%%%%%%%%%%",
"XXXXXXXXXXXXXXXXXXXXXXXX",
"........................",
"........................",
"........................",
"yyyyyyyyyyyyyyyyyyyyyyyy",
"yyyyyyyyyyyyyyyyyyyyyyyy",
"yyyyyyyyyyyyyyyyyyyyyyyy",
"yyyyyyyyyyyyyyyyyyyyyyyy",
"yyyyyyyyyyyyyyyyyyyyyyyy"
};
