/* XPM */
static char *tr[] = {
/* columns rows colors chars-per-pixel */
"24 24 43 1",
"  c black",
". c #E30512",
"X c #E30714",
"o c #E30715",
"O c #E30815",
"+ c #E30816",
"@ c #E30916",
"# c #E30A17",
"$ c #E30B18",
"% c #E30D1A",
"& c #E40E1B",
"* c #E40F1B",
"= c #E4121E",
"- c #E41320",
"; c #E51824",
": c #E51A26",
"> c #E51B27",
", c #E51C28",
"< c #E51D29",
"1 c #E6222E",
"2 c #E6232F",
"3 c #E62531",
"4 c #E72C37",
"5 c #E72E39",
"6 c #E7313C",
"7 c #E83843",
"8 c #E93F49",
"9 c #EB4D56",
"0 c #EB4F59",
"q c #EE6D74",
"w c #EF787F",
"e c #F1878D",
"r c #F5A8AD",
"t c #F5ABAF",
"y c #F6ADB1",
"u c #F9CDD0",
"i c #F9CED1",
"p c #FAD5D7",
"a c #FBDCDE",
"s c #FBDDDF",
"d c #FBDFE1",
"f c #FEF4F5",
"g c None",
/* pixels */
"gggggggggggggggggggggggg",
"gggggggggggggggggggggggg",
"gggggggggggggggggggggggg",
"########################",
"########################",
"########################",
"########o###############",
"#####o&23=##############",
"#####8yurw6$############",
"###o8dp0:>4-############",
"###&rf9.###o57,%########",
"###2su;###o:eaq#########",
"##o2du:####:eaq#########",
"###&rf9.o##o57,%########",
"###o8dp0::4-############",
"#####8yurw6$############",
"#####o&23=o#############",
"#######o################",
"########################",
"########################",
"########################",
"gggggggggggggggggggggggg",
"gggggggggggggggggggggggg",
"gggggggggggggggggggggggg"
};
