/* XPM */
static char *ara[] = {
/* columns rows colors chars-per-pixel */
"48 48 132 2",
"   c black",
".  c #025F32",
"X  c #0B662F",
"o  c #006233",
"O  c #076739",
"+  c #086336",
"@  c #0C6339",
"#  c #0C693C",
"$  c #1E6D2D",
"%  c #11663D",
"&  c #156C32",
"*  c #226E2A",
"=  c #286F2C",
"-  c #286F33",
";  c #24702D",
":  c #2D732E",
">  c #277334",
",  c #25753D",
"<  c #2B7232",
"1  c #327335",
"2  c #166740",
"3  c #136C42",
"4  c #1D6D46",
"5  c #187146",
"6  c #226C49",
"7  c #2D6F43",
"8  c #296C4C",
"9  c #22774E",
"0  c #23784F",
"q  c #2B714F",
"w  c #2D7352",
"e  c #2A7C55",
"r  c #2E7E58",
"t  c #337245",
"y  c #347E47",
"u  c #337D49",
"i  c #337C59",
"p  c #3B7752",
"a  c #437A42",
"s  c #41775D",
"d  c #417E5A",
"f  c #487658",
"g  c #4C7C5D",
"h  c #4F7E67",
"j  c #507A66",
"k  c #39824F",
"l  c #34825D",
"z  c #38845F",
"x  c #398561",
"c  c #468154",
"v  c #458365",
"b  c #408966",
"n  c #458D6B",
"m  c #4D8067",
"M  c #4E8269",
"N  c #4A8D62",
"B  c #498E6D",
"V  c #4B906F",
"C  c #4E9271",
"Z  c #51846B",
"A  c #59836F",
"S  c #5D896C",
"D  c #598771",
"F  c #54936A",
"G  c #539575",
"H  c #579778",
"J  c #579879",
"K  c #5A997A",
"L  c #648F72",
"P  c #6E967F",
"I  c #749777",
"U  c #759877",
"Y  c #619E81",
"T  c #6A9380",
"R  c #739585",
"E  c #779986",
"W  c #779B8A",
"Q  c #7C9187",
"!  c #7B9689",
"~  c #7A9B85",
"^  c #7C9B8B",
"/  c #67A185",
"(  c #68A286",
")  c #6DA58A",
"_  c #74A990",
"`  c #7EA390",
"'  c #7EAF98",
"]  c #7FB099",
"[  c #848F8A",
"{  c #86968F",
"}  c #859C91",
"|  c #8C9D95",
" . c #929A96",
".. c #969F9B",
"X. c #87A295",
"o. c #8AA192",
"O. c #8BAC9C",
"+. c #84B39D",
"@. c #95A59D",
"#. c #93A99C",
"$. c #89B6A1",
"%. c #8DB8A2",
"&. c #94ADA1",
"*. c #9CACA5",
"=. c #94BDAA",
"-. c #9FB2A9",
";. c #A1ABA6",
":. c #A4ADA9",
">. c #A9AEAC",
",. c #A5B2AC",
"<. c #A9B5AF",
"1. c #ACB6B1",
"2. c #ABBAB3",
"3. c #B2BDB7",
"4. c #B4BDB9",
"5. c #9BC2AF",
"6. c #A4C7B7",
"7. c #ACCBBC",
"8. c #B7C3BD",
"9. c #B0CEBF",
"0. c #BBC5C0",
"q. c #BED0C8",
"w. c #C5DBD1",
"e. c #CBDFD6",
"r. c #D4D7D6",
"t. c #D8E7E1",
"y. c #EEF4F1",
"u. c #F2F7F5",
"i. c #F6F9F7",
"p. c #F7FAF9",
"a. c #FEFEFE",
"s. c None",
/* pixels */
"s.s.s.s.s.s.s.s.s.s.s.s.s.s.s.s.s.s.s.s.s.s.s.s.s.s.s.s.s.s.s.s.s.s.s.s.s.s.s.s.s.s.s.s.s.s.s.s.",
"s.s.s.s.s.s.s.s.s.s.s.s.s.s.s.s.s.s.s.s.s.s.s.s.s.s.s.s.s.s.s.s.s.s.s.s.s.s.s.s.s.s.s.s.s.s.s.s.",
"s.s.s.s.s.s.s.s.s.s.s.s.s.s.s.s.s.s.s.s.s.s.s.s.s.s.s.s.s.s.s.s.s.s.s.s.s.s.s.s.s.s.s.s.s.s.s.s.",
"s.s.s.s.s.s.s.s.s.s.s.s.s.s.s.s.s.s.s.s.s.s.s.s.s.s.s.s.s.s.s.s.s.s.s.s.s.s.s.s.s.s.s.s.s.s.s.s.",
"s.s.s.s.s.s.s.s.s.s.s.s.s.s.s.s.s.s.s.s.s.s.s.s.s.s.s.s.s.s.s.s.s.s.s.s.s.s.s.s.s.s.s.s.s.s.s.s.",
"s.s.s.s.s.s.s.s.s.s.s.s.s.s.s.s.s.s.s.s.s.s.s.s.s.s.s.s.s.s.s.s.s.s.s.s.s.s.s.s.s.s.s.s.s.s.s.s.",
"s.s.s.s.s.s.s.s.s.s.s.s.s.s.s.s.s.s.s.s.s.s.s.s.s.s.s.s.s.s.s.s.s.s.s.s.s.s.s.s.s.s.s.s.s.s.s.s.",
"o o o o o o o o o o o o o o o o o o o o o o o o o o o o o o o o o o o o o o o o o o o o o o o o ",
"o o o o o o o o o o o o o o o o o o o o o o o o o o o o o o o o o o o o o o o o o o o o o o o o ",
"o o o o o o o o o o o o o o o o o o o o o o o o o o o o o o o o o o o o o o o o o o o o o o o o ",
"o o o o o o o o o o o o o o o o o o o o o o o o o o o o o o o o o o o o o o o o o o o o o o o o ",
"o o o o o o o o o o o o o o o o o o o o o o o o o o o o o o o o o o o o o o o o o o o o o o o o ",
"o o o o o o o o o o o o o o o o o o o o o o o o o o o o o o o o o o o o o o o o o o o o o o o o ",
"o o o o o o o o o o o o o o o o o o o o o @ 8 @ @ 8 @ o o o o o o o o o o o o o o o o o o o o o ",
"o o o o o o o o o o o o o o o o o o o o . j @.} } &.j o o o o o o o o o o o o o o o o o o o o o ",
"o o o o o o o o o o o o o o o o o o o . w } :.;.1.>.! w o o o o o o o o o o o o o o o o o o o o ",
"o o o o o o o o o o o o o o o o . + 6 T :.*.o.f g o.&.:.T 6 + o o o o o o o o o o o o o o o o o ",
"o o o o o o o o o o o o o o o o % E  .#.U a : * ; : a I #. .W % o o o o o o o o o o o o o o o o ",
"o o o o o o o o o o o o o o o q ! 8.~ 1 $ X o o o + X ; 1 E 0.! w o o o o o o o o o o o o o o o ",
"o o o o o o o o o o o o o o % #.;.S : & # 3 o 5 5 r 3 O & : S ;.#.% o o o o o o o o o o o o o o ",
"o o o o o o o o o o o o o o m ;.} 1 , 9 r B x ( / Y ) z 9 , < ^ ;.m o o o o o o o o o o o o o o ",
"o o o o o o o o o o o o o % &.{ t ; H r e 3 e G n x 9 H e H ; t { &.2 o o o o o o o o o o o o o ",
"o o o o o o o o o o o o o 6 2.X.< u $.l H G H ) B x n +.b +.y - X.2.6 o o o o o o o o o o o o o ",
"o o o o o o o o o o o o . m @.} = N 6.e 9 H 5.) Y ( ' / B 6.N = ! ..M o o o o o o o o o o o o o ",
"o o o o o o o o o o o o o v 3.W $ N e.9 o P 5./ ( $.K x G e.N * W 3.v o o o o o o o o o o o o o ",
"o o o o o o o o o o o o o 4 @.R $ u t.5.C C n _ +.K K / =.t.u $ R @.4 o o o o o o o o o o o o o ",
"o o o o o o o o o o o o o % Q *.7 ; =.u.] x n b e r V %.y.=.: 7 *.Q 2 o o o o o o o o o o o o o ",
"o o o o o o o o o o o o o + #.1.^ < u w.i.7.Y l l Y 9.i.w.u < ^ 1.O.@ o o o o o o o o o o o o o ",
"o o o o o o o o o o o o o o q | ,.p * k 7.i.a.i.i.a.i.7.k * p ,.| w o o o o o o o o o o o o o o ",
"o o o o o o o o o o o o o o + E 8.,.c ; > F %.7.7.%.F < * d ,.8.E + o o o o o o o o o o o o o o ",
"o o o o o o o o o o o o o o o 4 O.4.2.E c * $ ; ; * * c E 2.4.O.4 o o o o o o o o o o o o o o o ",
"o o o o o o o o o o o o o o o o + j ,.8.q.` P L L P ` q.8.,.j . o o o o o o o o o o o o o o o o ",
"o o o o o o o o o o o o o o o o o + S 3.,.2.:.>.,.:.2.,.3.S o o o o o o o o o o o o o o o o o o ",
"o o o o o o o o o o o o o o o o o . M r.,.| [ <.<.[ | <.r.Z . o o o o o o o o o o o o o o o o o ",
"o o o o o o o o o o o o o o o o o o 6 i s A 8 @ @ 8 A s i 6 o o o o o o o o o o o o o o o o o o ",
"o o o o o o o o o o o o o o o o o o o o o o o o o o . o . o o o o o o o o o o o o o o o o o o o ",
"o o o o o o o o o o o o o o o o o o o o o o o o o o o o o o o o o o o o o o o o o o o o o o o o ",
"o o o o o o o o o o o o o o o o o o o o o o o o o o o o o o o o o o o o o o o o o o o o o o o o ",
"o o o o o o o o o o o o o o o o o o o o o o o o o o o o o o o o o o o o o o o o o o o o o o o o ",
"o o o o o o o o o o o o o o o o o o o o o o o o o o o o o o o o o o o o o o o o o o o o o o o o ",
"o o o o o o o o o o o o o o o o o o o o o o o o o o o o o o o o o o o o o o o o o o o o o o o o ",
"s.s.s.s.s.s.s.s.s.s.s.s.s.s.s.s.s.s.s.s.s.s.s.s.s.s.s.s.s.s.s.s.s.s.s.s.s.s.s.s.s.s.s.s.s.s.s.s.",
"s.s.s.s.s.s.s.s.s.s.s.s.s.s.s.s.s.s.s.s.s.s.s.s.s.s.s.s.s.s.s.s.s.s.s.s.s.s.s.s.s.s.s.s.s.s.s.s.",
"s.s.s.s.s.s.s.s.s.s.s.s.s.s.s.s.s.s.s.s.s.s.s.s.s.s.s.s.s.s.s.s.s.s.s.s.s.s.s.s.s.s.s.s.s.s.s.s.",
"s.s.s.s.s.s.s.s.s.s.s.s.s.s.s.s.s.s.s.s.s.s.s.s.s.s.s.s.s.s.s.s.s.s.s.s.s.s.s.s.s.s.s.s.s.s.s.s.",
"s.s.s.s.s.s.s.s.s.s.s.s.s.s.s.s.s.s.s.s.s.s.s.s.s.s.s.s.s.s.s.s.s.s.s.s.s.s.s.s.s.s.s.s.s.s.s.s.",
"s.s.s.s.s.s.s.s.s.s.s.s.s.s.s.s.s.s.s.s.s.s.s.s.s.s.s.s.s.s.s.s.s.s.s.s.s.s.s.s.s.s.s.s.s.s.s.s.",
"s.s.s.s.s.s.s.s.s.s.s.s.s.s.s.s.s.s.s.s.s.s.s.s.s.s.s.s.s.s.s.s.s.s.s.s.s.s.s.s.s.s.s.s.s.s.s.s."
};
