/* XPM */
static char *az[] = {
/* columns rows colors chars-per-pixel */
"48 48 68 1",
"  c black",
". c #1C7DB2",
"X c #1C7DB3",
"o c #1C7EB4",
"O c #1C955F",
"+ c #1C965F",
"@ c #1C9760",
"# c #1C9961",
"$ c #1C9A62",
"% c #00AE68",
"& c #00AF68",
"* c #1C80B5",
"= c #1C81B6",
"- c #0092C7",
"; c #0093C8",
": c #CE163C",
"> c #CE183D",
", c #EA0033",
"< c #EA0034",
"1 c #EA0135",
"2 c #EA0336",
"3 c #EA0437",
"4 c #EC0135",
"5 c #EC0136",
"6 c #EC0336",
"7 c #EC0337",
"8 c #EA0538",
"9 c #EA083A",
"0 c #CE1347",
"q c #CE1548",
"w c #CF1F43",
"e c #CF1C4E",
"r c #CF2547",
"t c #CF2252",
"y c #EB1242",
"u c #EC1746",
"i c #EE1746",
"p c #EE1747",
"a c #EE1F4C",
"s c #EE1F4D",
"d c #EC214E",
"f c #ED2854",
"g c #EE2F59",
"h c #F03860",
"j c #F03861",
"k c #D2456F",
"l c #D24963",
"z c #D45D74",
"x c #D45A7F",
"c c #EF4268",
"v c #F1587A",
"b c #F1597A",
"n c #F35D7F",
"m c #F35E7E",
"M c #D56D8E",
"N c #D57083",
"B c #F68FA6",
"V c #F693A9",
"C c #FAACBD",
"Z c #FAACBE",
"A c #FBBAC8",
"S c #FBBAC9",
"D c #FABECB",
"F c #FBD5DD",
"G c #FCD5DE",
"H c #FDE7EB",
"J c #FDE7EC",
"K c None",
/* pixels */
"KKKKKKKKKKKKKKKKKKKKKKKKKKKKKKKKKKKKKKKKKKKKKKKK",
"KKKKKKKKKKKKKKKKKKKKKKKKKKKKKKKKKKKKKKKKKKKKKKKK",
"KKKKKKKKKKKKKKKKKKKKKKKKKKKKKKKKKKKKKKKKKKKKKKKK",
"KKKKKKKKKKKKKKKKKKKKKKKKKKKKKKKKKKKKKKKKKKKKKKKK",
"KKKKKKKKKKKKKKKKKKKKKKKKKKKKKKKKKKKKKKKKKKKKKKKK",
"KKKKKKKKKKKKKKKKKKKKKKKKKKKKKKKKKKKKKKKKKKKKKKKK",
"KKKKKKKKKKKKKKKKKKKKKKKKKKKKKKKKKKKKKKKKKKKKKKKK",
"KKKKKKKKKKKKKKKKKKKKKKKKKKKKKKKKKKKKKKKKKKKKKKKK",
"KKKKKKKKKKKKKKKKKKKKKKKKKKKKKKKKKKKKKKKKKKKKKKKK",
"KKKKKKKKKKKKKKKKKKKKKKKKKKKKKKKKKKKKKKKKKKKKKKKK",
"KKKKKKKKKKKKKKKKKKKKKKKKKKKKKKKKKKKKKKKKKKKKKKKK",
"------------------------------------------------",
"------------------------------------------------",
"------------------------------------------------",
"------------------------------------------------",
"------------------------------------------------",
"-------;----------------------------------------",
"-------;------------------------;;--------------",
";;;;;;;;;;;;;;;;;;;;;;;-;;;;;;;;;;;;;;;;;;;;;;;;",
"====================oXXX========================",
"qqqqqqqqqqqqqqqqqqq0txMke0qqqqqqqqqqqqqqqqqqqqqq",
"6666666666666666666aCAnhu66666666666666666666666",
"8222828282222828338VGf,2ycg933338282222822828828",
"282828282828828232uFB222vHDd23332828288228288282",
"822828282828282876pGB454vJDa27872828282828283333",
"2888828288828288777VGf44ycg977788882828882883338",
"7777776777666777774sZSNju66677777766677767776666",
">>>>>>>:>>:0:>>>>>>>rzNlw>>>>>>>>>:0:>>>>:>>>>:0",
"$$$@$$$$##$$$$$@$$$$@@@@$$$@$$$$##$$$$$@$$$$##$$",
"&&&&&&&&&&&&&&&&&&&&&&&&&&&&&&&&&&&&&&&&&&&&&&&&",
"&&%%&&&&%%%%&&%%&&&&%%%%&&%%&&&&%%%%&&%%&&&&&&&&",
"%%%%&&&&%%%%%%%%&&&&%%%%%%%%&&&&%%%%%%%%&&&&&&&&",
"%%%%%%%%%%%%%%%%%%%%%%%%%%%%%%%%%%%%%%%%%%%%%%%%",
"%%%%%%%%%%%%%%%%%%%%%%%%%%%%%%%%%%%%%%%%%%%%%%%%",
"%%%%%%&&%%%%%%%%%%&&%%%%%%%%%%&&%%%%%%&&%%%%%%%%",
"%%%%&&&&%%%%%%%%&&&&%%%%%%%%&&&&%%%%&&&&%%%%%%%%",
"%%&&&&&&&&&&%&&&&&&&&&&&%%&&&&&&%%&&&&&&&&&&%&&&",
"KKKKKKKKKKKKKKKKKKKKKKKKKKKKKKKKKKKKKKKKKKKKKKKK",
"KKKKKKKKKKKKKKKKKKKKKKKKKKKKKKKKKKKKKKKKKKKKKKKK",
"KKKKKKKKKKKKKKKKKKKKKKKKKKKKKKKKKKKKKKKKKKKKKKKK",
"KKKKKKKKKKKKKKKKKKKKKKKKKKKKKKKKKKKKKKKKKKKKKKKK",
"KKKKKKKKKKKKKKKKKKKKKKKKKKKKKKKKKKKKKKKKKKKKKKKK",
"KKKKKKKKKKKKKKKKKKKKKKKKKKKKKKKKKKKKKKKKKKKKKKKK",
"KKKKKKKKKKKKKKKKKKKKKKKKKKKKKKKKKKKKKKKKKKKKKKKK",
"KKKKKKKKKKKKKKKKKKKKKKKKKKKKKKKKKKKKKKKKKKKKKKKK",
"KKKKKKKKKKKKKKKKKKKKKKKKKKKKKKKKKKKKKKKKKKKKKKKK",
"KKKKKKKKKKKKKKKKKKKKKKKKKKKKKKKKKKKKKKKKKKKKKKKK",
"KKKKKKKKKKKKKKKKKKKKKKKKKKKKKKKKKKKKKKKKKKKKKKKK"
};
