/* XPM */
static char *ba[] = {
/* columns rows colors chars-per-pixel */
"48 48 87 1",
"  c black",
". c #494278",
"X c #0B0B93",
"o c #0F109B",
"O c #111193",
"+ c #121293",
"@ c #131394",
"# c #141495",
"$ c #151595",
"% c #161696",
"& c #171796",
"* c #181896",
"= c #181897",
"- c #1D1C92",
"; c #1F1E91",
": c #1D1D99",
"> c #25228D",
", c #2D2987",
"< c #2F2A88",
"1 c #2F2B88",
"2 c #353084",
"3 c #3B3483",
"4 c #3A368D",
"5 c #3B378D",
"6 c #3B378E",
"7 c #3C388C",
"8 c #2D2DA0",
"9 c #2F2FA1",
"0 c #2E2EA3",
"q c #2E2FA3",
"w c #3232A4",
"e c #3232A5",
"r c #3233A5",
"t c #3333A4",
"y c #3737A7",
"u c #3738A7",
"i c #3838A7",
"p c #4040A9",
"a c #4141A9",
"s c #4444AA",
"d c #4545AB",
"f c #4646AB",
"g c #4747AC",
"h c #4848AC",
"j c #5050B0",
"k c #5151B0",
"l c #5151B1",
"z c #5252B1",
"x c #6262B8",
"c c #7979C2",
"v c #7D7DC4",
"b c #857258",
"n c #B3993C",
"m c #B3993D",
"M c #B4993D",
"N c #B49A3D",
"B c #B69B3C",
"V c #BA9F39",
"C c #BA9E3A",
"Z c #AA9142",
"A c #F0D216",
"S c #F7D117",
"D c #F9D216",
"F c #F9D316",
"G c #FAD415",
"H c #FBD415",
"J c #FCD514",
"K c #8080C6",
"L c #9393CE",
"P c #9696CF",
"I c #9797D0",
"U c #9A9AD2",
"Y c #9B9BD2",
"T c #9C9BD2",
"R c #ACACD9",
"E c #ADADDA",
"W c #B3B3DD",
"Q c #B7B7DE",
"! c #BFBFE2",
"~ c #C8C8E6",
"^ c #CECEE9",
"/ c #D6D6EC",
"( c #D6D6ED",
") c #F7F7FB",
"_ c #F9F9FC",
"` c gray100",
"' c None",
/* pixels */
"''''''''''''''''''''''''''''''''''''''''''''''''",
"''''''''''''''''''''''''''''''''''''''''''''''''",
"''''''''''''''''''''''''''''''''''''''''''''''''",
"''''''''''''''''''''''''''''''''''''''''''''''''",
"''''''''''''''''''''''''''''''''''''''''''''''''",
"''''''''''''''''''''''''''''''''''''''''''''''''",
"''''''''''''''''''''''''''''''''''''''''''''''''",
"''''''''''''''''''''''''''''''''''''''''''''''''",
"''''''''''''''''''''''''''''''''''''''''''''''''",
"''''''''''''''''''''''''''''''''''''''''''''''''",
"''''''''''''''''''''''''''''''''''''''''''''''''",
"&&&&&&@K`xOX.ADSSSSSSSSSSSSSSSSSSSDFV;&&&&&&&&&&",
"&&&&&&=L^c&t>ZDSSSSSSSSSSSSSSSSSSSSFV-&&&&&&&&&&",
"&&&&&&:d9zgUi7mDSSSSSSSSSSSSSSSSSSSFV;&&&&&&&&&&",
"&&&&&&&&&p!_Et,mDSSSSSSSSSSSSSSSSSSFC-&&&&&&&&&&",
"&&&&&&&&&&I(v&9<mDSSSSSSSSSSSSSSSSSDC-&&&&&&&&&&",
"&&&&&&&&&:d8zdUu6mDSSSSSSSSSSSSSSSSFV;&&&&&&&&&&",
"&&&&&&&&&&&&p!_Rt<mDSSSSSSSSSSSSSSSFV;&&&&&&&&&&",
"&&&&&&&&&&&&&I(v&q<mDSSSSSSSSSSSSSDFV-&&&&&&&&&&",
"&&&&&&&&&&&&:d9zgUu6mDSSSSSSSSSSSSDFV-&&&&&&&&&&",
"&&&&&&&&&&&&&&#p!_Et,mDSSSSSSSSSSSSFV-&&&&&&&&&&",
"&&&&&&&&&&&&&&&&I(v&9<mDSSSSSSSSSSSDV-&&&&&&&&&&",
"&&&&&&&&&&&&&&&:g8jdUy6mDSSSSSSSSSSDC-&&&&&&&&&&",
"&&&&&&&&&&&&&&&&&&i~_Et,mDSSSSSSSSSDC-&&&&&&&&&&",
"&&&&&&&&&&&&&&&&&&&I(v&9<mDSSSSSSSSFV;&&&&&&&&&&",
"&&&&&&&&&&&&&&&&&&:s9zgUy6mSSSSSSSSFV;&&&&&&&&&&",
"&&&&&&&&&&&&&&&&&&&&#p!)Et,mDSSSSSDFV-&&&&&&&&&&",
"&&&&&&&&&&&&&&&&&&&&&&I(v&q<mDSSSSDFV-&&&&&&&&&&",
"&&&&&&&&&&&&&&&&&&&&&:d9zgUy6mSSSSSFV-&&&&&&&&&&",
"&&&&&&&&&&&&&&&&&&&&&&&#p!)Rt<mDSSSFV;&&&&&&&&&&",
"&&&&&&&&&&&&&&&&&&&&&&&&&I(v&9<mDSSFC-&&&&&&&&&&",
"&&&&&&&&&&&&&&&&&&&&&&&&:d9zgUy6MDSDC-&&&&&&&&&&",
"&&&&&&&&&&&&&&&&&&&&&&&&&&&p!_Et,mSDV-&&&&&&&&&&",
"&&&&&&&&&&&&&&&&&&&&&&&&&&&&P/v&9<mJV-&&&&&&&&&&",
"&&&&&&&&&&&&&&&&&&&&&&&&&&&:p9zgUy6BV;&&&&&&&&&&",
"&&&&&&&&&&&&&&&&&&&&&&&&&&&&&&g~)Qy2b;&&&&&&&&&&",
"&&&&&&&&&&&&&&&&&&&&&&&&&&&&&&&W`POo3;&&&&&&&&&&",
"''''''''''''''''''''''''''''''''''''''''''''''''",
"''''''''''''''''''''''''''''''''''''''''''''''''",
"''''''''''''''''''''''''''''''''''''''''''''''''",
"''''''''''''''''''''''''''''''''''''''''''''''''",
"''''''''''''''''''''''''''''''''''''''''''''''''",
"''''''''''''''''''''''''''''''''''''''''''''''''",
"''''''''''''''''''''''''''''''''''''''''''''''''",
"''''''''''''''''''''''''''''''''''''''''''''''''",
"''''''''''''''''''''''''''''''''''''''''''''''''",
"''''''''''''''''''''''''''''''''''''''''''''''''",
"''''''''''''''''''''''''''''''''''''''''''''''''"
};
