/* XPM */
static char *bh[] = {
/* columns rows colors chars-per-pixel */
"48 48 120 2",
"   c black",
".  c #CC091F",
"X  c #CD0A20",
"o  c #CD0B21",
"O  c #CD0C21",
"+  c #CD0D23",
"@  c #CD0E23",
"#  c #CD0E24",
"$  c #CD0F24",
"%  c #CE0F24",
"&  c #CE0F25",
"*  c #CE1025",
"=  c #CE1125",
"-  c #CE1026",
";  c #CE1126",
":  c #CE1226",
">  c #CE1227",
",  c #CE1327",
"<  c #CF1428",
"1  c #CF1429",
"2  c #CF152A",
"3  c #CF172C",
"4  c #CF182C",
"5  c #D01A2E",
"6  c #D01B2F",
"7  c #D01C30",
"8  c #D01D31",
"9  c #D12033",
"0  c #D12034",
"q  c #D12134",
"w  c #D22437",
"e  c #D22438",
"r  c #D22639",
"t  c #D3283B",
"y  c #D42C3F",
"u  c #D42D40",
"i  c #D42E40",
"p  c #D53143",
"a  c #D53244",
"s  c #D63749",
"d  c #D6394A",
"f  c #D73C4D",
"g  c #D83F50",
"h  c #D84151",
"j  c #D84353",
"k  c #D84354",
"l  c #D94657",
"z  c #D94959",
"x  c #DA4959",
"c  c #DB505F",
"v  c #DB5161",
"b  c #DC5665",
"n  c #DD5867",
"m  c #DD5968",
"M  c #DE5D6C",
"N  c #DE5F6D",
"B  c #DE606E",
"V  c #DF6573",
"C  c #E16C79",
"Z  c #E16E7B",
"A  c #E27480",
"S  c #E37682",
"D  c #E47B86",
"F  c #E47E89",
"G  c #E57F8A",
"H  c #E68590",
"J  c #E78993",
"K  c #E78994",
"L  c #E88E98",
"P  c #E9939C",
"I  c #E9959E",
"U  c #EB9DA5",
"Y  c #EB9EA7",
"T  c #ECA5AD",
"R  c #EDA6AE",
"E  c #EEAEB5",
"W  c #EFB0B7",
"Q  c #EFB4BA",
"!  c #F0B6BD",
"~  c #F0B9BF",
"^  c #F1B8BF",
"/  c #F1BAC0",
"(  c #F1BCC2",
")  c #F2C1C6",
"_  c #F2C1C7",
"`  c #F3C6CB",
"'  c #F4C9CE",
"]  c #F5CFD3",
"[  c #F6D0D5",
"{  c #F7D6DA",
"}  c #F7D7DA",
"|  c #F7DADD",
" . c #F8DBDE",
".. c #F8DDDF",
"X. c #F8DEE1",
"o. c #F9DFE2",
"O. c #F9E1E4",
"+. c #F9E4E6",
"@. c #FAE5E8",
"#. c #FAE8EA",
"$. c #FBE9EB",
"%. c #FBEAEC",
"&. c #FBEDEE",
"*. c #FCEEF0",
"=. c #FCEFF1",
"-. c #FCF1F2",
";. c #FCF2F3",
":. c #FDF6F6",
">. c #FDF6F7",
",. c #FEF8F9",
"<. c #FEF9F9",
"1. c #FEFAFB",
"2. c #FEFCFC",
"3. c #FEFDFD",
"4. c #FFFCFD",
"5. c #FFFDFD",
"6. c #FFFEFE",
"7. c #FFFEFF",
"8. c gray100",
"9. c None",
/* pixels */
"9.9.9.9.9.9.9.9.9.9.9.9.9.9.9.9.9.9.9.9.9.9.9.9.9.9.9.9.9.9.9.9.9.9.9.9.9.9.9.9.9.9.9.9.9.9.9.9.",
"9.9.9.9.9.9.9.9.9.9.9.9.9.9.9.9.9.9.9.9.9.9.9.9.9.9.9.9.9.9.9.9.9.9.9.9.9.9.9.9.9.9.9.9.9.9.9.9.",
"9.9.9.9.9.9.9.9.9.9.9.9.9.9.9.9.9.9.9.9.9.9.9.9.9.9.9.9.9.9.9.9.9.9.9.9.9.9.9.9.9.9.9.9.9.9.9.9.",
"9.9.9.9.9.9.9.9.9.9.9.9.9.9.9.9.9.9.9.9.9.9.9.9.9.9.9.9.9.9.9.9.9.9.9.9.9.9.9.9.9.9.9.9.9.9.9.9.",
"9.9.9.9.9.9.9.9.9.9.9.9.9.9.9.9.9.9.9.9.9.9.9.9.9.9.9.9.9.9.9.9.9.9.9.9.9.9.9.9.9.9.9.9.9.9.9.9.",
"9.9.9.9.9.9.9.9.9.9.9.9.9.9.9.9.9.9.9.9.9.9.9.9.9.9.9.9.9.9.9.9.9.9.9.9.9.9.9.9.9.9.9.9.9.9.9.9.",
"9.9.9.9.9.9.9.9.9.9.9.9.9.9.9.9.9.9.9.9.9.9.9.9.9.9.9.9.9.9.9.9.9.9.9.9.9.9.9.9.9.9.9.9.9.9.9.9.",
"9.9.9.9.9.9.9.9.9.9.9.9.9.9.9.9.9.9.9.9.9.9.9.9.9.9.9.9.9.9.9.9.9.9.9.9.9.9.9.9.9.9.9.9.9.9.9.9.",
"9.9.9.9.9.9.9.9.9.9.9.9.9.9.9.9.9.9.9.9.9.9.9.9.9.9.9.9.9.9.9.9.9.9.9.9.9.9.9.9.9.9.9.9.9.9.9.9.",
"8.8.8.8.8.8.8.8.8.8.8.8.R i . O , * * , , * * , * * , * * * , , & , , , * * & , , * * , , * * , ",
"8.8.8.8.8.8.8.8.8.8.8.8.-._ Z p , & * , , * , & * , * , * , * , , & , & , * , & , * , & , * , & ",
"8.8.8.8.8.8.8.8.8.8.8.8.8.8.8.X.U c 8 , & , & , * * , * , * , * & , & , * , * , & , & , & , & , ",
"8.8.8.8.8.8.8.8.8.8.8.8.8.8.8.8.8.@.H 8 & & , & & , & , & , & , , & , & , & , & , & , & , & , & ",
"8.8.8.8.8.8.8.8.8.8.8.8.8.8.8.O.Y v 0 , , & & , , & , & , & , & & , & , & , & , & , & , & , & , ",
"8.8.8.8.8.8.8.8.8.8.8.8.-._ S a , & * * & , & , & , & , & , & , , & , & , & , & , & , & , & , & ",
"8.8.8.8.8.8.8.8.8.8.8.8.~ h * O * * , * , & , & , & , & , & , & & , & , & , & , & , & , & , & , ",
"8.8.8.8.8.8.8.8.8.8.8.8.8.+.T b 0 & & * , & , & , & , & , & , & , & , & , & , & , & , & , & , & ",
"8.8.8.8.8.8.8.8.8.8.8.8.8.8.8.>.' G d 1 & , & , & , & , & , & , & , & , & , & , & , & , & , & , ",
"8.8.8.8.8.8.8.8.8.8.8.8.8.8.8.8.8.X.D 6 & & & , , & , & , & , & , & , & , & , & , & , & , & , & ",
"8.8.8.8.8.8.8.8.8.8.8.8.8.8.-.( Z i * * , & , & & , & , & , & , & , & , & , & , & , & , & , & , ",
"8.8.8.8.8.8.8.8.8.8.8.8.X.P z 4 O & * , * , & , , & , & , & , & , & , & , & , & , & , & , & , & ",
"8.8.8.8.8.8.8.8.8.8.8.8.` N 8 & & * , * , * , & & , & , & , & , & , & , & , & , & , & , & , & , ",
"8.8.8.8.8.8.8.8.8.8.8.8.8.,.] H f 1 O * * , * , , & , & , & , & , & , & , & , & , & , & , & , & ",
"8.8.8.8.8.8.8.8.8.8.8.8.8.8.8.8.%.W m 4 , * , * & , & , & , & , & , & , & , & , & , & , & , & , ",
"8.8.8.8.8.8.8.8.8.8.8.8.8.8.8.8.=./ B 3 & , & , , & , & , & , & , & , & , & , & , & , & , & , & ",
"8.8.8.8.8.8.8.8.8.8.8.8.8.,.{ L k 3 & & , & , & & , & , & , & , & , & , & , & , & , & , & , & , ",
"8.8.8.8.8.8.8.8.8.8.8.8.' V r & & * & , & , & , , & , & , & , & , & , & , & , & , & , & , & , & ",
"8.8.8.8.8.8.8.8.8.8.8.8.| K h 3 & & , & , & , & & , & , & , & , & , & , & , & , & , & , & , & , ",
"8.8.8.8.8.8.8.8.8.8.8.8.8.8.&.Q V r * * & , & , , & , & , & , & , & , & , & , & , & , & , * , & ",
"8.8.8.8.8.8.8.8.8.8.8.8.8.8.8.8.1.{ S 6 & , , & & , & , & , & , & , & , & , & , & , & , * , & , ",
"8.8.8.8.8.8.8.8.8.8.8.8.8.8.8.,.[ K g 1 , & , & , & , & , & , & , & , & , & , & , & , & , * , * ",
"8.8.8.8.8.8.8.8.8.8.8.8.8.#.E N r & & * & , & , & , & , & , & , & , & , & , & , & , & , * , * * ",
"8.8.8.8.8.8.8.8.8.8.8.8./ l * O * * * * , * * , & , & , & , & , & , & , & , & , & , & , & , & , ",
"8.8.8.8.8.8.8.8.8.8.8.8.=.~ C i * & * * * , , * , & , & , & , & , & , & , & , & , & , & , & , & ",
"8.8.8.8.8.8.8.8.8.8.8.8.8.8.1. .I z 8 * , , * , & , & , & , & , & , & , & , & , & , & , & , & , ",
"8.8.8.8.8.8.8.8.8.8.8.8.8.8.8.8.8.@.H 7 * * , * , & , & , & , * , & , & , & , * , & , & , & , & ",
"8.8.8.8.8.8.8.8.8.8.8.8.8.8.8.@.R n e , * , * * & , * , * , * , & , * , * , * , & , & , & , & , ",
"8.8.8.8.8.8.8.8.8.8.8.8.>.' G s , & & * , * , * , & , * , & , * , & , * , & , * , & , * , & , & ",
"8.8.8.8.8.8.8.8.8.8.8.8.! s X X , , * * * , * * & , , * & , , * & , , * & , , * & , , , * * & , ",
"9.9.9.9.9.9.9.9.9.9.9.9.9.9.9.9.9.9.9.9.9.9.9.9.9.9.9.9.9.9.9.9.9.9.9.9.9.9.9.9.9.9.9.9.9.9.9.9.",
"9.9.9.9.9.9.9.9.9.9.9.9.9.9.9.9.9.9.9.9.9.9.9.9.9.9.9.9.9.9.9.9.9.9.9.9.9.9.9.9.9.9.9.9.9.9.9.9.",
"9.9.9.9.9.9.9.9.9.9.9.9.9.9.9.9.9.9.9.9.9.9.9.9.9.9.9.9.9.9.9.9.9.9.9.9.9.9.9.9.9.9.9.9.9.9.9.9.",
"9.9.9.9.9.9.9.9.9.9.9.9.9.9.9.9.9.9.9.9.9.9.9.9.9.9.9.9.9.9.9.9.9.9.9.9.9.9.9.9.9.9.9.9.9.9.9.9.",
"9.9.9.9.9.9.9.9.9.9.9.9.9.9.9.9.9.9.9.9.9.9.9.9.9.9.9.9.9.9.9.9.9.9.9.9.9.9.9.9.9.9.9.9.9.9.9.9.",
"9.9.9.9.9.9.9.9.9.9.9.9.9.9.9.9.9.9.9.9.9.9.9.9.9.9.9.9.9.9.9.9.9.9.9.9.9.9.9.9.9.9.9.9.9.9.9.9.",
"9.9.9.9.9.9.9.9.9.9.9.9.9.9.9.9.9.9.9.9.9.9.9.9.9.9.9.9.9.9.9.9.9.9.9.9.9.9.9.9.9.9.9.9.9.9.9.9.",
"9.9.9.9.9.9.9.9.9.9.9.9.9.9.9.9.9.9.9.9.9.9.9.9.9.9.9.9.9.9.9.9.9.9.9.9.9.9.9.9.9.9.9.9.9.9.9.9.",
"9.9.9.9.9.9.9.9.9.9.9.9.9.9.9.9.9.9.9.9.9.9.9.9.9.9.9.9.9.9.9.9.9.9.9.9.9.9.9.9.9.9.9.9.9.9.9.9."
};
