/* XPM */
static char *cz[] = {
/* columns rows colors chars-per-pixel */
"48 48 54 1",
"  c black",
". c #273D71",
"X c #293F72",
"o c #2A3F71",
"O c #0E437C",
"+ c #0E437D",
"@ c #0F437D",
"# c #0F457F",
"$ c #0F467F",
"% c #10447D",
"& c #10447E",
"* c #10457E",
"= c #10457F",
"- c #11457E",
"; c #14447C",
": c #51355E",
"> c #473863",
", c #174A81",
"< c #174A82",
"1 c #326192",
"2 c #346091",
"3 c #346191",
"4 c #356192",
"5 c #5D80A7",
"6 c #6788AD",
"7 c #AB1F30",
"8 c #B11D2D",
"9 c #832944",
"0 c #842944",
"q c #892D47",
"w c #CE161F",
"e c #D71218",
"r c #D7141A",
"t c #D81319",
"y c #D91319",
"u c #D81419",
"i c #D91419",
"p c #D8141A",
"a c #D92F35",
"s c #DC3035",
"d c #E71012",
"f c #A7B7CC",
"g c #A4B8CE",
"h c #A5B8CE",
"j c #A5B9CF",
"k c #D1DBE6",
"l c #D2DCE6",
"z c #D8E1EA",
"x c #D9E1EA",
"c c #F7E3E4",
"v c #FAE3E4",
"b c #F6F8FA",
"n c gray100",
"m c None",
/* pixels */
"mmmmmmmmmmmmmmmmmmmmmmmmmmmmmmmmmmmmmmmmmmmmmmmm",
"mmmmmmmmmmmmmmmmmmmmmmmmmmmmmmmmmmmmmmmmmmmmmmmm",
"mmmmmmmmmmmmmmmmmmmmmmmmmmmmmmmmmmmmmmmmmmmmmmmm",
"mmmmmmmmmmmmmmmmmmmmmmmmmmmmmmmmmmmmmmmmmmmmmmmm",
"mmmmmmmmmmmmmmmmmmmmmmmmmmmmmmmmmmmmmmmmmmmmmmmm",
"mmmmmmmmmmmmmmmmmmmmmmmmmmmmmmmmmmmmmmmmmmmmmmmm",
"mmmmmmmmmmmmmmmmmmmmmmmmmmmmmmmmmmmmmmmmmmmmmmmm",
"knnnnnnnnnnnnnnnnnnnnnnnnnnnnnnnnnnnnnnnnnnnnnnn",
"5lnnnnnnnnnnnnnnnnnnnnnnnnnnnnnnnnnnnnnnnnnnnnnn",
"%4jbnnnnnnnnnnnnnnnnnnnnnnnnnnnnnnnnnnnnnnnnnnnn",
"%+,6xnnnnnnnnnnnnnnnnnnnnnnnnnnnnnnnnnnnnnnnnnnn",
"%%%+1fbnnnnnnnnnnnnnnnnnnnnnnnnnnnnnnnnnnnnnnnnn",
"%,+++,6lnnnnnnnnnnnnnnnnnnnnnnnnnnnnnnnnnnnnnnnn",
"%%,%+,+1fbnnnnnnnnnnnnnnnnnnnnnnnnnnnnnnnnnnnnnn",
"%%%%++++,6xnnnnnnnnnnnnnnnnnnnnnnnnnnnnnnnnnnnnn",
",%,+%,%,#+1fbnnnnnnnnnnnnnnnnnnnnnnnnnnnnnnnnnnn",
"+,&+,%+,%%&<6lnnnnnnnnnnnnnnnnnnnnnnnnnnnnnnnnnn",
"&%%,+%&%,%%&&1gbnnnnnnnnnnnnnnnnnnnnnnnnnnnnnnnn",
"%%%%&%&%&%&&%&,6xnnnnnnnnnnnnnnnnnnnnnnnnnnnnnnn",
"+,&+,%+,%%&,%%++4jbnnnnnnnnnnnnnnnnnnnnnnnnnnnnn",
"&,+&%,+%,%%%,++++,6xnnnnnnnnnnnnnnnnnnnnnnnnnnnn",
"%%%%%&&%&&&,%+%,%%+4jbnnnnnnnnnnnnnnnnnnnnnnnnnn",
"+,,+,+,%&&&%,+,%%,%#,6xnnnnnnnnnnnnnnnnnnnnnnnnn",
"&%%&%%+%%,%%%+++%%%%%+1fcvvvvvvvvvvvvvvvvvvvvvvv",
"%%&%%&%%,++++%,+,%%%%#.qasssssssssssssssssssssss",
"+,+,,++,%%%,+,%+%%%#;:8yeeeeeeeeeeeeeeeeeeeeeeee",
"&,+%%&&%,+#,++++%%#X0wyrrrrrrrrrrrrrrrrrrrrrrrrr",
"%%&%%+,%%%%%%,%,,;:8pprrrrrrrrrrrrrrrrrrrrrrrrrr",
"+,&+,%%,%%,%%%#,.9wprrrrrrrrrrrrrrrrrrrrrrrrrrrr",
"&%%,+&&+%,#%%#%:8pprrrrrrrrrrrrrrrrrrrrrrrrrrrrr",
"%%%%%%%%%%%%,.9wprrrrrrrrrrrrrrrrrrrrrrrrrrrrrrr",
"+,&+,&+,%%#%:8pprrrrrrrrrrrrrrrrrrrrrrrrrrrrrrrr",
"&,+&%,+++,X9wyrrrrrrrrrrrrrrrrrrrrrrrrrrrrrrrrrr",
"%%%%%%%,&:8rrrrrrrrrrrrrrrrrrrrrrrrrrrrrrrrrrrrr",
"+,,+++,X9werrrrrrrrrrrrrrrrrrrrrrrrrrrrrrrrrrrrr",
"&%%&,&:8eeerrrrrrrrrrrrrrrrrrrrrrrrrrrrrrrrrrrrr",
"%%&%X0wyrrrrrrrrrrrrrrrrrrrrrrrrrrrrrrrrrrrrrrrr",
"+,;>8yprrrrrrrrrrrrrrrrrrrrrrrrrrrrrrrrrrrrrrrrr",
",.9wyrrrrrrrrrrrrrrrrrrrrrrrrrrrrrrrrrrrrrrrrrrr",
">7eeyerrrrrrrrrrrrrrrrrrrrrrrrrrrrrrrrrrrrrrrrrr",
"7dprrrrrrrrrrrrrrrrrrrrrrrrrrrrrrrrrrrrrrrrrrrrr",
"mmmmmmmmmmmmmmmmmmmmmmmmmmmmmmmmmmmmmmmmmmmmmmmm",
"mmmmmmmmmmmmmmmmmmmmmmmmmmmmmmmmmmmmmmmmmmmmmmmm",
"mmmmmmmmmmmmmmmmmmmmmmmmmmmmmmmmmmmmmmmmmmmmmmmm",
"mmmmmmmmmmmmmmmmmmmmmmmmmmmmmmmmmmmmmmmmmmmmmmmm",
"mmmmmmmmmmmmmmmmmmmmmmmmmmmmmmmmmmmmmmmmmmmmmmmm",
"mmmmmmmmmmmmmmmmmmmmmmmmmmmmmmmmmmmmmmmmmmmmmmmm",
"mmmmmmmmmmmmmmmmmmmmmmmmmmmmmmmmmmmmmmmmmmmmmmmm"
};
