/* XPM */
static char *gb[] = {
/* columns rows colors chars-per-pixel */
"48 48 16 1",
"O c #00237C",
"@ c #1C3C8C",
"* c #3B579B",
", c #7589B8",
"4 c #CF132A",
"9 c #D62D41",
"i c #DE5C6C",
"g c #E47A87",
"l c #91A1C7",
"v c #B0C1DD",
"N c #EDA3AC",
"Z c #C7B2C6",
"F c #F2BCC3",
"K c #D1D7E8",
"{ c #FEFEFE",
"} c None",
/* pixels */
"}}}}}}}}}}}}}}}}}}}}}}}}}}}}}}}}}}}}}}}}}}}}}}}}",
"}}}}}}}}}}}}}}}}}}}}}}}}}}}}}}}}}}}}}}}}}}}}}}}}",
"}}}}}}}}}}}}}}}}}}}}}}}}}}}}}}}}}}}}}}}}}}}}}}}}",
"}}}}}}}}}}}}}}}}}}}}}}}}}}}}}}}}}}}}}}}}}}}}}}}}",
"}}}}}}}}}}}}}}}}}}}}}}}}}}}}}}}}}}}}}}}}}}}}}}}}",
"}}}}}}}}}}}}}}}}}}}}}}}}}}}}}}}}}}}}}}}}}}}}}}}}",
"}}}}}}}}}}}}}}}}}}}}}}}}}}}}}}}}}}}}}}}}}}}}}}}}",
"}}}}}}}}}}}}}}}}}}}}}}}}}}}}}}}}}}}}}}}}}}}}}}}}",
"}}}}}}}}}}}}}}}}}}}}}}}}}}}}}}}}}}}}}}}}}}}}}}}}",
"}}}}}}}}}}}}}}}}}}}}}}}}}}}}}}}}}}}}}}}}}}}}}}}}",
"}}}}}}}}}}}}}}}}}}}}}}}}}}}}}}}}}}}}}}}}}}}}}}}}",
"{{{{{lOOOOOOOOO@OO@@{N4444N{@OOOOOOOOO@OOOl{i449",
"iF{{{{l@OOOOOOOOOOO@{N4444N{@OOOOO@OOOOO@,{g44iF",
"94iF{{{K,@OOOOOOOOO@{N4444N{@OOOOOOOOO@,Zg94iF{{",
"Zg94iF{{{K,@OOOO@OO@{N4444N{@OO@OOOO@,Zg94iF{{{{",
"@,Zg94iF{{{K,@OOOOO@{N4444N{@OOOOO@,Zg94iF{{{K,@",
"OO@,Zg94iF{{{K,@OOO@{N4444N{@OOO@,Zg94iF{{{K,@OO",
"OOOO@,Zg94iF{{{K,@O@{N4444N{@O@,Zg94iF{{{K,@OOOO",
"OOOOOO@,Zg94iF{{{K,*{N4444N{*,Zg94iF{{{K,@OOOOOO",
"@@@@@@@@*l{g99g{{{{K{N4444N{KNi9iF{{{{l*@@@@@@@@",
"{{{{{{{{{{{{{{{{{{{{{N4444N{{{{{{{{{{{{{{{{{{{{{",
"NNNNNNNNNNNNNNNNNNNNNi4444iNNNNNNNNNNNNNNNNNNNNN",
"444444444444444444444444444444444444444444444444",
"444444444444444444444444444444444444444444444444",
"444444444444444444444444444444444444444444444444",
"444444444444444444444444444444444444444444444444",
"NNNNNNNNNNNNNNNNNNNNNi4444iNNNNNNNNNNNNNNNNNNNNN",
"{{{{{{{{{{{{{{{{{{{{{N4444N{{{{{{{{{{{{{{{{{{{{{",
"@@@@@@@@*l{{{{Fi9iNK{N4444N{{{{{{g99g{l*@@@@@@@@",
"OOOOOO@,K{{{Fi49gZ,*{N4444N{*,K{{{Fi49gZ,@OOOOOO",
"OOOO@,K{{{Fi49gZ,@O@{N4444N{@O@,K{{{Fi49gZ,@OOOO",
"OO@,K{{{Fi49gZ,@OOO@{N4444N{@OOO@,K{{{Fi49gZ,@OO",
"@,K{{{Fi49gZ,@OOOOO@{N4444N{@OOOOO@,K{{{Fi49gZ,@",
"K{{{Fi49gZ,@OOOOOOO@{N4444N{@OOOOOOO@,K{{{Fi49gZ",
"{{Fi49gZ,@OO@OOOOOO@{N4444N{@OOOOOOOOO@,K{{{Fi49",
"{i44i{l@OOOOOOOOO@O@{N4444N{@OO@OOO@OOOO@l{{{{Ni",
"i449{vOOOOOOOOOOOOO@{N4444N{@OOOOO@OOOOOOOl{{{{F",
"}}}}}}}}}}}}}}}}}}}}}}}}}}}}}}}}}}}}}}}}}}}}}}}}",
"}}}}}}}}}}}}}}}}}}}}}}}}}}}}}}}}}}}}}}}}}}}}}}}}",
"}}}}}}}}}}}}}}}}}}}}}}}}}}}}}}}}}}}}}}}}}}}}}}}}",
"}}}}}}}}}}}}}}}}}}}}}}}}}}}}}}}}}}}}}}}}}}}}}}}}",
"}}}}}}}}}}}}}}}}}}}}}}}}}}}}}}}}}}}}}}}}}}}}}}}}",
"}}}}}}}}}}}}}}}}}}}}}}}}}}}}}}}}}}}}}}}}}}}}}}}}",
"}}}}}}}}}}}}}}}}}}}}}}}}}}}}}}}}}}}}}}}}}}}}}}}}",
"}}}}}}}}}}}}}}}}}}}}}}}}}}}}}}}}}}}}}}}}}}}}}}}}",
"}}}}}}}}}}}}}}}}}}}}}}}}}}}}}}}}}}}}}}}}}}}}}}}}",
"}}}}}}}}}}}}}}}}}}}}}}}}}}}}}}}}}}}}}}}}}}}}}}}}",
"}}}}}}}}}}}}}}}}}}}}}}}}}}}}}}}}}}}}}}}}}}}}}}}}"
};
