/* XPM */
static char *ge[] = {
/* columns rows colors chars-per-pixel */
"48 48 85 1",
"  c black",
". c red",
"X c #FF0202",
"o c #FF0303",
"O c #FF0404",
"+ c #FF0505",
"@ c #FF0707",
"# c #FF0909",
"$ c #FF0B0B",
"% c #FF1010",
"& c #FF1111",
"* c #FF1212",
"= c #FF1414",
"- c #FF1515",
"; c #FF1616",
": c #FF1818",
"> c #FF1919",
", c #FF1B1B",
"< c #FF1D1D",
"1 c #FF1E1E",
"2 c #FF2020",
"3 c #FF2121",
"4 c #FF2222",
"5 c #FF2424",
"6 c #FF2525",
"7 c #FF2A2A",
"8 c #FF2B2B",
"9 c #FF2C2C",
"0 c #FF2D2D",
"q c #FF2F2F",
"w c #FF3535",
"e c #FF3636",
"r c #FF3B3B",
"t c #FF3D3D",
"y c #FF4444",
"u c #FF4646",
"i c #FF4747",
"p c #FF4A4A",
"a c #FF4C4C",
"s c #FF4D4D",
"d c #FF5050",
"f c #FF5353",
"g c #FF5555",
"h c #FF5757",
"j c #FF5F5F",
"k c #FF6060",
"l c #FF6161",
"z c #FF6565",
"x c #FF6666",
"c c #FF7B7B",
"v c #FFB8B8",
"b c #FFC7C7",
"n c #FFCCCC",
"m c #FFD1D1",
"M c #FFD3D3",
"N c #FFD5D5",
"B c #FFD7D7",
"V c #FFD8D8",
"C c #FFDADA",
"Z c #FFDCDC",
"A c #FFDDDD",
"S c #FFDFDF",
"D c #FFE0E0",
"F c #FFE1E1",
"G c #FFE2E2",
"H c #FFE4E4",
"J c #FFE5E5",
"K c #FFE8E8",
"L c #FFE9E9",
"P c #FFEAEA",
"I c #FFEBEB",
"U c #FFECEC",
"Y c #FFEEEE",
"T c #FFEFEF",
"R c #FFF1F1",
"E c #FFF3F3",
"W c #FFF6F6",
"Q c #FFF9F9",
"! c snow",
"~ c #FFFBFB",
"^ c #FFFCFC",
"/ c #FFFDFD",
"( c #FFFEFE",
") c gray100",
"_ c None",
/* pixels */
"________________________________________________",
"________________________________________________",
"________________________________________________",
"________________________________________________",
"________________________________________________",
"________________________________________________",
"________________________________________________",
"________________________________________________",
"_)))))))))))))))))))Jp9999yJ)))))))))))))))))))_",
"_)))))))))))))))))))Z5+$$+5F)))))))))))))))))))_",
"_)))))))))))))))))))F<....<Z)))))))))))))))))))_",
"_)))))))))UUQ)))))))F<....<F)))))))QUU)))))))))_",
"_))))))))WjtZ)))))))Z<....<Z)))))))ZtjW))))))))_",
"_)))))))PPs<BPQ)))))F<....<F)))))QPB<sPP)))))))_",
"_))))))Qk8=$9tF)))))F<....<F)))))Ft9$*8jQ))))))_",
"_))))))Qxw:$wyF)))))F2....<Z)))))Fyw$=wxQ))))))_",
"_)))))))EUs<CUQ)))))Z<....<F)))))QEC<sUE)))))))_",
"_))))))))WxyZ)))))))F<....<Z)))))))CyxW))))))))_",
"_)))))))))EE))))))))F<....<F)))))))QEE)))))))))_",
"_)))))))))))))))))))Z<....<F)))))))))))))))))))_",
"_PPPPPPJPPPJPPPJPPPPn:....:nPPPPPPPJPJPPPPPPPJP_",
"_98888888888888888885+....+58888888888888888888_",
"_.............................................._",
"_.............................................._",
"_.............................................._",
"_+............................................+_",
"_===================*......*=======*===========_",
"_MMMMMMMMMMMMMMMMMBBv:....:vBMBBMMMMMMMMMMMMMBM_",
"_)))))))))))))))))))Z<....<F)))))))))))))))))))_",
"_))))))))))Q))))))))F<....<F))))))))Q))))))))))_",
"_))))))))WckZ)))))))F<....<Z)))))))FkcW))))))))_",
"_)))))))QQs<FQ))))))F<....<Z))))))QF<sQQ)))))))_",
"_))))))Qcg5*gjJ)))))Z<....2F)))))Jjg*2hcQ))))))_",
"_))))))Qf*$+=8Z)))))F<....<F)))))F8=+$*gQ))))))_",
"_)))))))CBp<bMW)))))F<....<F)))))WMb<pBB)))))))_",
"_))))))))Ws8C)))))))Z<....<Z)))))))C8sW))))))))_",
"_)))))))))ZCW)))))))F<....<F)))))))WCZ)))))))))_",
"_)))))))))))))))))))F<....<Z)))))))))))))))))))_",
"_)))))))))))))))))))Z2.++.2F)))))))))))))))))))_",
"_)))))))))))))))))))Ft2222tJ)))))))))))))))))))_",
"________________________________________________",
"________________________________________________",
"________________________________________________",
"________________________________________________",
"________________________________________________",
"________________________________________________",
"________________________________________________",
"________________________________________________"
};
