/* XPM */
static char *gr[] = {
/* columns rows colors chars-per-pixel */
"48 48 70 1",
"  c black",
". c #0B1B87",
"X c #0C1B88",
"o c #0C1C88",
"O c #0D1C89",
"+ c #0D1D89",
"@ c #0E1D88",
"# c #0E1D89",
"$ c #0F1E89",
"% c #0F1E8A",
"& c #101F8A",
"* c #11208B",
"= c #12218C",
"- c #13228C",
"; c #14238D",
": c #1D2C90",
"> c #1E2C90",
", c #202E91",
"< c #202E92",
"1 c #212F92",
"2 c #223093",
"3 c #2D3A98",
"4 c #313E9A",
"5 c #3D49A0",
"6 c #424DA2",
"7 c #4D59A8",
"8 c #4E59A8",
"9 c #4E5AA9",
"0 c #4F5AA8",
"q c #4F5BA9",
"w c #505BA9",
"e c #505BAA",
"r c #505CAA",
"t c #5762AD",
"y c #5B67AF",
"u c #656FB4",
"i c #6771B5",
"p c #7981BD",
"a c #7C84BF",
"s c #989ECC",
"d c #A9AED5",
"f c #AAAFD5",
"g c #ABAFD5",
"h c #AAB0D6",
"j c #ABB0D6",
"k c #B0B5D8",
"l c #BFC2DF",
"z c #BFC3E0",
"x c #C0C5E0",
"c c #D1D4E8",
"v c #D2D4E9",
"b c #D2D5E9",
"n c #D4D7EA",
"m c #D5D8EA",
"M c #D5D8EB",
"N c #DEE0EF",
"B c #E1E3F0",
"V c #E8E9F4",
"C c #EEEFF7",
"Z c #EFF0F7",
"A c #F1F1F8",
"S c #F6F7FB",
"D c #F7F7FB",
"F c #F8F8FB",
"G c #F9F9FB",
"H c #F8F8FC",
"J c #FDFDFE",
"K c #FEFEFE",
"L c gray100",
"P c None",
/* pixels */
"PPPPPPPPPPPPPPPPPPPPPPPPPPPPPPPPPPPPPPPPPPPPPPPP",
"PPPPPPPPPPPPPPPPPPPPPPPPPPPPPPPPPPPPPPPPPPPPPPPP",
"PPPPPPPPPPPPPPPPPPPPPPPPPPPPPPPPPPPPPPPPPPPPPPPP",
"PPPPPPPPPPPPPPPPPPPPPPPPPPPPPPPPPPPPPPPPPPPPPPPP",
"PPPPPPPPPPPPPPPPPPPPPPPPPPPPPPPPPPPPPPPPPPPPPPPP",
"PPPPPPPPPPPPPPPPPPPPPPPPPPPPPPPPPPPPPPPPPPPPPPPP",
"PPPPPPPPPPPPPPPPPPPPPPPPPPPPPPPPPPPPPPPPPPPPPPPP",
"&&&&&$1bLLd*&&&&&&&&&&&&&&&&&&&&&&&&&&&&&&&&&&&&",
"&&&&&$1bLLd&&&&&&&&&&&&&&&&&&&&&&&&&&&&&&&&&&&&&",
"&&&&&$1bLLd*&&&&&&&&&&&&&&&&&&&&&&&&&&&&&&&&&&&&",
"&&&&&$1bLLd*&&&&&$XXXXXXXXXXXXXXXXXXXXXXXXXXXXXX",
"&&&&&$1bLLd*&&&&$3paaaaaaaaaaaaaaaaaaaaaaaaaaaaa",
"&&&&&$1bLLd**&&&$8HLLLLLLLLLLLLLLLLLLLLLLLLLLLLL",
"$$$$$$1bLLd&$$$$.8FLLLLLLLLLLLLLLLLLLLLLLLLLLLLL",
"1111114MLLk21111>tVCCCCCCCCCCCCCCCCCCCCCCCCCCCCC",
"bbbbbbMSLLZbbbbbnh655555555555555555555555555555",
"LLLLLLLLLLLLLLLLLz;$XX$XX$XXXXXXXX$XX$XXXXXXXX$X",
"LLLLLLLLLLLLLLLLLl=.....X...XXXX....X...XXXX....",
"ddddddkZLLBjddhhdsiuuuuuuuuuuuuuuuuuuuuuuuuuuuuu",
"******2bLLh=****$eSLLLLLLLLLLLLLLLLLLLLLLLLLLLLL",
"*&&&&$1bLLd**$*$X8FLLLLLLLLLLLLLLLLLLLLLLLLLLLLL",
"*&&&&$1bLLd*$*$*$8AFFFFFFFFFDDDDFFFFFFFFDDFFFFFF",
"&&&&&$1bLLd**$*$$1888qqq8q8q88e8qqqq8qqq88888qqq",
"&&&&&$1bLLh*$*$$$$oooooooooo$.$$oooooooo$X$ooooo",
"ooooo.:cLLd$.o$oooooo$X$oooooooo$$.$oooooooo$$XX",
"q8q8q8yNLLz888q8qqq88888qqq8qqqq8e88q8q8qqq88888",
"FFFFFFFLLLLDHHFFFFFFFFDDFFFFFFFFDDDDFFFFFFFFFFSD",
"LLLLLLLLLLLLLLLLLLLLLLLLLLLLLLLLLLLLLLLLLLLLLLLL",
"LLLLLLLLLLLLLLLLLLLLLLLLLLLLLLLLLLLLLLLLLLLLLLLL",
"uuuuuuuuuuuuuuuuuuuuuuuuuuuuuuuuuuuuuuuuuuuuuuuu",
"..XX....XXXX...X....XXXX...X....XXXX...X....XXX.",
"XX$XX$XXXXXXXX$XX$XXXXXXXX$XX$XXXXXXXX$XX$XX$XX$",
"555555555555555555555555555555555555555555555555",
"CCCCCCCCCCCCCCCCCCCCCCCCCCCCCCCCCCCCCCCCCCCCCCCC",
"LLLLLLLLLLLLLLLLLLLLLLLLLLLLLLLLLLLLLLLLLLLLLLLL",
"LLLLLLLLLLLLLLLLLLLLLLLLLLLLLLLLLLLLLLLLLLLLLLLL",
"aaaaaaaaaaaaaaaaaaaaaaaaaaaaaaaaaaaaaaaaaaaaaaaa",
"XXXXXXXXXXXXXXXXXXXXXXXXXXXXXXXXXXXXXXXXXXXXXXXX",
"&&&&&&&&&&&&&&&&&&&&&&&&&&&&&&&&&&&&&&&&&&&&&&&&",
"&&&&&&&&&&&&&&&&&&&&&&&&&&&&&&&&&&&&&&&&&&&&&&&&",
"&&&&&&&&&&&&&&&&&&&&&&&&&&&&&&&&&&&&&&&&&&&&&&&&",
"PPPPPPPPPPPPPPPPPPPPPPPPPPPPPPPPPPPPPPPPPPPPPPPP",
"PPPPPPPPPPPPPPPPPPPPPPPPPPPPPPPPPPPPPPPPPPPPPPPP",
"PPPPPPPPPPPPPPPPPPPPPPPPPPPPPPPPPPPPPPPPPPPPPPPP",
"PPPPPPPPPPPPPPPPPPPPPPPPPPPPPPPPPPPPPPPPPPPPPPPP",
"PPPPPPPPPPPPPPPPPPPPPPPPPPPPPPPPPPPPPPPPPPPPPPPP",
"PPPPPPPPPPPPPPPPPPPPPPPPPPPPPPPPPPPPPPPPPPPPPPPP",
"PPPPPPPPPPPPPPPPPPPPPPPPPPPPPPPPPPPPPPPPPPPPPPPP"
};
