/* XPM */
static char *il[] = {
/* columns rows colors chars-per-pixel */
"48 48 45 1",
"  c black",
". c #0047C8",
"X c #0048C8",
"o c #0349C8",
"O c #044BC9",
"+ c #074BC9",
"@ c #0C51CB",
"# c #1051CA",
"$ c #1757CD",
"% c #2764D0",
"& c #2863D0",
"* c #2C68D2",
"= c #3A71D4",
"- c #3A71D5",
"; c #3F74D5",
": c #4479D7",
"> c #4579D7",
", c #497CD8",
"< c #4A7CD8",
"1 c #5081D9",
"2 c #5988DB",
"3 c #5D8ADC",
"4 c #5F8CDC",
"5 c #6892DE",
"6 c #6F98E0",
"7 c #91B0E7",
"8 c #A4BDEB",
"9 c #AFC6EE",
"0 c #B0C7EE",
"q c #B1C7EE",
"w c #B3C8EF",
"e c #BCCFF1",
"r c #C3D4F2",
"t c #C5D5F2",
"y c #E3EBF9",
"u c #E6EDFA",
"i c #ECF1FB",
"p c #ECF2FB",
"a c #F7F9FD",
"s c #F8FAFD",
"d c #F9FBFE",
"f c #FAFBFE",
"g c #FBFCFE",
"h c gray100",
"j c None",
/* pixels */
"jjjjjjjjjjjjjjjjjjjjjjjjjjjjjjjjjjjjjjjjjjjjjjjj",
"jjjjjjjjjjjjjjjjjjjjjjjjjjjjjjjjjjjjjjjjjjjjjjjj",
"jjjjjjjjjjjjjjjjjjjjjjjjjjjjjjjjjjjjjjjjjjjjjjjj",
"jjjjjjjjjjjjjjjjjjjjjjjjjjjjjjjjjjjjjjjjjjjjjjjj",
"jjjjjjjjjjjjjjjjjjjjjjjjjjjjjjjjjjjjjjjjjjjjjjjj",
"jjjjjjjjjjjjjjjjjjjjjjjjjjjjjjjjjjjjjjjjjjjjjjjj",
"hhhhhhhhhhhhhhhhhhhhhhhhhhhhhhhhhhhhhhhhhhhhhhhh",
"hhhhhhhhhhhhhhhhhhhhhhhhhhhhhhhhhhhhhhhhhhhhhhhh",
"hhhhhhhhhhhhhhhhhhhhhhhhhhhhhhhhhhhhhhhhhhhhhhhh",
"tttttttttttttttttttttttttttttttttttttttttttttttt",
"@@@@@@@@@@@@@@@@@@@@@@@@@@@@@@@@@@@@@@@@@@@@@@@@",
"................................................",
"XXXXXXXXXXXXXXXXXXXXXXXXXXXXXXXXXXXXXXXXXXXXXXXX",
"XXXXXXXXXXXXXXXXXXXXXXXXXXXXXXXXXXXXXXXXXXXXXXXX",
"OOOOOOOOOOOOOOOOOOOOOOOOOOOOOOOOOOOOOOOOOOOOOOOO",
"99999999999999999999999qq99999999999999999999999",
"hhhhhhhhhhhhhhhhhhhhhhhyyhhhhhhhhhhhhhhhhhhhhhhh",
"hhhhhhhhhhhhhhhhhhhhhhf55fhhhhhhhhhhhhhhhhhhhhhh",
"hhhhhhhhhhhhhhhhhhhhhhe$$ehhhhhhhhhhhhhhhhhhhhhh",
"hhhhhhhhhhhhhhhhhfaafp,22<pfaafhhhhhhhhhhhhhhhhh",
"hhhhhhhhhhhhhhhhhr,::-O**+-::<rhhhhhhhhhhhhhhhhh",
"hhhhhhhhhhhhhhhhhp;&6#4773#6&;ihhhhhhhhhhhhhhhhh",
"hhhhhhhhhhhhhhhhhhw%1-uhhu-1&qhhhhhhhhhhhhhhhhhh",
"hhhhhhhhhhhhhhhhhhf3X8hhhh8X3fhhhhhhhhhhhhhhhhhh",
"hhhhhhhhhhhhhhhhhhf3X8hhhh8O3fhhhhhhhhhhhhhhhhhh",
"hhhhhhhhhhhhhhhhhhq&1-uhhu-1&whhhhhhhhhhhhhhhhhh",
"hhhhhhhhhhhhhhhhhp:&6#3774#6&;phhhhhhhhhhhhhhhhh",
"hhhhhhhhhhhhhhhhhr,::-O**O-::<rhhhhhhhhhhhhhhhhh",
"hhhhhhhhhhhhhhhhhfaaai<22<ifaafhhhhhhhhhhhhhhhhh",
"hhhhhhhhhhhhhhhhhhhhhhe$$ehhhhhhhhhhhhhhhhhhhhhh",
"hhhhhhhhhhhhhhhhhhhhhhf55fhhhhhhhhhhhhhhhhhhhhhh",
"hhhhhhhhhhhhhhhhhhhhhhhyyhhhhhhhhhhhhhhhhhhhhhhh",
"99999999999999999999999qqq9999999999999999999999",
"OOOOOOOOOOOOOOOOOOOOOOOOXOOOOOOOOOOOOOOOOOOOOOOO",
"XX..XXXXXXXXXXXXXXXXXXXXXXXXXXXXXXXXXXXXXXXXXXXX",
"XXXXXXXXXXXXXXXXXXXXXXXXXXXXXXXXXXXXXXXXXXXXXXXX",
"........................XX......................",
"@@@@@@@@@@@@@@@@@@@@@@@@@@@@@@@@@@@@@@@@@@@@@@@@",
"tttttttttttttttttttttttttttttttttttttttttttttttt",
"hhhhhhhhhhhhhhhhhhhhhhhhhhhhhhhhhhhhhhhhhhhhhhhh",
"hhhhhhhhhhhhhhhhhhhhhhhhhhhhhhhhhhhhhhhhhhhhhhhh",
"hhhhhhhhhhhhhhhhhhhhhhhhhhhhhhhhhhhhhhhhhhhhhhhh",
"jjjjjjjjjjjjjjjjjjjjjjjjjjjjjjjjjjjjjjjjjjjjjjjj",
"jjjjjjjjjjjjjjjjjjjjjjjjjjjjjjjjjjjjjjjjjjjjjjjj",
"jjjjjjjjjjjjjjjjjjjjjjjjjjjjjjjjjjjjjjjjjjjjjjjj",
"jjjjjjjjjjjjjjjjjjjjjjjjjjjjjjjjjjjjjjjjjjjjjjjj",
"jjjjjjjjjjjjjjjjjjjjjjjjjjjjjjjjjjjjjjjjjjjjjjjj",
"jjjjjjjjjjjjjjjjjjjjjjjjjjjjjjjjjjjjjjjjjjjjjjjj"
};
