/* XPM */
static char *kg[] = {
/* columns rows colors chars-per-pixel */
"48 48 148 2",
"   c black",
".  c red",
"X  c #FF0100",
"o  c #FF0200",
"O  c #FF0300",
"+  c #FF0400",
"@  c #FF0500",
"#  c #FF0600",
"$  c #FF0900",
"%  c #FF0A00",
"&  c #FF0B00",
"*  c #FF0C00",
"=  c #FF0D00",
"-  c #FF0E00",
";  c #FF1000",
":  c #FF1100",
">  c #FF1200",
",  c #FF1300",
"<  c #FF1400",
"1  c #FF1600",
"2  c #FF1700",
"3  c #FF1900",
"4  c #FF1A00",
"5  c #FF1B00",
"6  c #FF1D00",
"7  c #FF2000",
"8  c #FF2100",
"9  c #FF2400",
"0  c #FF2500",
"q  c #FF2700",
"w  c #FF2B00",
"e  c #FF3100",
"r  c #FF3400",
"t  c #FF3900",
"y  c #FF3A00",
"u  c #FF3B00",
"i  c #FF3C00",
"p  c #FF3D00",
"a  c #FF3E00",
"s  c #FF3F00",
"d  c #FF4000",
"f  c #FF4100",
"g  c #FF4200",
"h  c #FF4300",
"j  c #FF4700",
"k  c #FF4900",
"l  c #FF4A00",
"z  c #FF4B00",
"x  c #FF4C00",
"c  c #FF4D00",
"v  c #FF4F00",
"b  c #FF5000",
"n  c #FF5100",
"m  c #FF5300",
"M  c #FF5400",
"N  c #FF5500",
"B  c #FF5700",
"V  c #FF5800",
"C  c #FF5900",
"Z  c #FF5A00",
"A  c #FF5B00",
"S  c #FF5C00",
"D  c #FF5D00",
"F  c #FF5E00",
"G  c #FF6000",
"H  c #FF6100",
"J  c #FF6400",
"K  c #FF6500",
"L  c #FF6600",
"P  c #FF6700",
"I  c #FF6800",
"U  c #FF6D00",
"Y  c #FF7000",
"T  c #FF7100",
"R  c #FF7200",
"E  c #FF7800",
"W  c #FF7900",
"Q  c #FF7A00",
"!  c #FF7C00",
"~  c #FF7E00",
"^  c #FF7F00",
"/  c #FF8000",
"(  c #FF8100",
")  c #FF8200",
"_  c #FF8400",
"`  c #FF8600",
"'  c #FF8700",
"]  c #FF8800",
"[  c #FF8900",
"{  c #FF8E00",
"}  c #FF8F00",
"|  c #FF9300",
" . c #FF9600",
".. c #FF9700",
"X. c #FF9A00",
"o. c #FF9B00",
"O. c #FF9D00",
"+. c #FFA000",
"@. c #FFA200",
"#. c #FFA300",
"$. c #FFA400",
"%. c orange",
"&. c #FFA700",
"*. c #FFA800",
"=. c #FFA900",
"-. c #FFAA00",
";. c #FFAB00",
":. c #FFAC00",
">. c #FFAE00",
",. c #FFAF00",
"<. c #FFB000",
"1. c #FFB100",
"2. c #FFB200",
"3. c #FFB400",
"4. c #FFB700",
"5. c #FFB800",
"6. c #FFBE00",
"7. c #FFBF00",
"8. c #FFC000",
"9. c #FFC900",
"0. c #FFCB00",
"q. c #FFCC00",
"w. c #FFCF00",
"e. c #FFD000",
"r. c #FFD100",
"t. c #FFD200",
"y. c #FFD400",
"u. c #FFD600",
"i. c gold",
"p. c #FFD900",
"a. c #FFDD00",
"s. c #FFDE00",
"d. c #FFE200",
"f. c #FFE300",
"g. c #FFE400",
"h. c #FFE500",
"j. c #FFE700",
"k. c #FFE800",
"l. c #FFE900",
"z. c #FFEA00",
"x. c #FFEB00",
"c. c #FFEC00",
"v. c #FFED00",
"b. c #FFEE00",
"n. c #FFEF00",
"m. c #FFF200",
"M. c #FFF300",
"N. c None",
/* pixels */
"N.N.N.N.N.N.N.N.N.N.N.N.N.N.N.N.N.N.N.N.N.N.N.N.N.N.N.N.N.N.N.N.N.N.N.N.N.N.N.N.N.N.N.N.N.N.N.N.",
"N.N.N.N.N.N.N.N.N.N.N.N.N.N.N.N.N.N.N.N.N.N.N.N.N.N.N.N.N.N.N.N.N.N.N.N.N.N.N.N.N.N.N.N.N.N.N.N.",
"N.N.N.N.N.N.N.N.N.N.N.N.N.N.N.N.N.N.N.N.N.N.N.N.N.N.N.N.N.N.N.N.N.N.N.N.N.N.N.N.N.N.N.N.N.N.N.N.",
"N.N.N.N.N.N.N.N.N.N.N.N.N.N.N.N.N.N.N.N.N.N.N.N.N.N.N.N.N.N.N.N.N.N.N.N.N.N.N.N.N.N.N.N.N.N.N.N.",
"N.N.N.N.N.N.N.N.N.N.N.N.N.N.N.N.N.N.N.N.N.N.N.N.N.N.N.N.N.N.N.N.N.N.N.N.N.N.N.N.N.N.N.N.N.N.N.N.",
"N.N.N.N.N.N.N.N.N.N.N.N.N.N.N.N.N.N.N.N.N.N.N.N.N.N.N.N.N.N.N.N.N.N.N.N.N.N.N.N.N.N.N.N.N.N.N.N.",
"N.N.N.N.N.N.N.N.N.N.N.N.N.N.N.N.N.N.N.N.N.N.N.N.N.N.N.N.N.N.N.N.N.N.N.N.N.N.N.N.N.N.N.N.N.N.N.N.",
"N.N.N.N.N.N.N.N.N.N.N.N.N.N.N.N.N.N.N.N.N.N.N.N.N.N.N.N.N.N.N.N.N.N.N.N.N.N.N.N.N.N.N.N.N.N.N.N.",
"N.N.N.N.N.N.N.N.N.N.N.N.N.N.N.N.N.N.N.N.N.N.N.N.N.N.N.N.N.N.N.N.N.N.N.N.N.N.N.N.N.N.N.N.N.N.N.N.",
". . . . . . . . . . . . . . . . . . . . . . . . . . . . . . . . . . . . . . . . . . . . . . . . ",
". . . . . . . . . . . . . . . . . . . . . . . . . . . . . . . . . . . . . . . . . . . . . . . . ",
". . . . . . . . . . . . . . . . . . . . . . . . . . . . . . . . . . . . . . . . . . . . . . . . ",
". . . . . . . . . . . . . . . . . . . . . . . . . . . . . . . . . . . . . . . . . . . . . . . . ",
". . . . . . . . . . . . . . . . . . . . . . . . . . . . . . . . . . . . . . . . . . . . . . . . ",
". . . . . . . . . . . . . . . . . . . . . . . . . . . . . . . . . . . . . . . . . . . . . . . . ",
". . . . . . . . . . . . . . . . . . . . . % , 2 2 , % . . . . . . . . . . . . . . . . . . . . . ",
". . . . . . . . . . . . . . . . . . @ % 9 u z v n z u 6 = . . . . . . . . . . . . . . . . . . . ",
". . . . . . . . . . . . . . . . . @ , u S ~ ..@.@.| Q S r 2 . . . . . . . . . . . . . . . . . . ",
". . . . . . . . . . . . . . . . . , s Y @.0.f.n.l.g.0.O.Y g 2 . . . . . . . . . . . . . . . . . ",
". . . . . . . . . . . . . . . . % u Y <.g.n.6.o.o.6.n.f.<.Y s % . . . . . . . . . . . . . . . . ",
". . . . . . . . . . . . . . . . 8 G @.f.s.Y ) 4.4.~ Y s.g.-.S 9 . . . . . . . . . . . . . . . . ",
". . . . . . . . . . . . . . . % s ~ q.n.Z s } 8.6.} s S m.q.) s = . . . . . . . . . . . . . . . ",
". . . . . . . . . . . . . . . 2 z ..l.4.Z ' Z e e Z ] Z 5.g.o.z , . . . . . . . . . . . . . . . ",
". . . . . . . . . . . . . . . 2 B -.m.} 6.p.U u u U p.6.} m.-.Z 2 . . . . . . . . . . . . . . . ",
". . . . . . . . . . . . . . . 5 Z >.m.} <.~ S E Q S ~ <.} m.&.B 5 . . . . . . . . . . . . . . . ",
". . . . . . . . . . . . . . . 2 v O.l.<.v P Z 4.4.Z P z <.n.o.n 2 . . . . . . . . . . . . . . . ",
". . . . . . . . . . . . . . . = g ' t.l.n n G q.q.G v B l.t.) s = . . . . . . . . . . . . . . . ",
". . . . . . . . . . . . . . . . 9 P -.l.t.n s >.>.s n t.l.&.P 9 . . . . . . . . . . . . . . . . ",
". . . . . . . . . . . . . . . . = g Q 4.l.g.&.) ) &.g.n.4.~ s = . . . . . . . . . . . . . . . . ",
". . . . . . . . . . . . . . . . @ 2 z Q >.i.n.m.m.n.i.<.Q j 5 . . . . . . . . . . . . . . . . . ",
". . . . . . . . . . . . . . . . . @ 5 s I ] @.<.>.@.] P g 5 @ . . . . . . . . . . . . . . . . . ",
". . . . . . . . . . . . . . . . . . . = 9 g n S S B g w = @ . . . . . . . . . . . . . . . . . . ",
". . . . . . . . . . . . . . . . . . . . @ = 5 6 6 5 , @ . . . . . . . . . . . . . . . . . . . . ",
". . . . . . . . . . . . . . . . . . . . . . . . . . . . . . . . . . . . . . . . . . . . . . . . ",
". . . . . . . . . . . . . . . . . . . . . . . . . . . . . . . . . . . . . . . . . . . . . . . . ",
". . . . . . . . . . . . . . . . . . . . . . . . . . . . . . . . . . . . . . . . . . . . . . . . ",
". . . . . . . . . . . . . . . . . . . . . . . . . . . . . . . . . . . . . . . . . . . . . . . . ",
". . . . . . . . . . . . . . . . . . . . . . . . . . . . . . . . . . . . . . . . . . . . . . . . ",
". . . . . . . . . . . . . . . . . . . . . . . . . . . . . . . . . . . . . . . . . . . . . . . . ",
"N.N.N.N.N.N.N.N.N.N.N.N.N.N.N.N.N.N.N.N.N.N.N.N.N.N.N.N.N.N.N.N.N.N.N.N.N.N.N.N.N.N.N.N.N.N.N.N.",
"N.N.N.N.N.N.N.N.N.N.N.N.N.N.N.N.N.N.N.N.N.N.N.N.N.N.N.N.N.N.N.N.N.N.N.N.N.N.N.N.N.N.N.N.N.N.N.N.",
"N.N.N.N.N.N.N.N.N.N.N.N.N.N.N.N.N.N.N.N.N.N.N.N.N.N.N.N.N.N.N.N.N.N.N.N.N.N.N.N.N.N.N.N.N.N.N.N.",
"N.N.N.N.N.N.N.N.N.N.N.N.N.N.N.N.N.N.N.N.N.N.N.N.N.N.N.N.N.N.N.N.N.N.N.N.N.N.N.N.N.N.N.N.N.N.N.N.",
"N.N.N.N.N.N.N.N.N.N.N.N.N.N.N.N.N.N.N.N.N.N.N.N.N.N.N.N.N.N.N.N.N.N.N.N.N.N.N.N.N.N.N.N.N.N.N.N.",
"N.N.N.N.N.N.N.N.N.N.N.N.N.N.N.N.N.N.N.N.N.N.N.N.N.N.N.N.N.N.N.N.N.N.N.N.N.N.N.N.N.N.N.N.N.N.N.N.",
"N.N.N.N.N.N.N.N.N.N.N.N.N.N.N.N.N.N.N.N.N.N.N.N.N.N.N.N.N.N.N.N.N.N.N.N.N.N.N.N.N.N.N.N.N.N.N.N.",
"N.N.N.N.N.N.N.N.N.N.N.N.N.N.N.N.N.N.N.N.N.N.N.N.N.N.N.N.N.N.N.N.N.N.N.N.N.N.N.N.N.N.N.N.N.N.N.N.",
"N.N.N.N.N.N.N.N.N.N.N.N.N.N.N.N.N.N.N.N.N.N.N.N.N.N.N.N.N.N.N.N.N.N.N.N.N.N.N.N.N.N.N.N.N.N.N.N."
};
