/* XPM */
static char *km[] = {
/* columns rows colors chars-per-pixel */
"48 48 203 2",
"   c black",
".  c #4F7B2F",
"X  c #4D7F36",
"o  c #517C31",
"O  c #795B2D",
"+  c #785B2E",
"@  c #636D2F",
"#  c #636D30",
"$  c #3B7C9B",
"%  c #3B7C9C",
"&  c #3A79AD",
"*  c #3A79AE",
"=  c #3A77BA",
"-  c #3A76BD",
";  c #3A75C2",
":  c #3A76C2",
">  c #3975C6",
",  c #3876C6",
"<  c #3A75C4",
"1  c #3A75C5",
"2  c #3A74C7",
"3  c #3A75C6",
"4  c #5F5C9D",
"5  c #4B6E9B",
"6  c #605B9D",
"7  c #605C9D",
"8  c #398C2F",
"9  c #3A8C30",
"0  c #3A8D30",
"q  c #3B8D30",
"w  c #3B8D31",
"e  c #3A8D32",
"r  c #3A8D33",
"t  c #3B8D33",
"y  c #3B8E33",
"u  c #3C8D32",
"i  c #3C8E31",
"p  c #3D8E31",
"a  c #3C8E32",
"s  c #3C8E33",
"d  c #3C8F33",
"f  c #3D8E32",
"g  c #3D8E33",
"h  c #3F8C33",
"j  c #3F8D33",
"k  c #3D8E34",
"l  c #3D8E35",
"z  c #3F8F35",
"x  c #3F8F36",
"c  c #3D8C3B",
"v  c #3D8D3B",
"b  c #3D8C3E",
"n  c #3B9033",
"m  c #3D8B47",
"M  c #3D8A48",
"N  c #3C8859",
"B  c #3C846E",
"V  c #3C8371",
"C  c #458732",
"Z  c #468732",
"A  c #438F32",
"S  c #409036",
"D  c #419137",
"F  c #429138",
"G  c #439139",
"H  c #43923A",
"J  c #44923A",
"K  c #44923B",
"L  c #45933C",
"P  c #47943E",
"I  c #4F9331",
"U  c #48953F",
"Y  c #539431",
"T  c #63992F",
"R  c #7DA02C",
"E  c #4B9642",
"W  c #4C9743",
"Q  c #4D9844",
"!  c #4E9845",
"~  c #4F9846",
"^  c #509947",
"/  c #539B4A",
"(  c #549B4A",
")  c #559C4C",
"_  c #579D4F",
"`  c #589D4F",
"'  c #5A9F52",
"]  c #5BA053",
"[  c #5DA155",
"{  c #5EA155",
"}  c #5EA156",
"|  c #63A253",
" . c #61A359",
".. c #61A55B",
"X. c #63A45B",
"o. c #64A55C",
"O. c #65A55D",
"+. c #67A75F",
"@. c #68A760",
"#. c #6CAA65",
"$. c #72AD6B",
"%. c #73AE6C",
"&. c #77B070",
"*. c #78B171",
"=. c #79B172",
"-. c #7AB273",
";. c #7CB376",
":. c #7DB376",
">. c #7DB377",
",. c #7EB478",
"<. c #7FB479",
"1. c #3B8085",
"2. c #BF1D2C",
"3. c #A5342A",
"4. c #A63429",
"5. c #B72428",
"6. c #B82528",
"7. c #8A4B31",
"8. c #90472C",
"9. c #954A31",
"0. c #CE0F24",
"q. c #C41927",
"w. c #CC1326",
"e. c #CF1025",
"r. c #CE1126",
"t. c #CF1026",
"y. c #CB132B",
"u. c #C9142C",
"i. c #C9152C",
"p. c #D00F26",
"a. c #D01026",
"s. c #D12E3F",
"d. c #D42D40",
"f. c #9BA929",
"g. c #9BA92A",
"h. c #AAAD27",
"j. c #BAB225",
"k. c #BAB226",
"l. c #81B67A",
"z. c #82B67B",
"x. c #83B77C",
"c. c #D5BA23",
"v. c #F7C41F",
"b. c #F9C51E",
"n. c #FFC51B",
"m. c #FDC61E",
"M. c #FFC61C",
"N. c #FFC61E",
"B. c #FFC71E",
"V. c #EAC020",
"C. c #EAC841",
"Z. c #FFD456",
"A. c #FFD457",
"S. c #FFD658",
"D. c #89BA83",
"F. c #8CBC86",
"G. c #91BF8B",
"H. c #95C18F",
"J. c #98C393",
"K. c #9BC596",
"L. c #A0C89B",
"P. c #A1C89C",
"I. c #A5CBA1",
"U. c #ABCEA6",
"Y. c #B0D1AC",
"T. c #B1D1AD",
"R. c #B3D3AF",
"E. c #BAD5AE",
"W. c #B4D3B0",
"Q. c #BBD5B5",
"!. c #BAD7B6",
"~. c #C7DEC4",
"^. c #C8DFC5",
"/. c #CAE0C7",
"(. c #CBE1C9",
"). c #CCE1CA",
"_. c #CEE2CB",
"`. c #CFE3CC",
"'. c #D5E6D3",
"]. c #D5E7D3",
"[. c #E1EEDF",
"{. c #EAF2E9",
"}. c #EAF3E9",
"|. c #EBF3EA",
" X c #EEF5ED",
".X c #F7E4E4",
"XX c #F9E3E5",
"oX c #F0F6EF",
"OX c #F7F9EF",
"+X c #F2F7F1",
"@X c #F3F8F1",
"#X c #F3F8F2",
"$X c #F6FAF5",
"%X c #F7FAF6",
"&X c #FFFDF7",
"*X c #F9FCF9",
"=X c #FAFCFA",
"-X c #FBFDFB",
";X c #FCFDFB",
":X c #FFFEF9",
">X c #FDFEFD",
",X c gray100",
"<X c None",
/* pixels */
"<X<X<X<X<X<X<X<X<X<X<X<X<X<X<X<X<X<X<X<X<X<X<X<X<X<X<X<X<X<X<X<X<X<X<X<X<X<X<X<X<X<X<X<X<X<X<X<X",
"<X<X<X<X<X<X<X<X<X<X<X<X<X<X<X<X<X<X<X<X<X<X<X<X<X<X<X<X<X<X<X<X<X<X<X<X<X<X<X<X<X<X<X<X<X<X<X<X",
"<X<X<X<X<X<X<X<X<X<X<X<X<X<X<X<X<X<X<X<X<X<X<X<X<X<X<X<X<X<X<X<X<X<X<X<X<X<X<X<X<X<X<X<X<X<X<X<X",
"<X<X<X<X<X<X<X<X<X<X<X<X<X<X<X<X<X<X<X<X<X<X<X<X<X<X<X<X<X<X<X<X<X<X<X<X<X<X<X<X<X<X<X<X<X<X<X<X",
"<X<X<X<X<X<X<X<X<X<X<X<X<X<X<X<X<X<X<X<X<X<X<X<X<X<X<X<X<X<X<X<X<X<X<X<X<X<X<X<X<X<X<X<X<X<X<X<X",
"<X<X<X<X<X<X<X<X<X<X<X<X<X<X<X<X<X<X<X<X<X<X<X<X<X<X<X<X<X<X<X<X<X<X<X<X<X<X<X<X<X<X<X<X<X<X<X<X",
"<X<X<X<X<X<X<X<X<X<X<X<X<X<X<X<X<X<X<X<X<X<X<X<X<X<X<X<X<X<X<X<X<X<X<X<X<X<X<X<X<X<X<X<X<X<X<X<X",
"<X<X<X<X<X<X<X<X<X<X<X<X<X<X<X<X<X<X<X<X<X<X<X<X<X<X<X<X<X<X<X<X<X<X<X<X<X<X<X<X<X<X<X<X<X<X<X<X",
"<X<X<X<X<X<X<X<X<X<X<X<X<X<X<X<X<X<X<X<X<X<X<X<X<X<X<X<X<X<X<X<X<X<X<X<X<X<X<X<X<X<X<X<X<X<X<X<X",
"h.b.N.N.N.N.N.N.N.N.N.N.N.N.N.N.N.N.N.N.N.N.N.N.N.N.N.N.N.N.N.N.N.N.N.N.N.N.N.N.N.N.N.N.N.N.N.N.",
"Y f.V.N.N.N.N.N.N.N.N.N.N.N.N.N.N.N.N.N.N.N.N.N.N.N.N.N.N.N.N.N.N.N.N.N.N.N.N.N.N.N.N.N.N.N.N.N.",
"y s T j.v.N.N.N.N.N.N.N.N.N.N.N.N.N.N.N.N.N.N.N.N.N.N.N.N.N.N.N.N.N.N.N.N.N.N.N.N.N.N.N.N.N.N.N.",
"s s s A R c.N.N.N.N.N.N.N.N.N.N.N.N.N.N.N.N.N.N.N.N.N.N.N.N.N.N.N.N.N.N.N.N.N.N.N.N.N.N.N.N.N.N.",
"s s s s s Y f.V.N.N.N.N.N.N.N.N.N.N.N.N.N.N.N.N.N.N.N.N.N.N.N.N.N.N.N.N.N.N.N.N.N.N.N.N.N.N.N.N.",
"s s A s s s s T j.v.N.N.N.N.N.N.N.N.N.N.N.N.N.N.N.N.N.N.N.N.N.N.N.N.N.N.N.N.N.N.N.N.N.N.N.N.N.N.",
"s s s s s s s s A R c.N.N.n.n.n.n.n.n.n.n.n.n.n.n.n.n.n.n.n.n.n.n.n.n.n.n.n.n.n.n.n.n.n.n.n.n.n.",
"s s s k s s 9 y 9 y Y f.C.Z.Z.Z.Z.Z.Z.Z.Z.Z.Z.Z.Z.Z.Z.Z.Z.Z.Z.Z.Z.Z.Z.Z.Z.Z.Z.Z.Z.Z.Z.Z.Z.Z.Z.Z.",
"s s s k s W $.G.l.W y s | E.OX;X&X&X&X&X&X&X&X&X&X&X&X&X&X&X&X&X&X&X&X&X&X&X&X&X&X&X&X&X&X&X&X&X",
"s s s A :.'.+XY.#.=.( s s J :.'.,X,X,X,X,X,X,X,X,X,X,X,X,X,X,X,X,X,X,X,X,X,X,X,X,X,X,X,X,X,X,X,X",
"s s A H.$X*XJ.A _ ).:.s s s h ~ K.{.,X,X,X,X,X,X,X,X,X,X,X,X,X,X,X,X,X,X,X,X,X,X,X,X,X,X,X,X,X,X",
"s s &.@X,XW.F s J } W s s s s s s X.Q.%X,X,X,X,X,X,X,X,X,X,X,X,X,X,X,X,X,X,X,X,X,X,X,X,X,X,X,X,X",
"s P ^.,X XX.s s J @.W s s A s s s y G :.].;X,X,X,X,X,X,X,X,X,X,X,X,X,X,X,X,X,X,X,X,X,X,X,X,X,X,X",
"8  .oX,X^.J s s ' `.,.s s s s A s s s 8 ^ K.}.,X,X,X,X,X,X,X,X,X,X,X,X,X,X,X,X,X,X,X,X,X,X,X,X,X",
"8 &.=X,XY.s s s P +.^ s s s s s s s s s s s X.Q..XXXXXXXXXXXXXXXXXXXXXXXXXXXXXXXXXXXXXXXXXXXXXXX",
"8 &.=X,XY.s s s F } E s s s s s s k k k k k o 9.s.s.d.d.d.s.d.d.d.d.d.d.d.d.d.d.d.d.d.d.d.d.d.d.",
"h X.oX,X~.D s s ' (.:.y s s s s s k k n C + 5.p.0.0.e.e.e.e.e.e.0.0.0.0.0.0.0.0.0.0.0.0.0.0.0.0.",
"s P ).,X|.} s s P %.( s s s s s s s k # 3.e.p.w.e.e.e.e.e.e.e.w.w.p.w.p.w.p.w.p.w.p.w.p.w.a.w.a.",
"s y l.$X,XU.A s A ( J s s s A s s o 8.q.0.e.p.w.e.e.e.e.w.w.e.e.p.w.p.w.p.w.p.w.p.w.a.w.a.w.a.w.",
"s s A L.*X$XF.s ` ~.-.h k k n Z + 6.e.e.w.a.w.p.p.w.w.w.e.e.w.w.w.a.w.p.w.p.w.w.w.p.w.p.w.a.w.a.",
"A s s G F.[.@XI.O.x.' h n A # 4.e.a.e.e.w.w.p.w.w.p.w.w.e.w.t.w.w.w.p.w.p.w.a.w.p.w.p.w.w.w.a.w.",
"s s s s s ( l.L.D.~ s s Z 7.2.u.u.u.u.u.u.u.u.u.y.u.u.u.u.u.u.u.u.u.u.u.u.u.u.u.u.u.u.u.i.i.u.u.",
"s s s s s s 8 s s s c B 5 6 7 4 4 4 4 4 4 4 4 7 6 6 4 4 4 4 4 4 4 4 4 7 7 6 4 4 4 7 7 6 4 4 4 4 ",
"s s s s s s s s k N % ; < > > > > > , , , , , , , , , , , , , , , , , , , , , , , , , , , , , , ",
"s A s s s s A m 1.= < < < < < < < < < < < < < < < < < < < < < < < < < < < < < < < < < < < < < < ",
"s s s A s v B * < < < < < < < < < < < < < < < < < < < < < < < < < < < < < < < < < < < < < < < < ",
"s s s k N % ; < < < < < < < < < < < < < < < < < < < < < < < < < < < < < < < < < < < < < < < < < ",
"s A M 1.= < < < < < < < < < < < < < < < < < < < < < < < < < < < < < < < < < < < < < < < < < < < ",
"b B * < < < < < < < < < < < < < < < < < < < < < < < < < < < < < < < < < < < < < < < < < < < < < ",
"V - 2 < < < < < < < < < < < < < < < < < < < < < < < < < < < < < < < < < < < < < < < < < < < < < ",
"<X<X<X<X<X<X<X<X<X<X<X<X<X<X<X<X<X<X<X<X<X<X<X<X<X<X<X<X<X<X<X<X<X<X<X<X<X<X<X<X<X<X<X<X<X<X<X<X",
"<X<X<X<X<X<X<X<X<X<X<X<X<X<X<X<X<X<X<X<X<X<X<X<X<X<X<X<X<X<X<X<X<X<X<X<X<X<X<X<X<X<X<X<X<X<X<X<X",
"<X<X<X<X<X<X<X<X<X<X<X<X<X<X<X<X<X<X<X<X<X<X<X<X<X<X<X<X<X<X<X<X<X<X<X<X<X<X<X<X<X<X<X<X<X<X<X<X",
"<X<X<X<X<X<X<X<X<X<X<X<X<X<X<X<X<X<X<X<X<X<X<X<X<X<X<X<X<X<X<X<X<X<X<X<X<X<X<X<X<X<X<X<X<X<X<X<X",
"<X<X<X<X<X<X<X<X<X<X<X<X<X<X<X<X<X<X<X<X<X<X<X<X<X<X<X<X<X<X<X<X<X<X<X<X<X<X<X<X<X<X<X<X<X<X<X<X",
"<X<X<X<X<X<X<X<X<X<X<X<X<X<X<X<X<X<X<X<X<X<X<X<X<X<X<X<X<X<X<X<X<X<X<X<X<X<X<X<X<X<X<X<X<X<X<X<X",
"<X<X<X<X<X<X<X<X<X<X<X<X<X<X<X<X<X<X<X<X<X<X<X<X<X<X<X<X<X<X<X<X<X<X<X<X<X<X<X<X<X<X<X<X<X<X<X<X",
"<X<X<X<X<X<X<X<X<X<X<X<X<X<X<X<X<X<X<X<X<X<X<X<X<X<X<X<X<X<X<X<X<X<X<X<X<X<X<X<X<X<X<X<X<X<X<X<X",
"<X<X<X<X<X<X<X<X<X<X<X<X<X<X<X<X<X<X<X<X<X<X<X<X<X<X<X<X<X<X<X<X<X<X<X<X<X<X<X<X<X<X<X<X<X<X<X<X"
};
