/* XPM */
static char *kp[] = {
/* columns rows colors chars-per-pixel */
"48 48 102 2",
"   c black",
".  c #014BA1",
"X  c #014CA1",
"o  c #034DA2",
"O  c #2166B1",
"+  c #276AB3",
"@  c #ED1921",
"#  c #ED1A22",
"$  c #ED1A23",
"%  c #ED1B23",
"&  c #ED1B24",
"*  c #EE1C23",
"=  c #ED1C24",
"-  c #ED1D25",
";  c #EF1D24",
":  c #EF1E25",
">  c #EF1F26",
",  c #EF1F27",
"<  c #ED2028",
"1  c #ED2129",
"2  c #ED232A",
"3  c #ED232B",
"4  c #EF2128",
"5  c #EE222A",
"6  c #EE232B",
"7  c #EE242B",
"8  c #EE242C",
"9  c #EE252D",
"0  c #EE262D",
"q  c #EE272F",
"w  c #EE2A31",
"e  c #EE2A32",
"r  c #EE2C33",
"t  c #EE2C34",
"y  c #EE2E36",
"u  c #EF343B",
"i  c #EF363D",
"p  c #F04249",
"a  c #F04349",
"s  c #F0454B",
"d  c #F0464C",
"f  c #F0464D",
"g  c #F0474D",
"h  c #F0484E",
"j  c #F14A50",
"k  c #F14A51",
"l  c #F14B51",
"z  c #F14C53",
"x  c #F26268",
"c  c #F26368",
"v  c #F3666B",
"b  c #F36C71",
"n  c #F36C72",
"m  c #F46A70",
"M  c #F46C72",
"N  c #F57B7F",
"B  c #F57B80",
"V  c #F57E83",
"C  c #F57F83",
"Z  c #F57F84",
"A  c #DE9CA8",
"S  c #DBA0AC",
"D  c #F58589",
"F  c #F5888C",
"G  c #F68F93",
"H  c #F69296",
"J  c #F69397",
"K  c #F69498",
"L  c #F8A1A5",
"P  c #F8A5A8",
"I  c #F8AAAD",
"U  c #F8ADB0",
"Y  c #F8AFB1",
"T  c #F9B1B4",
"R  c #F9B2B4",
"E  c #F9B3B5",
"W  c #F9B6B9",
"Q  c #F9B7B9",
"!  c #FABBBD",
"~  c #FBC6C8",
"^  c #FBC8CA",
"/  c #FBC9CB",
"(  c #FBCBCD",
")  c #FBCDCF",
"_  c #FBCED0",
"`  c #FBCFD1",
"'  c #FCD3D5",
"]  c #FCD7D8",
"[  c #FDECED",
"{  c #FEEDED",
"}  c #FEEDEE",
"|  c #FEEFF0",
" . c #FEF0F0",
".. c #FEF0F1",
"X. c #FEF2F2",
"o. c #FEF3F3",
"O. c #FFFCFC",
"+. c #FFFDFE",
"@. c #FFFEFE",
"#. c #FFFEFF",
"$. c gray100",
"%. c None",
/* pixels */
"%.%.%.%.%.%.%.%.%.%.%.%.%.%.%.%.%.%.%.%.%.%.%.%.%.%.%.%.%.%.%.%.%.%.%.%.%.%.%.%.%.%.%.%.%.%.%.%.",
"%.%.%.%.%.%.%.%.%.%.%.%.%.%.%.%.%.%.%.%.%.%.%.%.%.%.%.%.%.%.%.%.%.%.%.%.%.%.%.%.%.%.%.%.%.%.%.%.",
"%.%.%.%.%.%.%.%.%.%.%.%.%.%.%.%.%.%.%.%.%.%.%.%.%.%.%.%.%.%.%.%.%.%.%.%.%.%.%.%.%.%.%.%.%.%.%.%.",
"%.%.%.%.%.%.%.%.%.%.%.%.%.%.%.%.%.%.%.%.%.%.%.%.%.%.%.%.%.%.%.%.%.%.%.%.%.%.%.%.%.%.%.%.%.%.%.%.",
"%.%.%.%.%.%.%.%.%.%.%.%.%.%.%.%.%.%.%.%.%.%.%.%.%.%.%.%.%.%.%.%.%.%.%.%.%.%.%.%.%.%.%.%.%.%.%.%.",
"%.%.%.%.%.%.%.%.%.%.%.%.%.%.%.%.%.%.%.%.%.%.%.%.%.%.%.%.%.%.%.%.%.%.%.%.%.%.%.%.%.%.%.%.%.%.%.%.",
"%.%.%.%.%.%.%.%.%.%.%.%.%.%.%.%.%.%.%.%.%.%.%.%.%.%.%.%.%.%.%.%.%.%.%.%.%.%.%.%.%.%.%.%.%.%.%.%.",
"%.%.%.%.%.%.%.%.%.%.%.%.%.%.%.%.%.%.%.%.%.%.%.%.%.%.%.%.%.%.%.%.%.%.%.%.%.%.%.%.%.%.%.%.%.%.%.%.",
"%.%.%.%.%.%.%.%.%.%.%.%.%.%.%.%.%.%.%.%.%.%.%.%.%.%.%.%.%.%.%.%.%.%.%.%.%.%.%.%.%.%.%.%.%.%.%.%.",
"%.%.%.%.%.%.%.%.%.%.%.%.%.%.%.%.%.%.%.%.%.%.%.%.%.%.%.%.%.%.%.%.%.%.%.%.%.%.%.%.%.%.%.%.%.%.%.%.",
"%.%.%.%.%.%.%.%.%.%.%.%.%.%.%.%.%.%.%.%.%.%.%.%.%.%.%.%.%.%.%.%.%.%.%.%.%.%.%.%.%.%.%.%.%.%.%.%.",
"o o o o o o o o o o o o o o o o o o o o o o o o o o o o o o o o o o o o o o o o o o o o o o o o ",
"o o o o o o o o o o o o o o o o o o o o o o o o o o o o o o o o o o o o o o o o o o o o o o o o ",
"o o o o o o o o o o o o o o o o o o o o o o o o o o o o o o o o o o o o o o o o o o o o o o o o ",
"o o o . . . . o o o o . . . . o . . o o X X X X . . o o . . o o . . o o . . o o . . o o . . o o ",
"O O O O O O O O O O O O O O O O O O O O O O O O O O O O O O O O O O O O O O O O O O O O O O O O ",
"S S S S S S S S S S S S S S S S S S S S S S S S S S S S S S S S S S S S S S S S S S S S S S S S ",
"4 4 4 4 4 4 4 3 4 4 4 4 4 4 ; ; ; ; 4 4 4 4 4 4 4 4 4 4 4 4 4 4 4 4 4 4 4 4 4 4 4 4 4 4 4 4 4 4 ",
"= = = < ; = = = = = = = = 4 d x c h 3 % = = = = = = = = < = = = - - - - - - - - - - - - - - - - ",
"= < = = < = = < = < = = a Y | ( ~ ..R d = = = = = < = < = = = < - - - - - - - - - - - - - - - - ",
"= = = = = = < = = = = a ' @.@.D D @.@.] d % = = < = < = = = = = - - - - - - - - - - - - - - - - ",
"= < = < = < = = = < 3 U @.@...k d [ @.@.R 8 = = = = = = = < = < - - - - - - - - - - - - - - - - ",
"< = = = = = = = = % h E D N n 8 3 m N V R j % = = = < = < = = = - - - - - - - - - - - - - - - - ",
"= = = < = < = = = $ v [ K t $ = ; % w G [ b % ; = < = = = = = < - - - - - - - - - - - - - - - - ",
"= = < = = = = = - $ v @.@.! t = = t Q @.@.b $ - = = < = = = = = - - - - - - - - - - - - - - - - ",
"= < = = = < = < - $ k [ @.) w - < q ^ @...z $ - = < = = = < = < - - - - - - - - - - - - - - - - ",
"= = = = < = = = - - 3 E @.G u L P i F @.Q 8 = - = = = = < = = = - - - - - - - - - - - - - - - - ",
"= < = < = = = < = = $ h ` J ( @.@.` J ` k $ - - = < = < = = = < - - - - - - - - - - - - - - - - ",
"- - = = = = = = = = = = a I ..@.@.o.U d = - - - - - - = = = = = - - - - - - - - - - - - , = = - ",
"- = = = = < = < = ; - - & 8 z b b z 8 $ - - - - - - - = = < = < - - - - - - - - - - - - ; ; - - ",
"4 4 , , , 4 4 4 , , , 4 , ; ; ; ; ; < , , , , , 4 , , , , 4 4 4 , , , , , , , , , , , , , , , , ",
"A A A A A A A A A A A A A A A A A A A A A A A A A A A A A A A A A A A A A A A A A A A A A A A A ",
"+ + + + + + + + + + + + + + + + + + + + + + + + + + + + + + + + + + + + + + + + + + + + + + + + ",
"o . . . . . . . . . . . . . . . . . . . . . . . . . . . . . . . . . . . . . . . . . . . . . . . ",
"o o o o o o o o o o o o o o o o o o o o o o o o o o o o o o o o o o o o o o o o o o o o o o o o ",
"o o o o o o o o o o o o o o o o o o o o o o o o o o o o o o o o o o o o o o o o o o o o o o o o ",
"o o o o o o o o o o o o o o o o o o o o o o o o o o o o o o o o o o o o o o o o o o o o o o o o ",
"%.%.%.%.%.%.%.%.%.%.%.%.%.%.%.%.%.%.%.%.%.%.%.%.%.%.%.%.%.%.%.%.%.%.%.%.%.%.%.%.%.%.%.%.%.%.%.%.",
"%.%.%.%.%.%.%.%.%.%.%.%.%.%.%.%.%.%.%.%.%.%.%.%.%.%.%.%.%.%.%.%.%.%.%.%.%.%.%.%.%.%.%.%.%.%.%.%.",
"%.%.%.%.%.%.%.%.%.%.%.%.%.%.%.%.%.%.%.%.%.%.%.%.%.%.%.%.%.%.%.%.%.%.%.%.%.%.%.%.%.%.%.%.%.%.%.%.",
"%.%.%.%.%.%.%.%.%.%.%.%.%.%.%.%.%.%.%.%.%.%.%.%.%.%.%.%.%.%.%.%.%.%.%.%.%.%.%.%.%.%.%.%.%.%.%.%.",
"%.%.%.%.%.%.%.%.%.%.%.%.%.%.%.%.%.%.%.%.%.%.%.%.%.%.%.%.%.%.%.%.%.%.%.%.%.%.%.%.%.%.%.%.%.%.%.%.",
"%.%.%.%.%.%.%.%.%.%.%.%.%.%.%.%.%.%.%.%.%.%.%.%.%.%.%.%.%.%.%.%.%.%.%.%.%.%.%.%.%.%.%.%.%.%.%.%.",
"%.%.%.%.%.%.%.%.%.%.%.%.%.%.%.%.%.%.%.%.%.%.%.%.%.%.%.%.%.%.%.%.%.%.%.%.%.%.%.%.%.%.%.%.%.%.%.%.",
"%.%.%.%.%.%.%.%.%.%.%.%.%.%.%.%.%.%.%.%.%.%.%.%.%.%.%.%.%.%.%.%.%.%.%.%.%.%.%.%.%.%.%.%.%.%.%.%.",
"%.%.%.%.%.%.%.%.%.%.%.%.%.%.%.%.%.%.%.%.%.%.%.%.%.%.%.%.%.%.%.%.%.%.%.%.%.%.%.%.%.%.%.%.%.%.%.%.",
"%.%.%.%.%.%.%.%.%.%.%.%.%.%.%.%.%.%.%.%.%.%.%.%.%.%.%.%.%.%.%.%.%.%.%.%.%.%.%.%.%.%.%.%.%.%.%.%.",
"%.%.%.%.%.%.%.%.%.%.%.%.%.%.%.%.%.%.%.%.%.%.%.%.%.%.%.%.%.%.%.%.%.%.%.%.%.%.%.%.%.%.%.%.%.%.%.%."
};
