/* XPM */
static char *lb[] = {
/* columns rows colors chars-per-pixel */
"48 48 192 2",
"   c black",
".  c #009C3B",
"X  c #009C3C",
"o  c #009D3C",
"O  c #009D3D",
"+  c #009D3E",
"@  c #009E3E",
"#  c #019E3F",
"$  c #029F40",
"%  c #029F41",
"&  c #039F41",
"*  c #049F40",
"=  c #049F41",
"-  c #049F42",
";  c #059F42",
":  c #05A042",
">  c #05A043",
",  c #06A042",
"<  c #06A043",
"1  c #09A146",
"2  c #0AA145",
"3  c #0AA146",
"4  c #0AA247",
"5  c #0AA347",
"6  c #0DA349",
"7  c #0EA349",
"8  c #0FA44B",
"9  c #10A44A",
"0  c #11A44B",
"q  c #11A54C",
"w  c #13A54D",
"e  c #13A54E",
"r  c #14A54E",
"t  c #15A64F",
"y  c #18A751",
"u  c #19A953",
"i  c #1AA852",
"p  c #1BA853",
"a  c #1EA955",
"s  c #1EA956",
"d  c #1FA956",
"f  c #1FAA56",
"g  c #1FAA57",
"h  c #21AA57",
"j  c #23AB59",
"k  c #21AC59",
"l  c #24AC5A",
"z  c #25AC5B",
"x  c #27AD5C",
"c  c #27AD5D",
"v  c #28AD5D",
"b  c #29AE5E",
"n  c #2AAE5F",
"m  c #2BAF5F",
"M  c #2CAF60",
"N  c #2DAF61",
"B  c #2EAF60",
"V  c #2EAF61",
"C  c #2FB062",
"Z  c #30B063",
"A  c #31B164",
"S  c #32B164",
"D  c #33B164",
"F  c #34B166",
"G  c #37B368",
"H  c #39B36A",
"J  c #3AB46B",
"K  c #3CB66E",
"L  c #3FB66E",
"P  c #40B66F",
"I  c #41B770",
"U  c #44B872",
"Y  c #45B873",
"T  c #46B974",
"R  c #47B975",
"E  c #4ABA76",
"W  c #4ABA77",
"Q  c #4CBB78",
"!  c #51BC7C",
"~  c #53BD7D",
"^  c #54BE7F",
"/  c #55C081",
"(  c #59C082",
")  c #5DC285",
"_  c #5FC287",
"`  c #60C287",
"'  c #65C48B",
"]  c #69C68E",
"[  c #6FC892",
"{  c #75CA97",
"}  c #76CB97",
"|  c #76CB98",
" . c #76CC99",
".. c #7CCF9E",
"X. c #7FCE9F",
"o. c #F93E24",
"O. c #F93E25",
"+. c #F93F26",
"@. c #FA3E25",
"#. c #E85135",
"$. c #EF5339",
"%. c #F5553D",
"&. c #F7553E",
"*. c #F85039",
"=. c #F95039",
"-. c #FA503A",
";. c #FB513A",
":. c #FA5640",
">. c #FB5741",
",. c #FC5742",
"<. c #92B78B",
"1. c #82CFA1",
"2. c #84D0A3",
"3. c #84D2A4",
"4. c #87D1A5",
"5. c #89D2A6",
"6. c #90D5AC",
"7. c #93D6AE",
"8. c #96D7B0",
"9. c #97D7B1",
"0. c #98D8B1",
"q. c #9CD9B5",
"w. c #AAC8A5",
"e. c #ACC9A7",
"r. c #A2DEBC",
"t. c #A5DDBB",
"y. c #A9DEBE",
"u. c #AADFBF",
"i. c #B4CCAD",
"p. c #B7CDAF",
"a. c #BED0B5",
"s. c #AFE1C2",
"d. c #B0E1C3",
"f. c #B3E3C7",
"g. c #B5E3C7",
"h. c #B7E4C9",
"j. c #BCE6CC",
"k. c #CDCEB8",
"l. c #C4D3BB",
"z. c #D1D7C3",
"x. c #C0E7D0",
"c. c #C4E8D3",
"v. c #C7EAD5",
"b. c #C7EBD7",
"n. c #CBEBD8",
"m. c #CEECDA",
"M. c #D3EEDE",
"N. c #D4EFDF",
"B. c #D7F0E1",
"V. c #D8F0E2",
"C. c #DBF2E4",
"Z. c #DCF2E5",
"A. c #DFF3E7",
"S. c #DDF4E7",
"D. c #F8DED8",
"F. c #F6E5DF",
"G. c #FEE0DC",
"H. c #FFE1DD",
"J. c #FFE1DE",
"K. c #E2F4E9",
"L. c #E5F5EC",
"P. c #E7F6ED",
"I. c #E8F6ED",
"U. c #E9F7EE",
"Y. c #E9F7EF",
"T. c #ECF8F1",
"R. c #EFF9F3",
"E. c #FFE3E1",
"W. c #FDE8E5",
"Q. c #FEE8E5",
"!. c #FFE8E5",
"~. c #FFE8E6",
"^. c #FFE9E7",
"/. c #F0F9F4",
"(. c #F2FAF5",
"). c #F5FBF8",
"_. c #F6FCF8",
"`. c #F7FCF9",
"'. c #F8FCFA",
"]. c #F8FDFB",
"[. c #F9FCFA",
"{. c #F9FDFB",
"}. c #FAFDFB",
"|. c #FBFDFC",
" X c #FAFEFC",
".X c #FBFEFC",
"XX c #FCFEFD",
"oX c #FDFEFE",
"OX c #FEFFFE",
"+X c #FEFFFF",
"@X c gray100",
"#X c None",
/* pixels */
"#X#X#X#X#X#X#X#X#X#X#X#X#X#X#X#X#X#X#X#X#X#X#X#X#X#X#X#X#X#X#X#X#X#X#X#X#X#X#X#X#X#X#X#X#X#X#X#X",
"#X#X#X#X#X#X#X#X#X#X#X#X#X#X#X#X#X#X#X#X#X#X#X#X#X#X#X#X#X#X#X#X#X#X#X#X#X#X#X#X#X#X#X#X#X#X#X#X",
"#X#X#X#X#X#X#X#X#X#X#X#X#X#X#X#X#X#X#X#X#X#X#X#X#X#X#X#X#X#X#X#X#X#X#X#X#X#X#X#X#X#X#X#X#X#X#X#X",
"#X#X#X#X#X#X#X#X#X#X#X#X#X#X#X#X#X#X#X#X#X#X#X#X#X#X#X#X#X#X#X#X#X#X#X#X#X#X#X#X#X#X#X#X#X#X#X#X",
"#X#X#X#X#X#X#X#X#X#X#X#X#X#X#X#X#X#X#X#X#X#X#X#X#X#X#X#X#X#X#X#X#X#X#X#X#X#X#X#X#X#X#X#X#X#X#X#X",
"#X#X#X#X#X#X#X#X#X#X#X#X#X#X#X#X#X#X#X#X#X#X#X#X#X#X#X#X#X#X#X#X#X#X#X#X#X#X#X#X#X#X#X#X#X#X#X#X",
"#X#X#X#X#X#X#X#X#X#X#X#X#X#X#X#X#X#X#X#X#X#X#X#X#X#X#X#X#X#X#X#X#X#X#X#X#X#X#X#X#X#X#X#X#X#X#X#X",
"+.+.+.+.+.+.+.+.+.+.+.+.+.+.+.+.+.+.+.+.+.+.+.+.+.+.+.+.+.+.+.+.+.+.+.+.+.+.+.+.+.+.+.+.+.+.+.+.",
"+.+.+.+.+.+.+.+.+.+.+.+.+.+.+.+.+.+.+.+.+.+.+.+.+.+.+.+.+.+.+.+.+.+.+.+.+.+.+.+.+.+.+.+.+.+.+.+.",
"+.+.+.+.+.+.+.+.+.+.+.+.+.+.+.+.+.+.+.+.+.+.+.+.+.+.+.+.+.+.+.+.+.+.+.+.+.+.+.+.+.+.+.+.+.+.+.+.",
"+.+.+.+.+.+.+.+.+.+.+.+.+.+.+.+.+.+.+.+.+.+.+.+.+.+.+.+.+.+.+.+.+.+.+.+.+.+.+.+.+.+.+.+.+.+.+.+.",
"+.+.+.+.+.+.+.+.+.+.+.+.+.+.+.+.+.+.+.+.+.+.+.+.+.+.+.+.+.+.+.+.+.+.+.+.+.+.+.+.+.+.+.+.+.+.+.+.",
"+.+.+.+.+.+.+.+.+.+.+.+.+.+.+.+.+.+.+.+.+.+.+.+.+.+.+.+.+.+.+.+.+.+.+.+.+.+.+.+.+.+.+.+.+.+.+.+.",
"+.+.+.+.+.+.+.+.+.+.+.+.+.+.+.+.+.+.+.+.+.+.+.+.+.+.+.+.+.+.+.+.+.+.+.+.+.+.+.+.+.+.+.+.+.+.+.+.",
"+.+.+.+.+.+.+.+.+.+.+.@.@.@.@.@.@.@.@.@.@.@.o.o.+.+.+.+.+.+.+.+.@.@.@.@.@.@.+.+.+.+.+.+.+.+.+.+.",
"-.-.=.=.=.=.-.-.-.-.-.-.-.-.=.-.=.-.-.=.-.-.-.=.=.-.-.-.-.-.=.=.-.-.=.-.-.=.-.-.-.-.=.=.=.=.=.-.",
"G.G.G.G.G.G.G.G.G.G.G.G.G.G.G.G.D.D.D.D.G.G.D.<.k.E.G.G.G.G.G.G.G.G.G.G.G.G.G.G.G.G.G.G.G.G.G.G.",
"@X@X@X@X@X@X@X@X@X@X@X@X@X@X@X@X@X@X@X@X@X].3.5 L r.S.@X@X@X@X@X@X@X@X@X@X@X@X@X@X@X@X@X@X@X@X@X",
"@X@X@X@X@X@X@X@X@X@X@X@X@X@X@X@X@X@X@X@X@Xj.B o o % b h.@X@X@X@X@X@X@X@X@X@X@X@X@X@X@X@X@X@X@X@X",
"@X@X@X@X@X@X@X@X@X@X@X@X@X@X@X@X@X@X@X@XP.( f G M c i X.R.@X@X@X@X@X@X@X@X@X@X@X@X@X@X@X@X@X@X@X",
"@X@X@X@X@X@X@X@X@X@X@X@X@X@X@X@X@X@X@XR.} f L f r 6 S q.U.@X@X@X@X@X@X@X@X@X@X@X@X@X@X@X@X@X@X@X",
"@X@X@X@X@X@X@X@X@X@X@X@X@X@X@X@X@X@XN.) I Y 9 w l Y F c s.].@X@X@X@X@X@X@X@X@X@X@X@X@X@X@X@X@X@X",
"@X@X@X@X@X@X@X@X@X@X@X@X@X@X@X@X@X@XU.j.E i ; : o 5 f h C 0.).@X@X@X@X@X@X@X@X@X@X@X@X@X@X@X@X@X",
"@X@X@X@X@X@X@X@X@X@X@X@X@X@X@X@X@X@Xv.` 6 ; y l S % 3 r b ] n.@X@X@X@X@X@X@X@X@X@X@X@X@X@X@X@X@X",
"@X@X@X@X@X@X@X@X@X@X@X@X@X@X@X@X@Xg.E ! | 9 % > p > % > B 5.K.@X@X@X@X@X@X@X@X@X@X@X@X@X@X@X@X@X",
"@X@X@X@X@X@X@X@X@X@X@X@X@X@X@X@X@XM.y.G 6 8 : 3 ; o J Q T S t.].@X@X@X@X@X@X@X@X@X@X@X@X@X@X@X@X",
"@X@X@X@X@X@X@X@X@X@X@X@X@X@X@X@X[.8.B B % S c S w o : 6 H 2.7.Z.@X@X@X@X@X@X@X@X@X@X@X@X@X@X@X@X",
"@X@X@X@X@X@X@X@X@X@X@X@X@X@X@X].u.' 6.[ j j ; % o p ! g r P 8.R.@X@X@X@X@X@X@X@X@X@X@X@X@X@X@X@X",
"@X@X@X@X@X@X@X@X@X@X@X@X@X@X@X@XP.3.` 5.V.v.r o o ^ `.Z.B.m.1.| /.@X@X@X@X@X@X@X@X@X@X@X@X@X@X@X",
"@X@X@X@X@X@X@X@X@X@X@X@X@X@X@X@X].U./.@X@Xs.3 o . E [.@X@X@X].Z.`.@X@X@X@X@X@X@X@X@X@X@X@X@X@X@X",
"@X@X@X@X@X@X@X@X@X@X@X@X@X@X@X@X@X@X@X].n./ .. .i k f.@X@X@X@X@X@X@X@X@X@X@X@X@X@X@X@X@X@X@X@X@X",
"Q.Q.Q.Q.Q.Q.Q.Q.Q.Q.Q.Q.Q.Q.Q.Q.Q.Q.E.a.w.z.^.Q.i.i.e.l.Q.Q.Q.Q.Q.Q.Q.Q.Q.Q.Q.Q.Q.Q.Q.Q.Q.Q.Q.Q.",
":.&.:.:.&.:.:.&.>.>.&.>.&.&.>.&.&.>.&.%.>.>.&.&.>.>.&.#.&.>.&.&.>.&.>.&.&.&.&.&.>.>.&.>.>.&.>.>.",
"+.o.o.+.o.o.+.o.o.o.o.o.@.+.@.@.o.+.o.+.o.o.o.o.@.@.o.@.o.o.@.@.@.@.@.@.o.o.@.@.@.@.o.+.o.o.o.@.",
"+.+.+.+.+.+.+.+.+.+.+.+.o.o.@.@.+.+.+.+.+.+.+.+.+.+.+.+.+.+.+.+.o.o.@.@.+.+.+.+.@.@.@.+.+.+.+.+.",
"+.+.+.+.+.+.+.+.+.+.+.+.@.o.o.=.+.+.+.+.+.+.+.+.+.+.+.+.+.+.+.+.@.o.o.=.+.+.+.+.@.@.+.+.+.+.+.+.",
"+.+.+.+.+.+.+.+.+.+.+.+.@.+.+.+.+.+.+.+.+.+.+.+.+.+.+.+.+.+.+.+.@.@.+.+.+.+.+.+.+.+.+.+.+.+.+.+.",
"+.+.+.+.+.+.+.+.+.+.+.+.o.+.+.+.+.+.+.+.+.+.+.+.+.+.+.+.+.+.+.+.+.+.+.+.+.+.+.+.+.+.+.+.+.+.+.+.",
"+.+.+.+.+.+.+.+.+.+.+.+.+.+.+.+.+.+.+.+.+.+.+.+.+.+.+.+.+.+.+.+.+.+.+.+.+.+.+.+.+.+.+.+.+.+.+.+.",
"+.+.+.+.+.+.+.+.+.+.+.+.+.+.+.+.+.+.+.+.+.+.+.+.+.+.+.+.+.+.+.+.+.+.+.+.+.+.+.+.+.+.+.+.+.+.+.+.",
"+.+.+.+.+.+.+.+.+.+.+.+.+.+.+.+.+.+.+.+.+.+.+.+.+.+.+.+.+.+.+.+.+.+.+.+.+.+.+.+.+.+.+.+.+.+.+.+.",
"#X#X#X#X#X#X#X#X#X#X#X#X#X#X#X#X#X#X#X#X#X#X#X#X#X#X#X#X#X#X#X#X#X#X#X#X#X#X#X#X#X#X#X#X#X#X#X#X",
"#X#X#X#X#X#X#X#X#X#X#X#X#X#X#X#X#X#X#X#X#X#X#X#X#X#X#X#X#X#X#X#X#X#X#X#X#X#X#X#X#X#X#X#X#X#X#X#X",
"#X#X#X#X#X#X#X#X#X#X#X#X#X#X#X#X#X#X#X#X#X#X#X#X#X#X#X#X#X#X#X#X#X#X#X#X#X#X#X#X#X#X#X#X#X#X#X#X",
"#X#X#X#X#X#X#X#X#X#X#X#X#X#X#X#X#X#X#X#X#X#X#X#X#X#X#X#X#X#X#X#X#X#X#X#X#X#X#X#X#X#X#X#X#X#X#X#X",
"#X#X#X#X#X#X#X#X#X#X#X#X#X#X#X#X#X#X#X#X#X#X#X#X#X#X#X#X#X#X#X#X#X#X#X#X#X#X#X#X#X#X#X#X#X#X#X#X",
"#X#X#X#X#X#X#X#X#X#X#X#X#X#X#X#X#X#X#X#X#X#X#X#X#X#X#X#X#X#X#X#X#X#X#X#X#X#X#X#X#X#X#X#X#X#X#X#X",
"#X#X#X#X#X#X#X#X#X#X#X#X#X#X#X#X#X#X#X#X#X#X#X#X#X#X#X#X#X#X#X#X#X#X#X#X#X#X#X#X#X#X#X#X#X#X#X#X"
};
