/* XPM */
static char *lk[] = {
/* columns rows colors chars-per-pixel */
"48 48 250 2",
"   c black",
".  c #006200",
"X  c DarkGreen",
"o  c #006600",
"O  c #076102",
"+  c #076202",
"@  c #076302",
"#  c #086302",
"$  c #0A6400",
"%  c #0A6600",
"&  c #752D26",
"*  c #762D26",
"=  c #762E26",
"-  c #783225",
";  c #7C3823",
":  c #427F00",
">  c #438100",
",  c #508600",
"<  c #538700",
"1  c #5A8700",
"2  c #678F00",
"3  c #6D8E01",
"4  c #699000",
"5  c #961734",
"6  c #971834",
"7  c #971934",
"8  c #981933",
"9  c #981A33",
"0  c #991A33",
"q  c #991B33",
"w  c #981934",
"e  c #981A34",
"r  c #9A1934",
"t  c #9B1A34",
"y  c #991C33",
"u  c #9A1C33",
"i  c #9A1D32",
"p  c #9B1E32",
"a  c #9B1F32",
"s  c #813821",
"d  c #9C2031",
"f  c #9C2131",
"g  c #9D2131",
"h  c #9D2231",
"j  c #9D2330",
"k  c #9D2331",
"l  c #9E2331",
"z  c #9E2430",
"x  c #9F2530",
"c  c #9F2630",
"v  c #A0272F",
"b  c #A4222E",
"n  c #A4232E",
"m  c #A0282F",
"M  c #A1292F",
"N  c #A12A2F",
"B  c #A22A2F",
"V  c #A22B2E",
"C  c #A22C2E",
"Z  c #A32D2E",
"A  c #A42A2E",
"S  c #A42D2E",
"D  c #A42F2D",
"F  c #A42E2E",
"G  c #A02630",
"H  c #A02730",
"J  c #A5302D",
"K  c #A6322C",
"L  c #A7332C",
"P  c #A7342C",
"I  c #A8352B",
"U  c #A8362B",
"Y  c #A9362B",
"T  c #A9372B",
"R  c #A8342C",
"E  c #A8352C",
"W  c #AA382B",
"Q  c #AA392B",
"!  c #AB3A2A",
"~  c #AB3B2A",
"^  c #AC3D29",
"/  c #AE3F29",
"(  c #B13A27",
")  c #B55E05",
"_  c #AF4128",
"`  c #AF4228",
"'  c #B04327",
"]  c #B14527",
"[  c #B24626",
"{  c #B24627",
"}  c #B04328",
"|  c #B44A25",
" . c #B54B25",
".. c #B44A26",
"X. c #B64E24",
"o. c #B74F24",
"O. c #B84025",
"+. c #B75024",
"@. c #B95223",
"#. c #B95323",
"$. c #B85024",
"%. c #BA5422",
"&. c #BA5522",
"*. c #BB5522",
"=. c #BC5722",
"-. c #BD5921",
";. c #BC5822",
":. c #BD5A21",
">. c #BE5B20",
",. c #BE5C20",
"<. c #BF5C20",
"1. c #AF6F17",
"2. c #BF6400",
"3. c #C06600",
"4. c #C06700",
"5. c #C1601F",
"6. c #C1611F",
"7. c #C2611F",
"8. c #C2621F",
"9. c #C2631E",
"0. c #C5621F",
"q. c #C4661D",
"w. c #C5671D",
"e. c #C6651E",
"r. c #C5681D",
"t. c #C6681D",
"y. c #C6691C",
"u. c #C86D1B",
"i. c #C96F1B",
"p. c #CA6E1C",
"a. c #CA711A",
"s. c #CB711A",
"d. c #CB731A",
"f. c #CC731A",
"g. c #CC7419",
"h. c #CD7519",
"j. c #CD7619",
"k. c #CE7718",
"l. c #CE7818",
"z. c #CF7818",
"x. c #D07B17",
"c. c #D17C17",
"v. c #D17D16",
"b. c #D37A18",
"n. c #F15B07",
"m. c #F05A08",
"M. c #F35A08",
"N. c #FF6400",
"B. c #FF6600",
"V. c #FF6700",
"C. c #809900",
"Z. c #90A000",
"A. c #D48700",
"S. c #D48116",
"D. c #D58315",
"F. c #D68415",
"G. c #D68515",
"H. c #D78714",
"J. c #D98913",
"K. c #D98A13",
"L. c #D98B13",
"P. c #DA8B13",
"I. c #DA8C12",
"U. c #DA8C13",
"Y. c #DB8E12",
"T. c #DC8F12",
"R. c #DD9011",
"E. c #DD9111",
"W. c #DE9211",
"Q. c #DE9310",
"!. c #DE9311",
"~. c #DF9410",
"^. c #DF9510",
"/. c #E1980F",
"(. c #E1990F",
"). c #E2990F",
"_. c #E29A0E",
"`. c #E29B0E",
"'. c #E39C0E",
"]. c #E49E0D",
"[. c #E59F0D",
"{. c #E49E0E",
"}. c #FF8700",
"|. c #F19307",
" X c #E6A00D",
".X c #E6A10C",
"XX c #E6A10D",
"oX c #E6A20C",
"OX c #E7A20C",
"+X c #E7A30C",
"@X c #E8A10D",
"#X c #E8A40B",
"$X c #E8A50B",
"%X c #E9A60B",
"&X c #E9A70B",
"*X c #EAA70B",
"=X c #E8A40C",
"-X c #EAA80B",
";X c #EBA90A",
":X c #EBAA0A",
">X c #ECAB09",
",X c #ECAB0A",
"<X c #ECAC09",
"1X c #ECAD09",
"2X c #EDAC09",
"3X c #EDAD09",
"4X c #EDAE09",
"5X c #EEAF08",
"6X c #EFB108",
"7X c #FFA600",
"8X c #FFA700",
"9X c #FFA900",
"0X c #F0B207",
"qX c #F1B307",
"wX c #F1B407",
"eX c #F2B506",
"rX c #F2B507",
"tX c #F4B905",
"yX c #F4B806",
"uX c #F5BB05",
"iX c #F5BC05",
"pX c #F6BE05",
"aX c #F7BF04",
"sX c #FFB300",
"dX c #F7C900",
"fX c #F9C203",
"gX c #FAC302",
"hX c #FAC303",
"jX c #FAC402",
"kX c #FBC502",
"lX c #FBC602",
"zX c #FCC701",
"xX c #FCC702",
"cX c #F9CA00",
"vX c #FACA00",
"bX c #FDC901",
"nX c #FCCB00",
"mX c #FDCA01",
"MX c #FDCB00",
"NX c #FECA00",
"BX c #FECB00",
"VX c #FECB01",
"CX c #FFCB00",
"ZX c #FECC00",
"AX c #FFCC00",
"SX c #FFCD00",
"DX c #FFCE00",
"FX c #FFCF00",
"GX c #FFD000",
"HX c None",
/* pixels */
"HXHXHXHXHXHXHXHXHXHXHXHXHXHXHXHXHXHXHXHXHXHXHXHXHXHXHXHXHXHXHXHXHXHXHXHXHXHXHXHXHXHXHXHXHXHXHXHX",
"HXHXHXHXHXHXHXHXHXHXHXHXHXHXHXHXHXHXHXHXHXHXHXHXHXHXHXHXHXHXHXHXHXHXHXHXHXHXHXHXHXHXHXHXHXHXHXHX",
"HXHXHXHXHXHXHXHXHXHXHXHXHXHXHXHXHXHXHXHXHXHXHXHXHXHXHXHXHXHXHXHXHXHXHXHXHXHXHXHXHXHXHXHXHXHXHXHX",
"HXHXHXHXHXHXHXHXHXHXHXHXHXHXHXHXHXHXHXHXHXHXHXHXHXHXHXHXHXHXHXHXHXHXHXHXHXHXHXHXHXHXHXHXHXHXHXHX",
"HXHXHXHXHXHXHXHXHXHXHXHXHXHXHXHXHXHXHXHXHXHXHXHXHXHXHXHXHXHXHXHXHXHXHXHXHXHXHXHXHXHXHXHXHXHXHXHX",
"AXAXAXAXAXAXAXAXAXAXAXAXAXAXAXAXAXAXAXAXAXAXAXAXAXAXAXAXAXAXAXAXAXAXAXAXAXAXAXAXAXAXAXAXAXAXAXAX",
"AXAXAXAXAXAXAXAXAXAXAXAXAXAXAXAXAXAXAXAXAXAXAXAXAXAXAXAXAXAXAXAXAXAXAXAXAXAXAXAXAXAXAXAXAXAXAXAX",
"AXAXAXAXAXAXAXAXAXAXAXAXAXAXAXAXAXAXAXAXAXAXAXAXAXAXAXAXAXAXAXAXAXAXAXAXAXAXAXAXAXAXAXAXAXAXAXAX",
"AXAXAXMXAXnXnXnXnXnXnXnXAXnXnXnXnXAXAXAXAXAXAXAXAXAXAXAXAXMXMXMXAXAXAXAXAXAXAXAXAXAXAXAXAXAXAXAX",
"AXAXcXC., < < < < < < < < < < < < 1 A.}.}.}.}.}.}.}.}.}.}.}.}.}.}.sXAXAXAXAXAXAXAXAXAXAXAXAXAXAX",
"AXAXdX: X X X X X X X X X X X X X $ 2.N.N.N.N.N.N.N.N.N.N.N.N.N.N.8XAXAXAXAXAXAXAXAXAXAXAXAXAXAX",
"AXAXdX> X o o o o o o X o o o o o $ 4.N.V.N.N.V.N.V.V.V.V.N.N.N.N.9XGXAXAXAXAXAXAXAXAXAXAXAXAXAX",
"AXAXdX> X X o o o o o o o o o o o % 4.V.V.N.V.V.V.N.N.V.V.V.N.V.N.9XAXAXAXAXAXAXAXAXAXAXAXAXAXAX",
"AXAXdX> X X o o o o o o o o o o o % 4.N.V.N.V.N.V.V.V.V.N.V.N.V.N.9XGXAXAXAXAXAXAXAXAXAXAXAXAXAX",
"AXAXdX> X o o o o o o o o o o o o % 4.N.V.V.N.V.N.V.V.N.V.N.V.V.N.9XAXAXAXAXAXAXAXAXAXAXAXAXAXAX",
"AXAXdX> X X o o o o o o o o o o o $ 4.V.N.V.V.V.N.V.V.N.V.V.V.N.N.9XAXAXAXAXAXAXAXAXAXAXAXAXAXAX",
"AXAXdX> X o o o o o o o o o o o o % 4.V.N.V.N.V.V.N.V.V.N.V.V.N.N.9XAXAXAXAXAXAXAXAXAXAXAXAXAXAX",
"AXAXdX> X o o o o o o o o o o o o % 4.V.V.N.V.V.V.V.V.V.V.V.V.V.N.9XGXAXAXGXAXAXAXGXGXAXAXAXAXAX",
"AXAXdX> X o o o o o o o o o o o X $ ) M.m.n.n.n.n.n.n.n.n.n.n.n.n.|.rXrXrXrXqXqXqXqXrXqX6XuXMXAX",
"AXAXdX> X o o o o o o o o o o o o $ s O.( n n n n n n n n n n n b A D D D D D D D D C ` | -.lXAX",
"AXAXdX> X o o o o o o o o o o o o @ ; @XXXm 9 9 9 9 9 9 y 9 9 9 9 9 9 9 9 9 9 9 t 7 k (.&X#.gXAX",
"AXAXdX> X o o o o o o o o o o o o @ - w.!.` 7 9 9 9 p 9 p 9 y y 9 9 9 9 9 9 9 p 9 7 ! Y.r.| gXAX",
"AXAXdX> X o o o o o o o o o o o o @ = t p p p p p k 9 9 p 9 7 9 9 t t 9 t 9 9 9 9 9 p k 6 } gXAX",
"AXAXdX> X o o o o o o o o o o o o @ = t t t 7 9 v ` 9 7 p c U P p ~ a.j.#.B 9 9 9 p 9 9 t ' gXAX",
"AXAXdX> X o o o o o o o o o o o X # = t p 9 9 t ~ +.m ' -.I.&X].s.(.H.s.D.c.o.| p 9 9 9 t ' lXAX",
"AXAXdX> X o o o o o o o o o o o X # = t 9 9 9 5 X.%.C H.:X].!.~.I.4X&Xr.-.s.j.#.9 9 p 9 7 ' gXAX",
"AXAXdX> X o o o o o o o o o o o X @ = t 9 9 9 t 6.%.c r.L.&XI.~.a.^ -.j.a.$.=.(.J 9 9 p 7 ' gXAX",
"AXAXdX> X o o o o o o o o o o o o @ = t 9 p 9 t a.%.J (.].XX].XX<.I ] 6.D.P.j.@XP 9 9 9 t ' lXAX",
"AXAXdX> X o o o o o o o o o o o o @ = t 9 9 u G H.-.k I w.+XXX~.2XaXlXAXGXGXAXrX~ 9 9 9 7 ' gXAX",
"AXAXdX> X o o o o o o o o o o o o @ = t 9 p 9 =.XXD.B 6.aXAXMXcXAXAXMXMXAXAXAXMX-.7 p 9 7 ' gXAX",
"AXAXdX> X o o o o o o o o o o o o @ = t 9 9 9 I (.L.D.4XAXAXAXAXAXAXAXMXMXAXAXuX~ t 9 9 7 ' lXAX",
"AXAXdX> X o o o o o o o o o o o o @ = t 9 9 9 I /.Y.aXuXMXMXMXMXMXAXaXyXrXlXAXL.p 9 p 9 t ' gXAX",
"AXAXdX> X o o o o o o o o o o o o @ = t p p 9 I !.H.!.0X@XxXMXhX0Xz.L.AX&Xi.gXi.9 9 9 p 9 ' gXAX",
"AXAXdX> X o o o o o o o o o o o X @ = t 9 t 9 I I.c.C | W 2X4Xw.R 9 ! 0XXXR [.&X! 9 9 9 t ' gXAX",
"AXAXdX> X o o o o o o o o o o o X @ = t y 9 9 9 ] R 9 p I 4X2X^ 5 p B XX'.| &X(.k 9 9 p t ' gXAX",
"AXAXdX> X o o o o o o o o o o o X @ = t 9 9 p 9 9 9 9 ` P.2XP.k 9 R w.!.L.].2Xc.u 9 9 9 7 ' gXAX",
"AXAXdX> X X o o o o o o o o o o X @ = t J B 9 9 9 9 9 k G B G 9 9 u k G k B B k y t C ] B ' gXAX",
"AXAXdX> X o o X o o o o o o o o X # = 0.6X] t p p 9 9 9 9 9 9 9 9 9 9 9 9 9 9 9 9 t ~ rX(.X.gXAX",
"AXAXdX> X X X X X X X X X X X X X # = c.XXC 7 7 7 t 5 6 t 6 6 6 t t 5 6 6 6 6 6 7 7 7 r.j.X.gXAX",
"AXAXnXZ.2 4 4 4 4 4 4 4 4 4 4 4 4 3 1.i.a.6.6.6.6.6.6.6.6.6.6.6.6.6.6.6.5.5.0.6.6.6.8.8.6.c.lXAX",
"AXAXAXAXAXAXAXAXAXAXAXAXAXAXAXAXAXAXAXAXAXAXAXAXAXAXAXAXAXAXAXAXAXAXAXAXAXAXAXAXAXAXAXAXAXAXAXAX",
"AXAXAXAXAXAXAXAXAXAXAXAXAXAXAXAXAXAXAXAXAXAXAXAXAXAXAXAXAXAXAXAXAXAXAXAXAXAXAXAXAXAXAXAXAXAXAXAX",
"AXAXAXAXAXAXAXAXAXAXAXAXAXAXAXAXAXAXAXAXAXAXAXAXAXAXAXAXAXAXAXAXAXAXAXAXAXAXAXAXAXAXAXAXAXAXAXAX",
"HXHXHXHXHXHXHXHXHXHXHXHXHXHXHXHXHXHXHXHXHXHXHXHXHXHXHXHXHXHXHXHXHXHXHXHXHXHXHXHXHXHXHXHXHXHXHXHX",
"HXHXHXHXHXHXHXHXHXHXHXHXHXHXHXHXHXHXHXHXHXHXHXHXHXHXHXHXHXHXHXHXHXHXHXHXHXHXHXHXHXHXHXHXHXHXHXHX",
"HXHXHXHXHXHXHXHXHXHXHXHXHXHXHXHXHXHXHXHXHXHXHXHXHXHXHXHXHXHXHXHXHXHXHXHXHXHXHXHXHXHXHXHXHXHXHXHX",
"HXHXHXHXHXHXHXHXHXHXHXHXHXHXHXHXHXHXHXHXHXHXHXHXHXHXHXHXHXHXHXHXHXHXHXHXHXHXHXHXHXHXHXHXHXHXHXHX",
"HXHXHXHXHXHXHXHXHXHXHXHXHXHXHXHXHXHXHXHXHXHXHXHXHXHXHXHXHXHXHXHXHXHXHXHXHXHXHXHXHXHXHXHXHXHXHXHX"
};
