/* XPM */
static char *no[] = {
/* columns rows colors chars-per-pixel */
"48 48 37 1",
"  c black",
". c #002465",
"X c #002566",
"o c #002768",
"O c #002868",
"+ c #032B6A",
"@ c #042C6B",
"# c #0B326F",
"$ c #3C5A8B",
"% c #4A6794",
"& c #4E6A96",
"* c #617AA1",
"= c #617AA2",
"- c #EF2628",
"; c #EF2729",
": c #EF2A2C",
"> c #EF2B2D",
", c #F03132",
"< c #F03436",
"1 c #F0383A",
"2 c #F03C3D",
"3 c #F57A7B",
"4 c #F57B7C",
"5 c #BFC9D9",
"6 c #F58182",
"7 c #F68586",
"8 c #C3CCDB",
"9 c #FBCCCC",
"0 c #FBCDCD",
"q c #FDDADA",
"w c #FDE0E0",
"e c #FEE8E8",
"r c #FAFBFC",
"t c #FAFCFE",
"y c #FAFDFF",
"u c gray100",
"i c None",
/* pixels */
"iiiiiiiiiiiiiiiiiiiiiiiiiiiiiiiiiiiiiiiiiiiiiiii",
"iiiiiiiiiiiiiiiiiiiiiiiiiiiiiiiiiiiiiiiiiiiiiiii",
"iiiiiiiiiiiiiiiiiiiiiiiiiiiiiiiiiiiiiiiiiiiiiiii",
"iiiiiiiiiiiiiiiiiiiiiiiiiiiiiiiiiiiiiiiiiiiiiiii",
"iiiiiiiiiiiiiiiiiiiiiiiiiiiiiiiiiiiiiiiiiiiiiiii",
"iiiiiiiiiiiiiiiiiiiiiiiiiiiiiiiiiiiiiiiiiiiiiiii",
">>>>>>>>>>>>2qt&XOX*u0<>>>>>>>>>>>>>>>>>>>>>>>>>",
">>>>>>>>>>>>2qt&XOX*u0<>>>>>>>>>>>>>>>>>>>>>>>>>",
">>>>>>>>>>>>2qt&XO.*u0<:>>>>>>>>>>>>>>>>>>>>>>>>",
">>>>>>>>>>>>2qt&XX.*u0<:>>>>>>>>>>>>>>>>>>>>>>>>",
">>>>>>>>>>>:2qt&XO.*u0<:>>>>>>>>>>>>>>>>>>>>>>>>",
">>>>>>>>>>>:2qt&XO.*u0<:>>>>>>>>>>>>>>>>>>>>>>>>",
">>>>>>>>>>>:2qt&XOX*u0<:>>>>>>>>>>>>>>>>>>>>>>>>",
">>>>>>>>>>>:2qt&XOX*u0<:>>>>>>>>>>>>>>>>>>>>>>>>",
">>>>>>>>>>>:2qt&XOX*u0<>>>>>>>>>>>>>>>>>>>>>>>>>",
">>>>>>>>>>>:2qt&XX.*u0<>>>>>>>>>>>>>>>>>>>>>>>>>",
">>>>>>>>>>>>2qt&XOX*u0<>>>>>>>>>>>>>>>>>>>>>>>>>",
">>>>>>>>>>>>2qt&XOX*u0<>>>>>>>>>>>>>>>>>>>>>>>>>",
":---:-----:-1qt&XOX*u0,------:--:------:-:--:---",
"4444444444447et&XX.*uw64344444444444444444444444",
"uuuuuuuuuuuuuur&XOX*uuuuuuuuuuuuuuuuuuuuuuuuuuuu",
"888888888888885$XOX%8888888888888888888888888888",
"###############@OOO@############################",
"ooooooooooooooOOOOOOoooooooooooooooooooooooooooo",
"ooooooooXOooooOOOOOOoooooooooooooooooooooooooooo",
"###############OOOO@############################",
"888888888888885$XOX%8888888888888888888888888888",
"uuuuuuuuuuuuuur&XOX*uuuuuuuuuuuuuuuuuuuuuuuuuuuu",
"4444444444437et&XOX*uq64444444444444444444444444",
":------:--:-1qt&XOX*u9,-:------:--:-:------:--:-",
">>>>>>>>>>>>2qt&XOX*u0<>>>>>>>>>>>>>>>>>>>>>>>>>",
">>>>>>>>>>>>2qt&XX.*u0<>>>>>>>>>>>>>>>>>>>>>>>>>",
">>>>>>>>>>>:2qt&XOX*u0<:>>>>>>>>>>>>>>>>>>>>>>>>",
">>>>>>>>>>>:2qt&XOX*u0<:>>>>>>>>>>>>>>>>>>>>>>>>",
">>>>>>>>>>>>2qt&XO.*u0<:>>>>>>>>>>>>>>>>>>>>>>>>",
">>>>>>>>>>>>2qt&XX.*u0<:>>>>>>>>>>>>>>>>>>>>>>>>",
">>>>>>>>>>>>2qt&XOX*u0<:>>>>>>>>>>>>>>>>>>>>>>>>",
">>>>>>>>>>>>2qt&XOX*u0<:>>>>>>>>>>>>>>>>>>>>>>>>",
">>>>>>>>>>>>2qt&XO.*u0<:>>>>>>>>>>>>>>>>>>>>>>>>",
">>>>>>>>>>>>2qt&XX.*u0<>>>>>>>>>>>>>>>>>>>>>>>>>",
">>>>>>>>>>>>2qt&XOX*u0<>>>>>>>>>>>>>>>>>>>>>>>>>",
">>>>>>>>>>>>2qt&XOX*u0<>>>>>>>>>>>>>>>>>>>>>>>>>",
"iiiiiiiiiiiiiiiiiiiiiiiiiiiiiiiiiiiiiiiiiiiiiiii",
"iiiiiiiiiiiiiiiiiiiiiiiiiiiiiiiiiiiiiiiiiiiiiiii",
"iiiiiiiiiiiiiiiiiiiiiiiiiiiiiiiiiiiiiiiiiiiiiiii",
"iiiiiiiiiiiiiiiiiiiiiiiiiiiiiiiiiiiiiiiiiiiiiiii",
"iiiiiiiiiiiiiiiiiiiiiiiiiiiiiiiiiiiiiiiiiiiiiiii",
"iiiiiiiiiiiiiiiiiiiiiiiiiiiiiiiiiiiiiiiiiiiiiiii"
};
