/* XPM */
static char *np[] = {
/* columns rows colors chars-per-pixel */
"48 48 98 2",
"   c black",
".  c #07005F",
"X  c #0B005D",
"o  c #160051",
"O  c #190057",
"+  c #000065",
"@  c #151670",
"#  c #220050",
"$  c #2A0654",
"%  c #3A074C",
"&  c #310E59",
"*  c #2F1865",
"=  c #301966",
"-  c #2C2D7E",
";  c #342673",
":  c #312876",
">  c #362E79",
",  c #3A2E77",
"<  c #382F7A",
"1  c #38307B",
"2  c #570036",
"3  c #5B0035",
"4  c #6D002C",
"5  c #680031",
"6  c #750027",
"7  c #71002A",
"8  c #7E0023",
"9  c #470341",
"0  c #313382",
"q  c #3F3982",
"w  c #4F4E91",
"e  c #535092",
"r  c #6566A1",
"t  c #696BA5",
"y  c #7B7CAF",
"u  c #7D7FB1",
"i  c #930019",
"p  c #800022",
"a  c #AF000B",
"s  c #A20013",
"d  c #B0000E",
"f  c #BD0007",
"g  c #B00412",
"h  c #B20A18",
"j  c #C60004",
"k  c #CE0000",
"l  c #D10000",
"z  c #D10C0C",
"x  c #D21313",
"c  c #D41C1C",
"v  c #D52222",
"b  c #D62929",
"n  c #D93535",
"m  c #DA3D3D",
"M  c #DB4141",
"N  c #DF4847",
"B  c #DD4D4D",
"V  c #DE5353",
"C  c #DF5858",
"Z  c #E05453",
"A  c #E05E5E",
"S  c #E16161",
"D  c #E36E6E",
"F  c #E47575",
"G  c #E67D7D",
"H  c #9395BE",
"J  c #9597C0",
"K  c #9699C1",
"L  c #A7A7C9",
"P  c #ACAFCE",
"I  c #AEB0CE",
"U  c #AFB1D0",
"Y  c #B0B0CC",
"T  c #E98686",
"R  c #E98C8C",
"E  c #EB9595",
"W  c #ED9E9E",
"Q  c #EDA1A1",
"!  c #EFAAAA",
"~  c #F0ACAC",
"^  c #F1B2B2",
"/  c #F3BCBC",
"(  c #C4C5DB",
")  c #C7C8DD",
"_  c #D6D7E6",
"`  c #D7D8E7",
"'  c #F4C3C3",
"]  c #F7D2D2",
"[  c #F8DADA",
"{  c #E4E4EE",
"}  c #E6E7F0",
"|  c #FAE4E4",
" . c #FBECEC",
".. c #F1F1F6",
"X. c #F7F7FA",
"o. c #FDF4F4",
"O. c gray100",
"+. c None",
/* pixels */
"+.+.+.+.+.+.+.+.+.+.+.+.+.+.+.+.+.+.+.+.+.+.+.+.+.+.+.+.+.+.+.+.+.+.+.+.+.+.+.+.+.+.+.+.+.+.+.+.",
"+.+.+.+.+.+.+.+.+.+.+.+.+.+.+.+.+.+.+.+.+.+.+.+.+.+.+.+.+.+.+.+.+.+.+.+.+.+.+.+.+.+.+.+.+.+.+.+.",
"+.+.+.+.+.+.+.+.+.+.+.+.+.+.+.+.+.+.+.+.+.+.+.+.+.+.+.+.+.+.+.+.+.+.+.+.+.+.+.+.+.+.+.+.+.+.+.+.",
"+.+.+.+.+.+.+.+.+.+.+.+.+.+.+.+.+.+.+.+.+.+.+.+.+.+.+.+.+.+.+.+.+.+.+.+.+.+.+.+.+.+.+.+.+.+.+.+.",
"+.+.+.+.+.+.+.+.+.+.+.+.+.+.+.+.+.+.+.+.+.+.+.+.+.+.+.+.+.+.+.+.+.+.+.+.+.+.+.+.+.+.+.+.+.+.+.+.",
"P O.O.O.O.O.O.O.O.O.O.O.O.O.O.O.O.O.O.O.O.O.O.O.O.O.O.O.O.O.O.O.O.O.O.O.O.O.O.O.O.O.O.O.O.O.O.O.",
"- H ..O.O.O.O.O.O.O.O.O.O.O.O.O.O.O.O.O.O.O.O.O.O.O.O.O.O.O.O.O.O.O.O.O.O.O.O.O.O.O.O.O.O.O.O.O.",
"X $ w ( O.O.O.O.O.O.O.O.O.O.O.O.O.O.O.O.O.O.O.O.O.O.O.O.O.O.O.O.O.O.O.O.O.O.O.O.O.O.O.O.O.O.O.O.",
"O s 4 * y { O.O.O.O.O.O.O.O.O.O.O.O.O.O.O.O.O.O.O.O.O.O.O.O.O.O.O.O.O.O.O.O.O.O.O.O.O.O.O.O.O.O.",
"O d l s 9 q P X.O.O.O.O.O.O.O.O.O.O.O.O.O.O.O.O.O.O.O.O.O.O.O.O.O.O.O.O.O.O.O.O.O.O.O.O.O.O.O.O.",
"O d l l j p & r ` O.O.O.O.O.O.O.O.O.O.O.O.O.O.O.O.O.O.O.O.O.O.O.O.O.O.O.O.O.O.O.O.O.O.O.O.O.O.O.",
"O d l k k l d 2 ; J ..O.O.O.O.O.O.O.O.O.O.O.O.O.O.O.O.O.O.O.O.O.O.O.O.O.O.O.O.O.O.O.O.O.O.O.O.O.",
"O d l k k k l k i % w ( O.O.O.O.O.O.O.O.O.O.O.O.O.O.O.O.O.O.O.O.O.O.O.O.O.O.O.O.O.O.O.O.O.O.O.O.",
"O d k k k k k k l f 4 * u { O.O.O.O.O.O.O.O.O.O.O.O.O.O.O.O.O.O.O.O.O.O.O.O.O.O.O.O.O.O.O.O.O.O.",
"O d l k k k k k k k k s 9 q I X.O.O.O.O.O.O.O.O.O.O.O.O.O.O.O.O.O.O.O.O.O.O.O.O.O.O.O.O.O.O.O.O.",
"O d l k k k k k k k k k j 8 & r _ O.O.O.O.O.O.O.O.O.O.O.O.O.O.O.O.O.O.O.O.O.O.O.O.O.O.O.O.O.O.O.",
"O d l k k k z c z k k k k k a 2 ; J ..O.O.O.O.O.O.O.O.O.O.O.O.O.O.O.O.O.O.O.O.O.O.O.O.O.O.O.O.O.",
"O d x k k m W / W m k k x k k k i % e ( O.O.O.O.O.O.O.O.O.O.O.O.O.O.O.O.O.O.O.O.O.O.O.O.O.O.O.O.",
"O d Z v v / O.O.O./ c b V k k k l f 4 * u } O.O.O.O.O.O.O.O.O.O.O.O.O.O.O.O.O.O.O.O.O.O.O.O.O.O.",
"O a N Q F  .O.O.O. .D Q M k k k k k k s 9 q I X.O.O.O.O.O.O.O.O.O.O.O.O.O.O.O.O.O.O.O.O.O.O.O.O.",
"O d z W  .X.O.O.O.o.| E z k k k k k k l j 8 & r ` O.O.O.O.O.O.O.O.O.O.O.O.O.O.O.O.O.O.O.O.O.O.O.",
"O d l c Q o.O.O.O.o.W c k k k k k k k k k l d 2 ; H ..O.O.O.O.O.O.O.O.O.O.O.O.O.O.O.O.O.O.O.O.O.",
"O d l k z B R Q T N z k k l l k l l l l l l l k i % e ( O.O.O.O.O.O.O.O.O.O.O.O.O.O.O.O.O.O.O.O.",
"O d k k k k k k f 8 7 7 7 7 4 4 4 4 4 7 4 4 7 7 6 3 o @ y { O.O.O.O.O.O.O.O.O.O.O.O.O.O.O.O.O.O.",
"O d l k k k k k j 4 . 0 t t r t t t t t t t t t t t t t t L X.O.O.O.O.O.O.O.O.O.O.O.O.O.O.O.O.O.",
"O d k k k k k k k k 4 : ( O.O.O.O.O.O.O.O.O.O.O.O.O.O.O.O.O.O.O.O.O.O.O.O.O.O.O.O.O.O.O.O.O.O.O.",
"O d l k k k k z k k k 4 : ( O.O.O.O.O.O.O.O.O.O.O.O.O.O.O.O.O.O.O.O.O.O.O.O.O.O.O.O.O.O.O.O.O.O.",
"O d l k x z v T z z z k 4 : ( O.O.O.O.O.O.O.O.O.O.O.O.O.O.O.O.O.O.O.O.O.O.O.O.O.O.O.O.O.O.O.O.O.",
"O d k k C W R  .F Q n k k 4 : ) O.O.O.O.O.O.O.O.O.O.O.O.O.O.O.O.O.O.O.O.O.O.O.O.O.O.O.O.O.O.O.O.",
"O g v m T O.X.O.O. .D V x k 4 1 ) O.O.O.O.O.O.O.O.O.O.O.O.O.O.O.O.O.O.O.O.O.O.O.O.O.O.O.O.O.O.O.",
"O g n ] o.O.O.O.O.O.O.~ z k k 4 1 ) O.O.O.O.O.O.O.O.O.O.O.O.O.O.O.O.O.O.O.O.O.O.O.O.O.O.O.O.O.O.",
"O g c ! O.O.O.O.O.O.o.S k k k k 7 1 ( O.O.O.O.O.O.O.O.O.O.O.O.O.O.O.O.O.O.O.O.O.O.O.O.O.O.O.O.O.",
"O h T o.O.O.O.O.O.O.O.[ V k k l k 4 < ) O.O.O.O.O.O.O.O.O.O.O.O.O.O.O.O.O.O.O.O.O.O.O.O.O.O.O.O.",
"O g x E O.O.O.O.O.O.O.R x k k k l j 7 < ) O.O.O.O.O.O.O.O.O.O.O.O.O.O.O.O.O.O.O.O.O.O.O.O.O.O.O.",
"O d c ' O.O.O.O.O.X.o./ c k k k k k k 7 < ) O.O.O.O.O.O.O.O.O.O.O.O.O.O.O.O.O.O.O.O.O.O.O.O.O.O.",
"O d c A W O.X.O.O.| B M x k k k k k l j 7 < ( O.O.O.O.O.O.O.O.O.O.O.O.O.O.O.O.O.O.O.O.O.O.O.O.O.",
"O d l k F E T o.E ^ v k k k k k k k k k k 7 < ( O.O.O.O.O.O.O.O.O.O.O.O.O.O.O.O.O.O.O.O.O.O.O.O.",
"O d l k c k c T x c z k k k k k k k k k k k 7 < ( O.O.O.O.O.O.O.O.O.O.O.O.O.O.O.O.O.O.O.O.O.O.O.",
"O d l k k k k z k k k k k k k k k k k k k k j 7 < ( O.O.O.O.O.O.O.O.O.O.O.O.O.O.O.O.O.O.O.O.O.O.",
"O d l l k k k k k k k k k k k k k k k k k k k k 7 > ( O.O.O.O.O.O.O.O.O.O.O.O.O.O.O.O.O.O.O.O.O.",
"O d l l l l l l l l l l l l l l l l l l l l l l k 6 , ( O.O.O.O.O.O.O.O.O.O.O.O.O.O.O.O.O.O.O.O.",
"X 3 5 4 5 4 5 4 5 4 5 4 4 5 5 4 4 5 5 4 4 5 4 5 4 5 # - ( O.O.O.O.O.O.O.O.O.O.O.O.O.O.O.O.O.O.O.",
"+ + + + + + + + + + + + + + + + + + + + + + + + + + + . w ..O.O.O.O.O.O.O.O.O.O.O.O.O.O.O.O.O.O.",
"+.+.+.+.+.+.+.+.+.+.+.+.+.+.+.+.+.+.+.+.+.+.+.+.+.+.+.+.+.+.+.+.+.+.+.+.+.+.+.+.+.+.+.+.+.+.+.+.",
"+.+.+.+.+.+.+.+.+.+.+.+.+.+.+.+.+.+.+.+.+.+.+.+.+.+.+.+.+.+.+.+.+.+.+.+.+.+.+.+.+.+.+.+.+.+.+.+.",
"+.+.+.+.+.+.+.+.+.+.+.+.+.+.+.+.+.+.+.+.+.+.+.+.+.+.+.+.+.+.+.+.+.+.+.+.+.+.+.+.+.+.+.+.+.+.+.+.",
"+.+.+.+.+.+.+.+.+.+.+.+.+.+.+.+.+.+.+.+.+.+.+.+.+.+.+.+.+.+.+.+.+.+.+.+.+.+.+.+.+.+.+.+.+.+.+.+.",
"+.+.+.+.+.+.+.+.+.+.+.+.+.+.+.+.+.+.+.+.+.+.+.+.+.+.+.+.+.+.+.+.+.+.+.+.+.+.+.+.+.+.+.+.+.+.+.+."
};
