/* XPM */
static char *qa[] = {
/* columns rows colors chars-per-pixel */
"48 48 84 1",
"  c black",
". c #70193D",
"X c #701A3E",
"o c #711A3E",
"O c #711B3E",
"+ c #711B3F",
"@ c #721B3F",
"# c #721C3F",
"$ c #721C40",
"% c #721D40",
"& c #731D41",
"* c #731E41",
"= c #741F42",
"- c #742043",
"; c #772446",
": c #79284A",
"> c #7B2C4D",
", c #7D2E4E",
"< c #803253",
"1 c #823555",
"2 c #853C5A",
"3 c #883F5D",
"4 c #8A4360",
"5 c #8C4663",
"6 c #8E4A66",
"7 c #92516C",
"8 c #94526D",
"9 c #95546F",
"0 c #975872",
"q c #995B75",
"w c #9A5C76",
"e c #9B5E78",
"r c #9C6079",
"t c #9F647C",
"y c #A0677E",
"u c #A1687F",
"i c #A36A82",
"p c #A46C83",
"a c #A56E85",
"s c #AA768C",
"d c #AD7C90",
"f c #B4879A",
"g c #B88D9F",
"h c #BF98A8",
"j c #C29DAD",
"k c #C39EAD",
"l c #C9A9B6",
"z c #CDAEBB",
"x c #CFB2BE",
"c c #D1B4C0",
"v c #D1B5C0",
"b c #D2B7C2",
"n c #D4BBC6",
"m c #D5BBC6",
"M c #D7BEC8",
"N c #D9C1CB",
"B c #DAC4CD",
"V c #DBC5CE",
"C c #DCC7D0",
"Z c #DDC8D0",
"A c #E0CDD5",
"S c #E2D1D8",
"D c #E6D7DE",
"F c #E8DBE0",
"G c #ECE1E6",
"H c #EEE4E8",
"J c #F1E9ED",
"K c #F3EBEF",
"L c #F5EFF2",
"P c #F7F2F4",
"I c #F8F4F6",
"U c #F9F6F7",
"Y c #FCFAFB",
"T c #FCFBFB",
"R c #FCFBFC",
"E c #FDFBFC",
"W c #FDFCFC",
"Q c #FDFCFD",
"! c #FEFDFD",
"~ c #FEFDFE",
"^ c #FEFEFE",
"/ c #FFFEFE",
"( c gray100",
") c None",
/* pixels */
"))))))))))))))))))))))))))))))))))))))))))))))))",
"))))))))))))))))))))))))))))))))))))))))))))))))",
"))))))))))))))))))))))))))))))))))))))))))))))))",
"))))))))))))))))))))))))))))))))))))))))))))))))",
"))))))))))))))))))))))))))))))))))))))))))))))))",
"))))))))))))))))))))))))))))))))))))))))))))))))",
"))))))))))))))))))))))))))))))))))))))))))))))))",
"))))))))))))))))))))))))))))))))))))))))))))))))",
"))))))))))))))))))))))))))))))))))))))))))))))))",
"))))))))))))))))))))))))))))))))))))))))))))))))",
"))))))))))))))))))))))))))))))))))))))))))))))))",
"))))))))))))))))))))))))))))))))))))))))))))))))",
"))))))))))))))))))))))))))))))))))))))))))))))))",
"))))))))))))))))))))))))))))))))))))))))))))))))",
"(((((((((((((Uj4*...............................",
"((((((((((((((PVp-..............................",
"(((((((((((((Ybw>...............................",
"((((((((((((((Kny=..............................",
"(((((((((((((Ynt<...............................",
"((((((((((((((Hze=..............................",
"(((((((((((((YNs2#..............................",
"((((((((((((((Fj9*..............................",
"((((((((((((((Zf5*..............................",
"((((((((((((((Sg6*..............................",
"(((((((((((((RDh7*..............................",
"(((((((((((((YVd3#..............................",
"((((((((((((((Glq*..............................",
"(((((((((((((YMp1...............................",
"((((((((((((((Jbt-..............................",
"(((((((((((((Ybr,...............................",
"((((((((((((((PNi-..............................",
"(((((((((((((Yx0:...............................",
"((((((((((((((PZa-..............................",
"((((((((((((((b8;...............................",
"))))))))))))))))))))))))))))))))))))))))))))))))",
"))))))))))))))))))))))))))))))))))))))))))))))))",
"))))))))))))))))))))))))))))))))))))))))))))))))",
"))))))))))))))))))))))))))))))))))))))))))))))))",
"))))))))))))))))))))))))))))))))))))))))))))))))",
"))))))))))))))))))))))))))))))))))))))))))))))))",
"))))))))))))))))))))))))))))))))))))))))))))))))",
"))))))))))))))))))))))))))))))))))))))))))))))))",
"))))))))))))))))))))))))))))))))))))))))))))))))",
"))))))))))))))))))))))))))))))))))))))))))))))))",
"))))))))))))))))))))))))))))))))))))))))))))))))",
"))))))))))))))))))))))))))))))))))))))))))))))))",
"))))))))))))))))))))))))))))))))))))))))))))))))",
"))))))))))))))))))))))))))))))))))))))))))))))))"
};
