/* XPM */
static char *sn[] = {
/* columns rows colors chars-per-pixel */
"48 48 69 1",
"  c black",
". c #009700",
"X c #009800",
"o c #009900",
"O c #029900",
"+ c #029A00",
"@ c #039A00",
"# c #059B00",
"$ c #069B00",
"% c #089B00",
"& c #0B9D00",
"* c #0E9E00",
"= c #0E9F00",
"- c #17A200",
"; c #1EA500",
": c #2CAA00",
"> c #3AB000",
", c #42B400",
"< c #4AB600",
"1 c #4FB900",
"2 c #51B900",
"3 c #51BA00",
"4 c #52BA00",
"5 c #55BA00",
"6 c #5CBE00",
"7 c #62C000",
"8 c #64C100",
"9 c #68C300",
"0 c #74C700",
"q c #78C900",
"w c #7ACA00",
"e c red",
"r c #FF1E00",
"t c #8BD100",
"y c #8DD100",
"u c #9AD700",
"i c #9DD800",
"p c #9FD900",
"a c #A6DB00",
"s c #ACDE00",
"d c #B2E000",
"f c #BCE400",
"g c #BFE500",
"h c #D1EC00",
"j c #DBF100",
"k c #DEF200",
"l c #E1F300",
"z c #E2F300",
"x c #E4F400",
"c c #E7F600",
"v c #E9F600",
"b c #EBF700",
"n c #ECF700",
"m c #FFE100",
"M c #F1F900",
"N c #F1FA00",
"B c #F3FA00",
"V c #F7FC00",
"C c #F8FC00",
"Z c #F9FC00",
"A c #F9FD00",
"S c #FAFD00",
"D c #FBFD00",
"F c #FCFE00",
"G c #FDFE00",
"H c #FEFE00",
"J c #FEFF00",
"K c yellow",
"L c None",
/* pixels */
"LLLLLLLLLLLLLLLLLLLLLLLLLLLLLLLLLLLLLLLLLLLLLLLL",
"LLLLLLLLLLLLLLLLLLLLLLLLLLLLLLLLLLLLLLLLLLLLLLLL",
"LLLLLLLLLLLLLLLLLLLLLLLLLLLLLLLLLLLLLLLLLLLLLLLL",
"LLLLLLLLLLLLLLLLLLLLLLLLLLLLLLLLLLLLLLLLLLLLLLLL",
"LLLLLLLLLLLLLLLLLLLLLLLLLLLLLLLLLLLLLLLLLLLLLLLL",
"LLLLLLLLLLLLLLLLLLLLLLLLLLLLLLLLLLLLLLLLLLLLLLLL",
"LLLLLLLLLLLLLLLLLLLLLLLLLLLLLLLLLLLLLLLLLLLLLLLL",
"ooooooooooooooo;lKKKKKKKKKKKKKKmreeeeeeeeeeeeeee",
"oooooooooooooo.;lKKKKKKKKKKKKKKmreeeeeeeeeeeeeee",
"oooooooooooooo.;lKKKKKKKKKKKKKKmreeeeeeeeeeeeeee",
"ooooooooooooooo;lKKKKKKKKKKKKKKmreeeeeeeeeeeeeee",
"ooooooooooooooo;lKKKKKKKKKKKKKKmreeeeeeeeeeeeeee",
"oooooooooooooo.;lKKKKKKKKKKKKKKmreeeeeeeeeeeeeee",
"oooooooooooooo.;lKKKKKKKKKKKKKKmreeeeeeeeeeeeeee",
"ooooooooooooooo;lKKKKKKKKKKKKKKmreeeeeeeeeeeeeee",
"ooooooooooooooo;lKKKKKKKKKKKKKKmreeeeeeeeeeeeeee",
"ooooooooooooooo;lKKKKKKKKKKKKKKmreeeeeeeeeeeeeee",
"ooooooooooooooo;lKKKKKKKKKKKKKKmreeeeeeeeeeeeeee",
"oooooooooooooo.;lKKKKKKNnKKKKKKmreeeeeeeeeeeeeee",
"oooooooooooooo.;lKKKKKKduKKKKKKmreeeeeeeeeeeeeee",
"ooooooooooooooo;lKKKKKK9<VKKKKKmreeeeeeeeeeeeeee",
"ooooooooooooooo;lKKAAKx:-hKAAKKmreeeeeeeeeeeeeee",
"oooooooooooooo.;lKAi44,$o>41tNKmreeeeeeeeeeeeeee",
"oooooooooooooo.;lKKvq*.oo.%8kKKmreeeeeeeeeeeeeee",
"ooooooooooooooo;lKKKKa*oo$yZKKKmreeeeeeeeeeeeeee",
"ooooooooooooooo;lKKKKf&$$oiKKKKmreeeeeeeeeeeeeee",
"oooooooooooooo.;lKKKK0*qt-5AKKKmreeeeeeeeeeeeeee",
"oooooooooooooo.;lKKKv7sAKg6jKKKmreeeeeeeeeeeeeee",
"ooooooooooooooo;lKKKNlKKKKvvKKKmreeeeeeeeeeeeeee",
"ooooooooooooooo;lKKKKKKKKKKKKKKmreeeeeeeeeeeeeee",
"oooooooooooooo.;lKKKKKKKKKKKKKKmreeeeeeeeeeeeeee",
"oooooooooooooo.;lKKKKKKKKKKKKKKmreeeeeeeeeeeeeee",
"oooooooooooooo.;lKKKKKKKKKKKKKKmreeeeeeeeeeeeeee",
"oooooooooooooo.;lKKKKKKKKKKKKKKmreeeeeeeeeeeeeee",
"oooooooooooooo.;lKKKKKKKKKKKKKKmreeeeeeeeeeeeeee",
"ooooooooooooooo;lKKKKKKKKKKKKKKmreeeeeeeeeeeeeee",
"ooooooooooooooo;lKKKKKKKKKKKKKKmreeeeeeeeeeeeeee",
"ooooooooooooooo;lKKKKKKKKKKKKKKmreeeeeeeeeeeeeee",
"ooooooooooooooo;lKKKKKKKKKKKKKKmreeeeeeeeeeeeeee",
"oooooooooooooo.;lKKKKKKKKKKKKKKmreeeeeeeeeeeeeee",
"ooooooooooooooo;lKKKKKKKKKKKKKKmreeeeeeeeeeeeeee",
"LLLLLLLLLLLLLLLLLLLLLLLLLLLLLLLLLLLLLLLLLLLLLLLL",
"LLLLLLLLLLLLLLLLLLLLLLLLLLLLLLLLLLLLLLLLLLLLLLLL",
"LLLLLLLLLLLLLLLLLLLLLLLLLLLLLLLLLLLLLLLLLLLLLLLL",
"LLLLLLLLLLLLLLLLLLLLLLLLLLLLLLLLLLLLLLLLLLLLLLLL",
"LLLLLLLLLLLLLLLLLLLLLLLLLLLLLLLLLLLLLLLLLLLLLLLL",
"LLLLLLLLLLLLLLLLLLLLLLLLLLLLLLLLLLLLLLLLLLLLLLLL",
"LLLLLLLLLLLLLLLLLLLLLLLLLLLLLLLLLLLLLLLLLLLLLLLL"
};
