/* XPM */
static char *tz[] = {
/* columns rows colors chars-per-pixel */
"48 48 133 2",
"   c black",
".  c #010100",
"X  c #020200",
"o  c #030200",
"O  c #090801",
"+  c #0A0801",
"@  c #0B0901",
"#  c #130F02",
"$  c #131001",
"%  c #131002",
"&  c #141102",
"*  c #151202",
"=  c #1F1903",
"-  c #261F03",
";  c #272104",
":  c #282103",
">  c #282104",
",  c #3A3005",
"<  c #3A3105",
"1  c #3B3005",
"2  c #3B3105",
"3  c #4B3F07",
"4  c #5D4D08",
"5  c #5E4E08",
"6  c #6B5809",
"7  c #6F5E0A",
"8  c #76620A",
"9  c #77630A",
"0  c #0EB33D",
"q  c #1BB53A",
"w  c #1CB53A",
"e  c #1CB53B",
"r  c #1DB53A",
"t  c #1EB53A",
"y  c #23B639",
"u  c #25B639",
"i  c #3CB935",
"p  c #40B934",
"a  c #49BA33",
"s  c #68BE2E",
"d  c #68BF2E",
"f  c #69BE2E",
"g  c #69BF2E",
"h  c #7AB97C",
"j  c #7BB97C",
"k  c #7ABA7C",
"l  c #3DAEAD",
"z  c #3EAEAC",
"x  c #3EAFAC",
"c  c #00A3DD",
"v  c #00A2DF",
"b  c #00A3DE",
"n  c #00A3DF",
"m  c #03A3DC",
"M  c #03A3DD",
"N  c #17A7CB",
"B  c #14A7CD",
"V  c #15A7CD",
"C  c #00A2E0",
"Z  c #00A1E7",
"A  c #21A6D0",
"S  c #46B0A6",
"D  c #8F770D",
"F  c #9D820D",
"G  c #9C820E",
"H  c #9D820E",
"J  c #AA8D0F",
"K  c #B49510",
"L  c #B49610",
"P  c #B59610",
"I  c #8BBD6F",
"U  c #A1C525",
"Y  c #A1C625",
"T  c #ABC724",
"R  c #B2C822",
"E  c #B7C44D",
"W  c #B7C54C",
"Q  c #B8C44B",
"!  c #B8C54B",
"~  c #B9C54B",
"^  c #B8C54C",
"/  c #CDAA12",
"(  c #D3AF12",
")  c #D3AF13",
"_  c #E2BC14",
"`  c #E3BC14",
"'  c #D1CC1D",
"]  c #D2CC1D",
"[  c #D3CC1D",
"{  c #DBCB30",
"}  c #EDCF18",
"|  c #F1C815",
" . c #F2C915",
".. c #F3C915",
"X. c #F0CF18",
"o. c #F1CF18",
"O. c #F2CF18",
"+. c #F8CE15",
"@. c #F9CF16",
"#. c #F3D717",
"$. c #F1D018",
"%. c #F2D018",
"&. c #F4D01C",
"*. c #F9D116",
"=. c #FAD017",
"-. c #FAD117",
";. c #FBD116",
":. c #FFD213",
">. c #FCD116",
",. c #FDD116",
"<. c #FDD215",
"1. c #FDD216",
"2. c #FED114",
"3. c #FED115",
"4. c #FFD114",
"5. c #FED116",
"6. c #FFD116",
"7. c #FED214",
"8. c #FED215",
"9. c #FFD214",
"0. c #FED216",
"q. c #FED316",
"w. c #FFD316",
"e. c #FDD416",
"r. c #FFD416",
"t. c #FED717",
"y. c #F8D019",
"u. c #FAD118",
"i. c #E5CC28",
"p. c #E5CD28",
"a. c #ECCE23",
"s. c #FFE118",
"d. c None",
/* pixels */
"d.d.d.d.d.d.d.d.d.d.d.d.d.d.d.d.d.d.d.d.d.d.d.d.d.d.d.d.d.d.d.d.d.d.d.d.d.d.d.d.d.d.d.d.d.d.d.d.",
"d.d.d.d.d.d.d.d.d.d.d.d.d.d.d.d.d.d.d.d.d.d.d.d.d.d.d.d.d.d.d.d.d.d.d.d.d.d.d.d.d.d.d.d.d.d.d.d.",
"d.d.d.d.d.d.d.d.d.d.d.d.d.d.d.d.d.d.d.d.d.d.d.d.d.d.d.d.d.d.d.d.d.d.d.d.d.d.d.d.d.d.d.d.d.d.d.d.",
"d.d.d.d.d.d.d.d.d.d.d.d.d.d.d.d.d.d.d.d.d.d.d.d.d.d.d.d.d.d.d.d.d.d.d.d.d.d.d.d.d.d.d.d.d.d.d.d.",
"d.d.d.d.d.d.d.d.d.d.d.d.d.d.d.d.d.d.d.d.d.d.d.d.d.d.d.d.d.d.d.d.d.d.d.d.d.d.d.d.d.d.d.d.d.d.d.d.",
"d.d.d.d.d.d.d.d.d.d.d.d.d.d.d.d.d.d.d.d.d.d.d.d.d.d.d.d.d.d.d.d.d.d.d.d.d.d.d.d.d.d.d.d.d.d.d.d.",
"d.d.d.d.d.d.d.d.d.d.d.d.d.d.d.d.d.d.d.d.d.d.d.d.d.d.d.d.d.d.d.d.d.d.d.d.d.d.d.d.d.d.d.d.d.d.d.d.",
"t t t t t t t t t t t t t t t t t t t t t t t t t t t t t 0 a } >.*.r.$.4                       ",
"t t t t t t t t t t t t t t t t t t t t t t t t t t t t q i R *.>.r...D $                       ",
"t t t t t t t t t t t t t t t t t t t t t t t t t t t y d ' *.>.r.) 5 +                         ",
"t t t t t t t t t t t t t t t t t t t t t t t t t t i U O.>.>...H :                             ",
"t t t t t t t t t t t t t t t t t t t t t t t t y g ' >.>.r.) 5 +                               ",
"t t t t t t t t t t t t t t t t t t t t t t t i U %.>.>...H :                                   ",
"t t t t t t t t t t t t t t t t t t t t t u g ' >.>.r.( 5 +                                     ",
"t t t t t t t t t t t t t t t t t t t t i U %.>.r...H >                                         ",
"t t t t t t t t t t t t t t t t t t y d [ >.>.>.( 5 +                                           ",
"t t t t t t t t t t t t t t t t q i U %.>.r...H >                                           $ 6 ",
"t t t t t t t t t t t t t t t u g ' >.>.r.) 5 +                                           2 P @.",
"t t t t t t t t t t t t t t i U %.>.r...H >                                           $ 8 ` r.>.",
"t t t t t t t t t t t q y d ' >.>.r.( 5 +                                         o 2 P *.r.>.a.",
"t t t t t t t t t t q i U %.>.r...H :                                           $ 9 ` r.>.>.~ S ",
"t t t t t t t t q y g ' >.>.r.) 5 +                                         o 2 P @.>.>.p.j V C ",
"t t t t t t t t i U %.>.>...H >                                           # 9 ` r.>.>.~ x m c c ",
"t t t t t t u d [ >.>.>.( 5 +                                         o 2 P *.>.>.p.j V c c c c ",
"t t t t q i U %.>.r...H :                                           $ 8 ` >.>.u.~ z m c c c c c ",
"t t t y d ' >.>.r.) 5 +                                         o 2 P @.r.>.p.k V C c c c c c c ",
"t t i U %.>.r...H :                                           # 9 ` u.u.*.~ S c c c c c c c c c ",
"u d ' >.>.r.) 5 +                                         o 2 P *.>.>.p.j V C c c c c c c c c c ",
"T %.>.r...H :                                           $ 8 ` >.>.u.~ S c c c c c c c c c c c c ",
">.>.r.) 5 +                                         o 2 P @.r.>.p.j V C c c c c c c c c c c c c ",
"r...H >                                           $ 9 ` r.>.*.~ z m c c c c c c c c c c c c c c ",
"/ 5 +                                           2 P *.>.>.p.j V C c c c c c c c c c c c c c c c ",
"-                                           # 8 ` r.>.>.~ z m c c c c c c c c c c c c c c c c c ",
"                                        o 2 P *.>.>.p.j V C c c c c c c c c c c c c c c c c c c ",
"                                      $ 8 ` r.>.u.~ z m c c c c c c c c c c c c c c c c c c c c ",
"                                    2 P @.>.:.p.j V c c c c c c c c c c c c c c c c c c c c c c ",
"                                $ 8 ` r.>.u.~ z m c c c c c c c c c c c c c c c c c c c c c c c ",
"                              2 P @.>.>.p.j V c c c c c c c c c c c c c c c c c c c c c c c c c ",
"                          $ 9 ` r.>.u.~ z M c c c c c c c c c c c c c c c c c c c c c c c c c c ",
"                        - J *.r.>.&.I N c c c c c c c c c c c c c c c c c c c c c c c c c c c c ",
"                        7 s.r.>.>.{ A Z c c c c c c c c c c c c c c c c c c c c c c c c c c c c ",
"d.d.d.d.d.d.d.d.d.d.d.d.d.d.d.d.d.d.d.d.d.d.d.d.d.d.d.d.d.d.d.d.d.d.d.d.d.d.d.d.d.d.d.d.d.d.d.d.",
"d.d.d.d.d.d.d.d.d.d.d.d.d.d.d.d.d.d.d.d.d.d.d.d.d.d.d.d.d.d.d.d.d.d.d.d.d.d.d.d.d.d.d.d.d.d.d.d.",
"d.d.d.d.d.d.d.d.d.d.d.d.d.d.d.d.d.d.d.d.d.d.d.d.d.d.d.d.d.d.d.d.d.d.d.d.d.d.d.d.d.d.d.d.d.d.d.d.",
"d.d.d.d.d.d.d.d.d.d.d.d.d.d.d.d.d.d.d.d.d.d.d.d.d.d.d.d.d.d.d.d.d.d.d.d.d.d.d.d.d.d.d.d.d.d.d.d.",
"d.d.d.d.d.d.d.d.d.d.d.d.d.d.d.d.d.d.d.d.d.d.d.d.d.d.d.d.d.d.d.d.d.d.d.d.d.d.d.d.d.d.d.d.d.d.d.d.",
"d.d.d.d.d.d.d.d.d.d.d.d.d.d.d.d.d.d.d.d.d.d.d.d.d.d.d.d.d.d.d.d.d.d.d.d.d.d.d.d.d.d.d.d.d.d.d.d.",
"d.d.d.d.d.d.d.d.d.d.d.d.d.d.d.d.d.d.d.d.d.d.d.d.d.d.d.d.d.d.d.d.d.d.d.d.d.d.d.d.d.d.d.d.d.d.d.d."
};
